WL (nm)	%T
300	13.4658
300.2	8.4545
300.5	5.5258
300.8	3.8054
301	2.7538
301.2	2.0818
301.5	1.6352
301.8	1.3286
302	1.1128
302.2	0.9588
302.5	0.8487
302.8	0.7717
303	0.7217
303.2	0.696
303.5	0.6947
303.8	0.7168
304	0.7473
304.2	0.7475
304.5	0.7088
304.8	0.6736
305	0.6666
305.2	0.6887
305.5	0.7376
305.8	0.8138
306	0.9201
306.2	1.0595
306.5	1.2305
306.8	1.4176
307	1.5785
307.2	1.6466
307.5	1.5717
307.8	1.2842
308	0.9437
308.2	0.6763
308.5	0.4938
308.8	0.3733
309	0.293
309.2	0.2385
309.5	0.2008
309.8	0.1743
310	0.1556
310.2	0.1425
310.5	0.1338
310.8	0.1285
311	0.1262
311.2	0.1268
311.5	0.1302
311.8	0.137
312	0.1479
312.2	0.1649
312.5	0.1917
312.8	0.2387
313	0.3412
313.2	0.6646
313.5	1.1147
313.8	0.6957
314	0.6521
314.2	0.8086
314.5	1.16
314.8	1.8737
315	3.3866
315.2	5.6838
315.5	7.7563
315.8	6.6177
316	4.248
316.2	2.7
316.5	1.8587
316.8	1.4111
317	1.1732
317.2	0.9712
317.5	0.7727
317.8	0.645
318	0.5708
318.2	0.5286
318.5	0.5083
318.8	0.5057
319	0.5199
319.2	0.5523
319.5	0.6066
319.8	0.6895
320	0.8104
320.2	0.9796
320.5	1.1965
320.8	1.4172
321	1.5189
321.2	1.385
321.5	1.0831
321.8	0.7777
322	0.5465
322.2	0.3892
322.5	0.2846
322.8	0.2145
323	0.1664
323.2	0.1326
323.5	0.1083
323.8	0.0904
324	0.0771
324.2	0.0669
324.5	0.0591
324.8	0.0532
325	0.0485
325.2	0.0448
325.5	0.042
325.8	0.0399
326	0.0384
326.2	0.0374
326.5	0.0368
326.8	0.0368
327	0.0372
327.2	0.0381
327.5	0.0396
327.8	0.0419
328	0.0451
328.2	0.0497
328.5	0.0564
328.8	0.0659
329	0.0777
329.2	0.0877
329.5	0.0931
329.8	0.0986
330	0.1083
330.2	0.1238
330.5	0.1463
330.8	0.1781
331	0.2226
331.2	0.2858
331.5	0.3775
331.8	0.5136
332	0.722
332.2	1.0514
332.5	1.5905
332.8	2.5027
333	4.0878
333.2	6.8607
333.5	11.5519
333.8	18.7449
334	28.0163
334.2	37.2575
334.5	42.2004
334.8	37.4215
335	24.4416
335.2	14.3557
335.5	8.262
335.8	4.9159
336	3.0733
336.2	2.0203
336.5	1.3909
336.8	0.9977
337	0.7423
337.2	0.5704
337.5	0.4512
337.8	0.3663
338	0.3047
338.2	0.259
338.5	0.2248
338.8	0.199
339	0.1795
339.2	0.1649
339.5	0.1543
339.8	0.1471
340	0.1432
340.2	0.1427
340.5	0.1468
340.8	0.1594
341	0.197
341.2	0.3975
341.5	1.1098
341.8	0.286
342	0.2261
342.2	0.2346
342.5	0.2676
342.8	0.3239
343	0.4149
343.2	0.5677
343.5	0.8458
343.8	1.4192
344	2.8138
344.2	6.4093
344.5	8.1865
344.8	3.7985
345	1.7179
345.2	0.9308
345.5	0.582
345.8	0.4028
346	0.2984
346.2	0.2338
346.5	0.1926
346.8	0.1671
347	0.1512
347.2	0.1343
347.5	0.115
347.8	0.1005
348	0.091
348.2	0.0847
348.5	0.0806
348.8	0.0783
349	0.0773
349.2	0.0776
349.5	0.0792
349.8	0.0822
350	0.0867
350.2	0.0929
350.5	0.1014
350.8	0.1127
351	0.1277
351.2	0.1473
351.5	0.1729
351.8	0.2061
352	0.2475
352.2	0.2953
352.5	0.3418
352.8	0.372
353	0.3708
353.2	0.3368
353.5	0.2846
353.8	0.231
354	0.1849
354.2	0.1482
354.5	0.1201
354.8	0.0989
355	0.0829
355.2	0.0707
355.5	0.0614
355.8	0.0541
356	0.0485
356.2	0.0441
356.5	0.0406
356.8	0.0379
357	0.0357
357.2	0.0342
357.5	0.033
357.8	0.0323
358	0.0319
358.2	0.0319
358.5	0.0322
358.8	0.0329
359	0.034
359.2	0.0355
359.5	0.0374
359.8	0.04
360	0.0432
360.2	0.0472
360.5	0.0523
360.8	0.0586
361	0.0665
361.2	0.0764
361.5	0.0887
361.8	0.1039
362	0.1224
362.2	0.1443
362.5	0.1686
362.8	0.1933
363	0.2146
363.2	0.2283
363.5	0.2318
363.8	0.2253
364	0.2119
364.2	0.1954
364.5	0.1789
364.8	0.1641
365	0.1519
365.2	0.1426
365.5	0.1363
365.8	0.1328
366	0.1325
366.2	0.1354
366.5	0.1424
366.8	0.1547
367	0.1745
367.2	0.2064
367.5	0.2705
367.8	0.3518
368	0.5373
368.2	0.991
368.5	2.5312
368.8	7.1285
369	2.6492
369.2	0.8003
369.5	0.3439
369.8	0.1816
370	0.1086
370.2	0.0706
370.5	0.0486
370.8	0.0351
371	0.0262
371.2	0.0201
371.5	0.0158
371.8	0.0127
372	0.0104
372.2	0.0086
372.5	0.0072
372.8	0.0062
373	0.0053
373.2	0.0046
373.5	0.004
373.8	0.0036
374	0.0032
374.2	0.0028
374.5	0.0026
374.8	0.0023
375	0.0021
375.2	0.002
375.5	0.0018
375.8	0.0017
376	0.0016
376.2	0.0015
376.5	0.0014
376.8	0.0013
377	0.0012
377.2	0.0012
377.5	0.0011
377.8	0.0011
378	0.001
378.2	0.001
378.5	0.001
378.8	0.0009
379	0.0009
379.2	0.0009
379.5	0.0009
379.8	0.0009
380	0.0008
380.2	0.0008
380.5	0.0008
380.8	0.0008
381	0.0008
381.2	0.0008
381.5	0.0008
381.8	0.0008
382	0.0008
382.2	0.0008
382.5	0.0008
382.8	0.0008
383	0.0008
383.2	0.0008
383.5	0.0008
383.8	0.0008
384	0.0008
384.2	0.0008
384.5	0.0008
384.8	0.0008
385	0.0008
385.2	0.0008
385.5	0.0008
385.8	0.0008
386	0.0008
386.2	0.0008
386.5	0.0008
386.8	0.0008
387	0.0008
387.2	0.0008
387.5	0.0008
387.8	0.0008
388	0.0008
388.2	0.0009
388.5	0.0009
388.8	0.0009
389	0.0009
389.2	0.0009
389.5	0.0009
389.8	0.0009
390	0.0009
390.2	0.0009
390.5	0.0009
390.8	0.0009
391	0.0009
391.2	0.0009
391.5	0.0009
391.8	0.0009
392	0.0009
392.2	0.0009
392.5	0.0009
392.8	0.0009
393	0.0009
393.2	0.001
393.5	0.001
393.8	0.001
394	0.001
394.2	0.001
394.5	0.0011
394.8	0.0011
395	0.0011
395.2	0.0011
395.5	0.0012
395.8	0.0012
396	0.0013
396.2	0.0013
396.5	0.0014
396.8	0.0014
397	0.0015
397.2	0.0016
397.5	0.0016
397.8	0.0017
398	0.0018
398.2	0.0019
398.5	0.0021
398.8	0.0022
399	0.0023
399.2	0.0025
399.5	0.0027
399.8	0.0029
400	0.0031
400.2	0.0034
400.5	0.0037
400.8	0.004
401	0.0044
401.2	0.0048
401.5	0.0053
401.8	0.0058
402	0.0064
402.2	0.0072
402.5	0.008
402.8	0.009
403	0.0101
403.2	0.0115
403.5	0.0131
403.8	0.015
404	0.0173
404.2	0.02
404.5	0.0233
404.8	0.0273
405	0.0321
405.2	0.0381
405.5	0.0456
405.8	0.0548
406	0.0663
406.2	0.0806
406.5	0.0983
406.8	0.1203
407	0.1468
407.2	0.1782
407.5	0.2138
407.8	0.2517
408	0.2886
408.2	0.3205
408.5	0.3435
408.8	0.3559
409	0.358
409.2	0.3519
409.5	0.3408
409.8	0.3271
410	0.313
410.2	0.2997
410.5	0.2878
410.8	0.2778
411	0.2698
411.2	0.2637
411.5	0.2595
411.8	0.2571
412	0.2565
412.2	0.2575
412.5	0.26
412.8	0.264
413	0.2695
413.2	0.2763
413.5	0.2845
413.8	0.2939
414	0.3044
414.2	0.3159
414.5	0.3283
414.8	0.3401
415	0.3522
415.2	0.3643
415.5	0.376
415.8	0.3871
416	0.3971
416.2	0.4059
416.5	0.4131
416.8	0.4187
417	0.4224
417.2	0.4245
417.5	0.4249
417.8	0.4241
418	0.4223
418.2	0.4201
418.5	0.4183
418.8	0.4178
419	0.4201
419.2	0.426
419.5	0.4336
419.8	0.4368
420	0.4321
420.2	0.423
420.5	0.414
420.8	0.4072
421	0.4028
421.2	0.4007
421.5	0.4006
421.8	0.4024
422	0.406
422.2	0.4112
422.5	0.418
422.8	0.4262
423	0.4356
423.2	0.446
423.5	0.457
423.8	0.4684
424	0.4796
424.2	0.4903
424.5	0.5004
424.8	0.5097
425	0.5179
425.2	0.5245
425.5	0.5293
425.8	0.5316
426	0.5309
426.2	0.5269
426.5	0.5193
426.8	0.5081
427	0.4935
427.2	0.476
427.5	0.4561
427.8	0.4345
428	0.4119
428.2	0.3889
428.5	0.3661
428.8	0.3439
429	0.3227
429.2	0.3027
429.5	0.2841
429.8	0.2669
430	0.2512
430.2	0.237
430.5	0.2242
430.8	0.2129
431	0.2029
431.2	0.1944
431.5	0.1871
431.8	0.1813
432	0.1768
432.2	0.1738
432.5	0.1722
432.8	0.1715
433	0.1712
433.2	0.1698
433.5	0.1662
433.8	0.16
434	0.1522
434.2	0.1444
434.5	0.1374
434.8	0.1317
435	0.1273
435.2	0.1239
435.5	0.1215
435.8	0.1199
436	0.119
436.2	0.1186
436.5	0.1188
436.8	0.1196
437	0.1208
437.2	0.1225
437.5	0.1247
437.8	0.1274
438	0.1307
438.2	0.1345
438.5	0.139
438.8	0.1443
439	0.1505
439.2	0.1575
439.5	0.1656
439.8	0.1748
440	0.1853
440.2	0.1973
440.5	0.2111
440.8	0.2269
441	0.2451
441.2	0.2662
441.5	0.2905
441.8	0.3188
442	0.3519
442.2	0.3905
442.5	0.4359
442.8	0.4893
443	0.5521
443.2	0.626
443.5	0.7123
443.8	0.8124
444	0.9265
444.2	1.0529
444.5	1.1872
444.8	1.3204
445	1.4397
445.2	1.5292
445.5	1.5751
445.8	1.5699
446	1.5165
446.2	1.4258
446.5	1.3127
446.8	1.1911
447	1.0712
447.2	0.9596
447.5	0.8591
447.8	0.7706
448	0.6938
448.2	0.6276
448.5	0.5709
448.8	0.5224
449	0.481
449.2	0.4458
449.5	0.416
449.8	0.3912
450	0.3712
450.2	0.3561
450.5	0.347
450.8	0.3457
451	0.3533
451.2	0.3609
451.5	0.3473
451.8	0.3171
452	0.2906
452.2	0.2723
452.5	0.2599
452.8	0.2512
453	0.2451
453.2	0.2408
453.5	0.2379
453.8	0.2361
454	0.2354
454.2	0.2357
454.5	0.2368
454.8	0.2388
455	0.2416
455.2	0.2454
455.5	0.25
455.8	0.2555
456	0.2621
456.2	0.2697
456.5	0.2785
456.8	0.2886
457	0.3
457.2	0.313
457.5	0.3276
457.8	0.3442
458	0.3629
458.2	0.3841
458.5	0.408
458.8	0.4351
459	0.4658
459.2	0.5006
459.5	0.5403
459.8	0.5855
460	0.6371
460.2	0.6961
460.5	0.7637
460.8	0.841
461	0.9296
461.2	1.0308
461.5	1.1458
461.8	1.2757
462	1.4207
462.2	1.5799
462.5	1.7504
462.8	1.9266
463	2.0997
463.2	2.2579
463.5	2.3872
463.8	2.4745
464	2.5099
464.2	2.4906
464.5	2.4205
464.8	2.3098
465	2.1713
465.2	2.0179
465.5	1.8603
465.8	1.7065
466	1.5616
466.2	1.4281
466.5	1.3073
466.8	1.199
467	1.1028
467.2	1.0175
467.5	0.9421
467.8	0.8756
468	0.8169
468.2	0.7651
468.5	0.7192
468.8	0.6786
469	0.6427
469.2	0.6108
469.5	0.5825
469.8	0.5574
470	0.5351
470.2	0.5153
470.5	0.4977
470.8	0.4822
471	0.4684
471.2	0.4563
471.5	0.4457
471.8	0.4365
472	0.4286
472.2	0.4218
472.5	0.4161
472.8	0.4115
473	0.4078
473.2	0.4051
473.5	0.4032
473.8	0.4022
474	0.4021
474.2	0.4028
474.5	0.4043
474.8	0.4066
475	0.4098
475.2	0.4138
475.5	0.4186
475.8	0.4243
476	0.4309
476.2	0.4385
476.5	0.447
476.8	0.4566
477	0.4673
477.2	0.4791
477.5	0.4923
477.8	0.5068
478	0.5229
478.2	0.5407
478.5	0.5603
478.8	0.5821
479	0.6062
479.2	0.6332
479.5	0.6635
479.8	0.6976
480	0.7364
480.2	0.781
480.5	0.8327
480.8	0.893
481	0.9636
481.2	1.0454
481.5	1.1372
481.8	1.2334
482	1.3239
482.2	1.3981
482.5	1.4531
482.8	1.4959
483	1.5371
483.2	1.5854
483.5	1.6456
483.8	1.7199
484	1.8091
484.2	1.9138
484.5	2.0345
484.8	2.1721
485	2.3279
485.2	2.5033
485.5	2.7003
485.8	2.9212
486	3.1687
486.2	3.4459
486.5	3.7566
486.8	4.1049
487	4.4957
487.2	4.9344
487.5	5.4272
487.8	5.9811
488	6.604
488.2	7.3046
488.5	8.0923
488.8	8.9775
489	9.9711
489.2	11.0844
489.5	12.3286
489.8	13.7144
490	15.2508
490.2	16.9442
490.5	18.797
490.8	20.8059
491	22.9605
491.2	25.2413
491.5	27.6191
491.8	30.0543
492	32.4983
492.2	34.8957
492.5	37.188
492.8	39.319
493	41.239
493.2	42.9101
493.5	44.3088
493.8	45.427
494	46.2715
494.2	46.8613
494.5	47.2245
494.8	47.3945
495	47.4068
495.2	47.2962
495.5	47.0955
495.8	46.8336
496	46.5354
496.2	46.2218
496.5	45.9096
496.8	45.612
497	45.3392
497.2	45.0988
497.5	44.8961
497.8	44.7347
498	44.6168
498.2	44.5433
498.5	44.5143
498.8	44.5292
499	44.5868
499.2	44.6855
499.5	44.8234
499.8	44.9983
500	45.2078
500.2	45.4267
500.5	45.6712
500.8	45.9396
501	46.23
501.2	46.5408
501.5	46.8705
501.8	47.218
502	47.5824
502.2	47.9633
502.5	48.3607
502.8	48.7754
503	49.2088
503.2	49.6632
503.5	50.1419
503.8	50.6495
504	51.1921
504.2	51.7771
504.5	52.4141
504.8	53.1148
505	53.8931
505.2	54.7655
505.5	55.7513
505.8	56.8723
506	58.1526
506.2	59.6175
506.5	61.2919
506.8	63.1981
507	65.3513
507.2	67.7551
507.5	70.3951
507.8	73.2336
508	76.205
508.2	79.2167
508.5	82.1549
508.8	84.8977
509	87.332
509.2	89.3709
509.5	90.9656
509.8	92.1088
510	92.8305
510.2	93.1866
510.5	93.2473
510.8	93.0859
511	92.771
511.2	92.3621
511.5	91.9077
511.8	91.4454
512	91.0032
512.2	90.6009
512.5	90.2518
512.8	89.9638
513	89.7412
513.2	89.5853
513.5	89.495
513.8	89.4678
514	89.4999
514.2	89.5866
514.5	89.7226
514.8	89.9021
515	90.1189
515.2	90.3668
515.5	90.6393
515.8	90.9298
516	91.2319
516.2	91.5393
516.5	91.8461
516.8	92.1466
517	92.4356
517.2	92.7083
517.5	92.9607
517.8	93.1892
518	93.3911
518.2	93.5643
518.5	93.7075
518.8	93.8199
519	93.9015
519.2	93.9531
519.5	93.9757
519.8	93.971
520	93.9411
520.2	93.8883
520.5	93.8153
520.8	93.7247
521	93.6194
521.2	93.5023
521.5	93.3763
521.8	93.2439
522	93.1079
522.2	92.9707
522.5	92.8344
522.8	92.7013
523	92.573
523.2	92.4512
523.5	92.3373
523.8	92.2325
524	92.1377
524.2	92.0537
524.5	91.9809
524.8	91.9199
525	91.8706
525.2	91.8333
525.5	91.8076
525.8	91.7933
526	91.79
526.2	91.7972
526.5	91.8142
526.8	91.8402
527	91.8745
527.2	91.9162
527.5	91.9643
527.8	92.0178
528	92.0759
528.2	92.1374
528.5	92.2015
528.8	92.267
529	92.3331
529.2	92.3989
529.5	92.4634
529.8	92.526
530	92.5858
530.2	92.6423
530.5	92.6948
530.8	92.743
531	92.7863
531.2	92.8246
531.5	92.8576
531.8	92.8853
532	92.9075
532.2	92.9244
532.5	92.9361
532.8	92.9427
533	92.9447
533.2	92.9422
533.5	92.9357
533.8	92.9255
534	92.9122
534.2	92.8961
534.5	92.8779
534.8	92.8579
535	92.8366
535.2	92.8146
535.5	92.7923
535.8	92.7702
536	92.7487
536.2	92.7282
536.5	92.7092
536.8	92.6919
537	92.6768
537.2	92.664
537.5	92.6538
537.8	92.6465
538	92.6422
538.2	92.641
538.5	92.643
538.8	92.6483
539	92.6568
539.2	92.6686
539.5	92.6836
539.8	92.7016
540	92.7226
540.2	92.7463
540.5	92.7726
540.8	92.8013
541	92.832
541.2	92.8646
541.5	92.8987
541.8	92.934
542	92.9702
542.2	93.007
542.5	93.0439
542.8	93.0808
543	93.1172
543.2	93.1529
543.5	93.1874
543.8	93.2204
544	93.2518
544.2	93.2811
544.5	93.3081
544.8	93.3326
545	93.3544
545.2	93.3733
545.5	93.3891
545.8	93.4017
546	93.411
546.2	93.417
546.5	93.4196
546.8	93.4188
547	93.4148
547.2	93.4074
547.5	93.397
547.8	93.3835
548	93.3672
548.2	93.3481
548.5	93.3266
548.8	93.3028
549	93.277
549.2	93.2494
549.5	93.2203
549.8	93.1899
550	93.1585
550.2	93.1265
550.5	93.0941
550.8	93.0615
551	93.029
551.2	92.9967
551.5	92.9651
551.8	92.9342
552	92.9044
552.2	92.8758
552.5	92.8486
552.8	92.8231
553	92.7992
553.2	92.7773
553.5	92.7573
553.8	92.7395
554	92.7239
554.2	92.7105
554.5	92.6994
554.8	92.6906
555	92.6841
555.2	92.6799
555.5	92.678
555.8	92.6784
556	92.6809
556.2	92.6854
556.5	92.692
556.8	92.7004
557	92.7106
557.2	92.7224
557.5	92.7356
557.8	92.7502
558	92.7659
558.2	92.7826
558.5	92.8001
558.8	92.8182
559	92.8368
559.2	92.8556
559.5	92.8745
559.8	92.8933
560	92.9118
560.2	92.9298
560.5	92.9471
560.8	92.9636
561	92.9792
561.2	92.9936
561.5	93.0068
561.8	93.0186
562	93.0289
562.2	93.0376
562.5	93.0446
562.8	93.0499
563	93.0533
563.2	93.0549
563.5	93.0547
563.8	93.0525
564	93.0485
564.2	93.0427
564.5	93.035
564.8	93.0256
565	93.0146
565.2	93.0019
565.5	92.9878
565.8	92.9723
566	92.9555
566.2	92.9376
566.5	92.9188
566.8	92.8991
567	92.8787
567.2	92.8579
567.5	92.8367
567.8	92.8153
568	92.7939
568.2	92.7726
568.5	92.7517
568.8	92.7313
569	92.7115
569.2	92.6925
569.5	92.6745
569.8	92.6576
570	92.642
570.2	92.6276
570.5	92.6148
570.8	92.6036
571	92.5941
571.2	92.5863
571.5	92.5804
571.8	92.5764
572	92.5743
572.2	92.5743
572.5	92.5763
572.8	92.5803
573	92.5864
573.2	92.5945
573.5	92.6046
573.8	92.6168
574	92.6308
574.2	92.6467
574.5	92.6644
574.8	92.6839
575	92.705
575.2	92.7276
575.5	92.7517
575.8	92.7771
576	92.8037
576.2	92.8313
576.5	92.8599
576.8	92.8892
577	92.9192
577.2	92.9496
577.5	92.9804
577.8	93.0114
578	93.0423
578.2	93.0731
578.5	93.1036
578.8	93.1336
579	93.163
579.2	93.1915
579.5	93.2192
579.8	93.2457
580	93.271
580.2	93.2949
580.5	93.3173
580.8	93.3381
581	93.3572
581.2	93.3744
581.5	93.3897
581.8	93.4029
582	93.414
582.2	93.423
582.5	93.4298
582.8	93.4343
583	93.4366
583.2	93.4365
583.5	93.4342
583.8	93.4295
584	93.4226
584.2	93.4135
584.5	93.4022
584.8	93.3887
585	93.3732
585.2	93.3557
585.5	93.3364
585.8	93.3152
586	93.2923
586.2	93.2679
586.5	93.242
586.8	93.2149
587	93.1865
587.2	93.1571
587.5	93.1268
587.8	93.0958
588	93.0642
588.2	93.0321
588.5	92.9997
588.8	92.9672
589	92.9347
589.2	92.9024
589.5	92.8704
589.8	92.8389
590	92.8079
590.2	92.7777
590.5	92.7484
590.8	92.7201
591	92.6928
591.2	92.6668
591.5	92.6421
591.8	92.6189
592	92.5972
592.2	92.577
592.5	92.5586
592.8	92.5419
593	92.527
593.2	92.5139
593.5	92.5027
593.8	92.4934
594	92.4861
594.2	92.4807
594.5	92.4773
594.8	92.4758
595	92.4762
595.2	92.4786
595.5	92.4828
595.8	92.4889
596	92.4967
596.2	92.5063
596.5	92.5176
596.8	92.5305
597	92.5449
597.2	92.5608
597.5	92.5781
597.8	92.5966
598	92.6164
598.2	92.6372
598.5	92.659
598.8	92.6817
599	92.7051
599.2	92.7292
599.5	92.7538
599.8	92.7789
600	92.8042
600.2	92.8293
600.5	92.8545
600.8	92.8796
601	92.9046
601.2	92.9292
601.5	92.9535
601.8	92.9773
602	93.0004
602.2	93.0229
602.5	93.0445
602.8	93.0652
603	93.0849
603.2	93.1036
603.5	93.1211
603.8	93.1373
604	93.1522
604.2	93.1658
604.5	93.178
604.8	93.1887
605	93.1978
605.2	93.2055
605.5	93.2115
605.8	93.216
606	93.2188
606.2	93.2201
606.5	93.2197
606.8	93.2178
607	93.2143
607.2	93.2092
607.5	93.2026
607.8	93.1945
608	93.185
608.2	93.174
608.5	93.1618
608.8	93.1483
609	93.1335
609.2	93.1177
609.5	93.1008
609.8	93.0829
610	93.0642
610.2	93.0446
610.5	93.0243
610.8	93.0034
611	92.982
611.2	92.9602
611.5	92.938
611.8	92.9156
612	92.8931
612.2	92.8705
612.5	92.848
612.8	92.8257
613	92.8036
613.2	92.7818
613.5	92.7605
613.8	92.7397
614	92.7195
614.2	92.7
614.5	92.6813
614.8	92.6634
615	92.6464
615.2	92.6303
615.5	92.6153
615.8	92.6014
616	92.5887
616.2	92.5771
616.5	92.5667
616.8	92.5576
617	92.5498
617.2	92.5434
617.5	92.5382
617.8	92.5345
618	92.532
618.2	92.531
618.5	92.5313
618.8	92.533
619	92.5361
619.2	92.5405
619.5	92.5462
619.8	92.5532
620	92.5615
620.2	92.571
620.5	92.5817
620.8	92.5935
621	92.6065
621.2	92.6205
621.5	92.6355
621.8	92.6514
622	92.6682
622.2	92.6858
622.5	92.7042
622.8	92.7233
623	92.743
623.2	92.7632
623.5	92.7839
623.8	92.8049
624	92.8263
624.2	92.848
624.5	92.8698
624.8	92.8916
625	92.9135
625.2	92.9353
625.5	92.957
625.8	92.9785
626	92.9996
626.2	93.0204
626.5	93.0407
626.8	93.0606
627	93.0798
627.2	93.0984
627.5	93.1163
627.8	93.1335
628	93.1498
628.2	93.1653
628.5	93.1799
628.8	93.1935
629	93.2061
629.2	93.2176
629.5	93.2281
629.8	93.2375
630	93.2457
630.2	93.2529
630.5	93.2588
630.8	93.2636
631	93.2672
631.2	93.2697
631.5	93.2709
631.8	93.271
632	93.27
632.2	93.2678
632.5	93.2644
632.8	93.26
633	93.2545
633.2	93.2484
633.5	93.2414
633.8	93.2334
634	93.2246
634.2	93.2149
634.5	93.2045
634.8	93.1933
635	93.1815
635.2	93.169
635.5	93.1559
635.8	93.1423
636	93.1282
636.2	93.1137
636.5	93.0988
636.8	93.0836
637	93.0682
637.2	93.0526
637.5	93.0369
637.8	93.0211
638	93.0053
638.2	92.9895
638.5	92.9739
638.8	92.9584
639	92.9432
639.2	92.9282
639.5	92.9136
639.8	92.8993
640	92.8855
640.2	92.8722
640.5	92.8594
640.8	92.8472
641	92.8356
641.2	92.8247
641.5	92.8144
641.8	92.8049
642	92.7962
642.2	92.7883
642.5	92.7812
642.8	92.7749
643	92.7696
643.2	92.7651
643.5	92.7615
643.8	92.7589
644	92.7572
644.2	92.7565
644.5	92.7567
644.8	92.7578
645	92.76
645.2	92.763
645.5	92.767
645.8	92.772
646	92.7778
646.2	92.7846
646.5	92.7923
646.8	92.8008
647	92.8102
647.2	92.8205
647.5	92.8315
647.8	92.8433
648	92.8558
648.2	92.8691
648.5	92.883
648.8	92.8976
649	92.9127
649.2	92.9284
649.5	92.9447
649.8	92.9614
650	92.9785
650.2	92.996
650.5	93.0139
650.8	93.032
651	93.0504
651.2	93.0689
651.5	93.0876
651.8	93.1064
652	93.1252
652.2	93.1441
652.5	93.1628
652.8	93.1815
653	93.2
653.2	93.2182
653.5	93.2363
653.8	93.254
654	93.2714
654.2	93.2884
654.5	93.3049
654.8	93.321
655	93.3365
655.2	93.3515
655.5	93.3658
655.8	93.3795
656	93.3926
656.2	93.4049
656.5	93.4165
656.8	93.4273
657	93.4374
657.2	93.4466
657.5	93.4549
657.8	93.4624
658	93.469
658.2	93.4748
658.5	93.4796
658.8	93.4835
659	93.4865
659.2	93.4885
659.5	93.4896
659.8	93.4898
660	93.489
660.2	93.4873
660.5	93.4847
660.8	93.4812
661	93.4768
661.2	93.4715
661.5	93.4653
661.8	93.4583
662	93.4505
662.2	93.4419
662.5	93.4325
662.8	93.4223
663	93.4115
663.2	93.3999
663.5	93.3877
663.8	93.3749
664	93.3615
664.2	93.3475
664.5	93.333
664.8	93.3181
665	93.3027
665.2	93.2869
665.5	93.2708
665.8	93.2543
666	93.2376
666.2	93.2207
666.5	93.2036
666.8	93.1863
667	93.169
667.2	93.1516
667.5	93.1341
667.8	93.1168
668	93.0994
668.2	93.0823
668.5	93.0652
668.8	93.0484
669	93.0318
669.2	93.0155
669.5	92.9994
669.8	92.9838
670	92.9685
670.2	92.9536
670.5	92.9392
670.8	92.9252
671	92.9118
671.2	92.8989
671.5	92.8866
671.8	92.8748
672	92.8637
672.2	92.8532
672.5	92.8434
672.8	92.8342
673	92.8258
673.2	92.818
673.5	92.811
673.8	92.8047
674	92.7991
674.2	92.7943
674.5	92.7902
674.8	92.7869
675	92.7844
675.2	92.7826
675.5	92.7816
675.8	92.7813
676	92.7818
676.2	92.7831
676.5	92.7851
676.8	92.7878
677	92.7912
677.2	92.7954
677.5	92.8002
677.8	92.8058
678	92.812
678.2	92.8188
678.5	92.8263
678.8	92.8343
679	92.843
679.2	92.8522
679.5	92.862
679.8	92.8722
680	92.883
680.2	92.8942
680.5	92.9058
680.8	92.9179
681	92.9303
681.2	92.9431
681.5	92.9561
681.8	92.9695
682	92.9831
682.2	92.9969
682.5	93.0109
682.8	93.0251
683	93.0394
683.2	93.0538
683.5	93.0682
683.8	93.0827
684	93.0971
684.2	93.1115
684.5	93.1259
684.8	93.1402
685	93.1543
685.2	93.1683
685.5	93.182
685.8	93.1956
686	93.2089
686.2	93.222
686.5	93.2347
686.8	93.2472
687	93.2592
687.2	93.271
687.5	93.2823
687.8	93.2932
688	93.3037
688.2	93.3137
688.5	93.3233
688.8	93.3323
689	93.3409
689.2	93.349
689.5	93.3565
689.8	93.3635
690	93.37
690.2	93.3759
690.5	93.3812
690.8	93.386
691	93.3902
691.2	93.3938
691.5	93.3969
691.8	93.3994
692	93.4013
692.2	93.4027
692.5	93.4035
692.8	93.4037
693	93.4034
693.2	93.4026
693.5	93.4012
693.8	93.3994
694	93.397
694.2	93.3941
694.5	93.3907
694.8	93.3869
695	93.3826
695.2	93.3779
695.5	93.3728
695.8	93.3673
696	93.3615
696.2	93.3553
696.5	93.3487
696.8	93.3419
697	93.3347
697.2	93.3273
697.5	93.3197
697.8	93.3119
698	93.3038
698.2	93.2956
698.5	93.2873
698.8	93.2788
699	93.2703
699.2	93.2617
699.5	93.2531
699.8	93.2444
700	93.2358
700.2	93.2272
700.5	93.2186
700.8	93.2102
701	93.2018
701.2	93.1936
701.5	93.1855
701.8	93.1777
702	93.17
702.2	93.1625
702.5	93.1553
702.8	93.1483
703	93.1416
703.2	93.1352
703.5	93.1291
703.8	93.1234
704	93.118
704.2	93.113
704.5	93.1083
704.8	93.104
705	93.1002
705.2	93.0967
705.5	93.0937
705.8	93.0911
706	93.089
706.2	93.0873
706.5	93.0861
706.8	93.0853
707	93.085
707.2	93.0851
707.5	93.0858
707.8	93.0869
708	93.0885
708.2	93.0905
708.5	93.093
708.8	93.096
709	93.0995
709.2	93.1034
709.5	93.1077
709.8	93.1126
710	93.1178
710.2	93.1235
710.5	93.1296
710.8	93.1361
711	93.143
711.2	93.1503
711.5	93.1579
711.8	93.1659
712	93.1743
712.2	93.183
712.5	93.192
712.8	93.2012
713	93.2108
713.2	93.2206
713.5	93.2307
713.8	93.241
714	93.2515
714.2	93.2622
714.5	93.273
714.8	93.284
715	93.2951
715.2	93.3063
715.5	93.3175
715.8	93.3289
716	93.3402
716.2	93.3516
716.5	93.3629
716.8	93.3743
717	93.3855
717.2	93.3967
717.5	93.4078
717.8	93.4188
718	93.4296
718.2	93.4403
718.5	93.4507
718.8	93.461
719	93.471
719.2	93.4808
719.5	93.4903
719.8	93.4996
720	93.5085
720.2	93.5171
720.5	93.5253
720.8	93.5332
721	93.5408
721.2	93.5479
721.5	93.5546
721.8	93.5609
722	93.5668
722.2	93.5722
722.5	93.5771
722.8	93.5816
723	93.5856
723.2	93.5891
723.5	93.5921
723.8	93.5946
724	93.5966
724.2	93.5981
724.5	93.599
724.8	93.5994
725	93.5992
725.2	93.5986
725.5	93.5974
725.8	93.5956
726	93.5933
726.2	93.5905
726.5	93.5871
726.8	93.5832
727	93.5788
727.2	93.5739
727.5	93.5684
727.8	93.5624
728	93.556
728.2	93.549
728.5	93.5416
728.8	93.5336
729	93.5252
729.2	93.5164
729.5	93.5071
729.8	93.4974
730	93.4873
730.2	93.4768
730.5	93.4659
730.8	93.4547
731	93.4431
731.2	93.4311
731.5	93.4189
731.8	93.4063
732	93.3935
732.2	93.3804
732.5	93.367
732.8	93.3534
733	93.3397
733.2	93.3257
733.5	93.3116
733.8	93.2973
734	93.2829
734.2	93.2684
734.5	93.2538
734.8	93.2391
735	93.2244
735.2	93.2097
735.5	93.1949
735.8	93.1802
736	93.1655
736.2	93.1509
736.5	93.1363
736.8	93.1219
737	93.1075
737.2	93.0933
737.5	93.0793
737.8	93.0654
738	93.0517
738.2	93.0382
738.5	93.0249
738.8	93.0118
739	92.999
739.2	92.9865
739.5	92.9743
739.8	92.9624
740	92.9507
740.2	92.9395
740.5	92.9285
740.8	92.9179
741	92.9077
741.2	92.8978
741.5	92.8884
741.8	92.8793
742	92.8707
742.2	92.8624
742.5	92.8546
742.8	92.8472
743	92.8403
743.2	92.8338
743.5	92.8277
743.8	92.8221
744	92.817
744.2	92.8123
744.5	92.8081
744.8	92.8044
745	92.8012
745.2	92.7984
745.5	92.796
745.8	92.7942
746	92.7928
746.2	92.7919
746.5	92.7915
746.8	92.7915
747	92.792
747.2	92.7929
747.5	92.7943
747.8	92.7961
748	92.7984
748.2	92.8011
748.5	92.8042
748.8	92.8078
749	92.8117
749.2	92.8161
749.5	92.8208
749.8	92.8259
750	92.8314
750.2	92.8373
750.5	92.8435
750.8	92.8501
751	92.857
751.2	92.8642
751.5	92.8717
751.8	92.8795
752	92.8876
752.2	92.8959
752.5	92.9045
752.8	92.9134
753	92.9224
753.2	92.9317
753.5	92.9412
753.8	92.9508
754	92.9606
754.2	92.9706
754.5	92.9807
754.8	92.9909
755	93.0013
755.2	93.0117
755.5	93.0222
755.8	93.0327
756	93.0434
756.2	93.054
756.5	93.0647
756.8	93.0753
757	93.086
757.2	93.0966
757.5	93.1072
757.8	93.1177
758	93.1282
758.2	93.1385
758.5	93.1488
758.8	93.159
759	93.1691
759.2	93.179
759.5	93.1887
759.8	93.1983
760	93.2078
760.2	93.217
760.5	93.2261
760.8	93.235
761	93.2436
761.2	93.252
761.5	93.2602
761.8	93.2682
762	93.2759
762.2	93.2833
762.5	93.2905
762.8	93.2974
763	93.3041
763.2	93.3104
763.5	93.3164
763.8	93.3222
764	93.3277
764.2	93.3328
764.5	93.3377
764.8	93.3422
765	93.3464
765.2	93.3503
765.5	93.3539
765.8	93.3572
766	93.3602
766.2	93.3628
766.5	93.3651
766.8	93.3671
767	93.3688
767.2	93.3702
767.5	93.3713
767.8	93.372
768	93.3725
768.2	93.3726
768.5	93.3725
768.8	93.372
769	93.3713
769.2	93.3703
769.5	93.369
769.8	93.3675
770	93.3657
770.2	93.3636
770.5	93.3613
770.8	93.3587
771	93.3559
771.2	93.3529
771.5	93.3497
771.8	93.3463
772	93.3426
772.2	93.3388
772.5	93.3348
772.8	93.3306
773	93.3263
773.2	93.3218
773.5	93.3171
773.8	93.3124
774	93.3075
774.2	93.3025
774.5	93.2974
774.8	93.2922
775	93.287
775.2	93.2816
775.5	93.2762
775.8	93.2708
776	93.2653
776.2	93.2598
776.5	93.2543
776.8	93.2488
777	93.2433
777.2	93.2378
777.5	93.2324
777.8	93.2269
778	93.2215
778.2	93.2162
778.5	93.2109
778.8	93.2057
779	93.2006
779.2	93.1956
779.5	93.1907
779.8	93.1859
780	93.1812
780.2	93.1767
780.5	93.1722
780.8	93.1679
781	93.1638
781.2	93.1598
781.5	93.156
781.8	93.1523
782	93.1488
782.2	93.1455
782.5	93.1424
782.8	93.1395
783	93.1368
783.2	93.1342
783.5	93.1319
783.8	93.1298
784	93.1278
784.2	93.1261
784.5	93.1246
784.8	93.1234
785	93.1223
785.2	93.1215
785.5	93.1209
785.8	93.1205
786	93.1203
786.2	93.1204
786.5	93.1207
786.8	93.1212
787	93.1219
787.2	93.1229
787.5	93.1241
787.8	93.1255
788	93.1271
788.2	93.1289
788.5	93.1309
788.8	93.1332
789	93.1356
789.2	93.1382
789.5	93.1411
789.8	93.1441
790	93.1473
790.2	93.1507
790.5	93.1543
790.8	93.1581
791	93.162
791.2	93.1661
791.5	93.1703
791.8	93.1747
792	93.1792
792.2	93.1838
792.5	93.1886
792.8	93.1935
793	93.1985
793.2	93.2036
793.5	93.2089
793.8	93.2142
794	93.2195
794.2	93.225
794.5	93.2305
794.8	93.2361
795	93.2417
795.2	93.2474
795.5	93.2531
795.8	93.2588
796	93.2645
796.2	93.2703
796.5	93.276
796.8	93.2817
797	93.2874
797.2	93.2931
797.5	93.2987
797.8	93.3043
798	93.3099
798.2	93.3153
798.5	93.3207
798.8	93.326
799	93.3312
799.2	93.3364
799.5	93.3414
799.8	93.3463
800	93.3511
800.2	93.3557
800.5	93.3602
800.8	93.3646
801	93.3688
801.2	93.3728
801.5	93.3767
801.8	93.3804
802	93.384
802.2	93.3873
802.5	93.3905
802.8	93.3934
803	93.3962
803.2	93.3988
803.5	93.4011
803.8	93.4032
804	93.4051
804.2	93.4068
804.5	93.4082
804.8	93.4094
805	93.4104
805.2	93.4111
805.5	93.4116
805.8	93.4118
806	93.4118
806.2	93.4115
806.5	93.411
806.8	93.4102
807	93.4092
807.2	93.4079
807.5	93.4063
807.8	93.4045
808	93.4025
808.2	93.4001
808.5	93.3976
808.8	93.3947
809	93.3917
809.2	93.3883
809.5	93.3847
809.8	93.3809
810	93.3768
810.2	93.3725
810.5	93.368
810.8	93.3632
811	93.3581
811.2	93.3529
811.5	93.3474
811.8	93.3417
812	93.3358
812.2	93.3297
812.5	93.3234
812.8	93.3168
813	93.3101
813.2	93.3032
813.5	93.2961
813.8	93.2889
814	93.2814
814.2	93.2738
814.5	93.2661
814.8	93.2582
815	93.2502
815.2	93.242
815.5	93.2337
815.8	93.2253
816	93.2167
816.2	93.2081
816.5	93.1994
816.8	93.1905
817	93.1816
817.2	93.1727
817.5	93.1636
817.8	93.1545
818	93.1454
818.2	93.1362
818.5	93.127
818.8	93.1178
819	93.1085
819.2	93.0993
819.5	93.09
819.8	93.0808
820	93.0716
820.2	93.0624
820.5	93.0532
820.8	93.0441
821	93.0351
821.2	93.0261
821.5	93.0172
821.8	93.0084
822	92.9996
822.2	92.9909
822.5	92.9824
822.8	92.9739
823	92.9656
823.2	92.9574
823.5	92.9493
823.8	92.9414
824	92.9336
824.2	92.926
824.5	92.9185
824.8	92.9112
825	92.9041
825.2	92.8971
825.5	92.8903
825.8	92.8838
826	92.8774
826.2	92.8712
826.5	92.8652
826.8	92.8594
827	92.8539
827.2	92.8486
827.5	92.8435
827.8	92.8386
828	92.834
828.2	92.8296
828.5	92.8254
828.8	92.8215
829	92.8179
829.2	92.8145
829.5	92.8113
829.8	92.8084
830	92.8058
830.2	92.8034
830.5	92.8013
830.8	92.7995
831	92.7979
831.2	92.7966
831.5	92.7956
831.8	92.7948
832	92.7943
832.2	92.7941
832.5	92.7942
832.8	92.7945
833	92.7951
833.2	92.7959
833.5	92.7971
833.8	92.7985
834	92.8001
834.2	92.802
834.5	92.8042
834.8	92.8067
835	92.8094
835.2	92.8124
835.5	92.8156
835.8	92.819
836	92.8228
836.2	92.8267
836.5	92.8309
836.8	92.8354
837	92.8401
837.2	92.845
837.5	92.8501
837.8	92.8555
838	92.8611
838.2	92.8669
838.5	92.8729
838.8	92.8791
839	92.8855
839.2	92.8921
839.5	92.8989
839.8	92.9058
840	92.913
840.2	92.9203
840.5	92.9278
840.8	92.9355
841	92.9433
841.2	92.9513
841.5	92.9594
841.8	92.9676
842	92.976
842.2	92.9845
842.5	92.9931
842.8	93.0018
843	93.0106
843.2	93.0196
843.5	93.0286
843.8	93.0377
844	93.0469
844.2	93.0561
844.5	93.0655
844.8	93.0748
845	93.0843
845.2	93.0937
845.5	93.1032
845.8	93.1128
846	93.1223
846.2	93.1319
846.5	93.1415
846.8	93.1511
847	93.1607
847.2	93.1703
847.5	93.1798
847.8	93.1894
848	93.1989
848.2	93.2084
848.5	93.2178
848.8	93.2272
849	93.2365
849.2	93.2458
849.5	93.255
849.8	93.2641
850	93.2731
850.2	93.2821
850.5	93.291
850.8	93.2997
851	93.3084
851.2	93.317
851.5	93.3254
851.8	93.3338
852	93.342
852.2	93.3501
852.5	93.358
852.8	93.3658
853	93.3735
853.2	93.381
853.5	93.3884
853.8	93.3957
854	93.4027
854.2	93.4097
854.5	93.4164
854.8	93.423
855	93.4294
855.2	93.4357
855.5	93.4417
855.8	93.4476
856	93.4533
856.2	93.4589
856.5	93.4642
856.8	93.4694
857	93.4743
857.2	93.4791
857.5	93.4837
857.8	93.4881
858	93.4923
858.2	93.4963
858.5	93.5001
858.8	93.5037
859	93.5072
859.2	93.5104
859.5	93.5134
859.8	93.5163
860	93.5189
860.2	93.5214
860.5	93.5236
860.8	93.5257
861	93.5276
861.2	93.5292
861.5	93.5307
861.8	93.532
862	93.5331
862.2	93.5341
862.5	93.5348
862.8	93.5354
863	93.5358
863.2	93.536
863.5	93.536
863.8	93.5359
864	93.5356
864.2	93.5351
864.5	93.5345
864.8	93.5337
865	93.5328
865.2	93.5317
865.5	93.5305
865.8	93.5291
866	93.5275
866.2	93.5259
866.5	93.5241
866.8	93.5221
867	93.5201
867.2	93.5179
867.5	93.5156
867.8	93.5132
868	93.5106
868.2	93.508
868.5	93.5053
868.8	93.5024
869	93.4995
869.2	93.4965
869.5	93.4934
869.8	93.4902
870	93.487
870.2	93.4837
870.5	93.4803
870.8	93.4768
871	93.4733
871.2	93.4697
871.5	93.4661
871.8	93.4625
872	93.4588
872.2	93.4551
872.5	93.4513
872.8	93.4475
873	93.4437
873.2	93.4399
873.5	93.4361
873.8	93.4323
874	93.4284
874.2	93.4246
874.5	93.4208
874.8	93.4169
875	93.4131
875.2	93.4093
875.5	93.4056
875.8	93.4018
876	93.3981
876.2	93.3944
876.5	93.3908
876.8	93.3872
877	93.3836
877.2	93.3801
877.5	93.3767
877.8	93.3732
878	93.3699
878.2	93.3666
878.5	93.3634
878.8	93.3602
879	93.3571
879.2	93.3541
879.5	93.3512
879.8	93.3483
880	93.3455
880.2	93.3428
880.5	93.3402
880.8	93.3377
881	93.3353
881.2	93.3329
881.5	93.3306
881.8	93.3285
882	93.3264
882.2	93.3244
882.5	93.3226
882.8	93.3208
883	93.3191
883.2	93.3176
883.5	93.3161
883.8	93.3147
884	93.3135
884.2	93.3123
884.5	93.3113
884.8	93.3103
885	93.3095
885.2	93.3088
885.5	93.3081
885.8	93.3076
886	93.3072
886.2	93.3069
886.5	93.3067
886.8	93.3066
887	93.3066
887.2	93.3067
887.5	93.3069
887.8	93.3072
888	93.3077
888.2	93.3082
888.5	93.3088
888.8	93.3095
889	93.3103
889.2	93.3112
889.5	93.3122
889.8	93.3133
890	93.3145
890.2	93.3157
890.5	93.3171
890.8	93.3185
891	93.32
891.2	93.3216
891.5	93.3233
891.8	93.325
892	93.3268
892.2	93.3287
892.5	93.3307
892.8	93.3327
893	93.3348
893.2	93.3369
893.5	93.3391
893.8	93.3414
894	93.3437
894.2	93.346
894.5	93.3484
894.8	93.3509
895	93.3533
895.2	93.3559
895.5	93.3584
895.8	93.361
896	93.3636
896.2	93.3663
896.5	93.3689
896.8	93.3716
897	93.3743
897.2	93.377
897.5	93.3797
897.8	93.3824
898	93.3852
898.2	93.3879
898.5	93.3906
898.8	93.3933
899	93.396
899.2	93.3987
899.5	93.4014
899.8	93.4041
900	93.4067
900.2	93.4093
900.5	93.4119
900.8	93.4144
901	93.4169
901.2	93.4194
901.5	93.4218
901.8	93.4242
902	93.4266
902.2	93.4289
902.5	93.4311
902.8	93.4333
903	93.4354
903.2	93.4375
903.5	93.4395
903.8	93.4415
904	93.4434
904.2	93.4452
904.5	93.447
904.8	93.4487
905	93.4503
905.2	93.4518
905.5	93.4533
905.8	93.4547
906	93.456
906.2	93.4572
906.5	93.4583
906.8	93.4594
907	93.4604
907.2	93.4612
907.5	93.462
907.8	93.4627
908	93.4633
908.2	93.4638
908.5	93.4642
908.8	93.4645
909	93.4647
909.2	93.4648
909.5	93.4648
909.8	93.4647
910	93.4645
910.2	93.4642
910.5	93.4638
910.8	93.4633
911	93.4627
911.2	93.462
911.5	93.4612
911.8	93.4603
912	93.4593
912.2	93.4581
912.5	93.4569
912.8	93.4556
913	93.4541
913.2	93.4526
913.5	93.4509
913.8	93.4492
914	93.4473
914.2	93.4454
914.5	93.4433
914.8	93.4412
915	93.4389
915.2	93.4366
915.5	93.4341
915.8	93.4316
916	93.4289
916.2	93.4262
916.5	93.4233
916.8	93.4204
917	93.4174
917.2	93.4143
917.5	93.4111
917.8	93.4078
918	93.4045
918.2	93.401
918.5	93.3975
918.8	93.3939
919	93.3902
919.2	93.3865
919.5	93.3827
919.8	93.3788
920	93.3748
920.2	93.3708
920.5	93.3667
920.8	93.3625
921	93.3583
921.2	93.354
921.5	93.3497
921.8	93.3453
922	93.3408
922.2	93.3364
922.5	93.3318
922.8	93.3272
923	93.3226
923.2	93.318
923.5	93.3133
923.8	93.3086
924	93.3038
924.2	93.299
924.5	93.2942
924.8	93.2894
925	93.2846
925.2	93.2797
925.5	93.2748
925.8	93.2699
926	93.265
926.2	93.2601
926.5	93.2552
926.8	93.2503
927	93.2454
927.2	93.2405
927.5	93.2357
927.8	93.2308
928	93.2259
928.2	93.2211
928.5	93.2162
928.8	93.2114
929	93.2067
929.2	93.2019
929.5	93.1972
929.8	93.1925
930	93.1878
930.2	93.1832
930.5	93.1786
930.8	93.1741
931	93.1696
931.2	93.1652
931.5	93.1608
931.8	93.1565
932	93.1522
932.2	93.148
932.5	93.1438
932.8	93.1397
933	93.1357
933.2	93.1317
933.5	93.1278
933.8	93.124
934	93.1202
934.2	93.1166
934.5	93.113
934.8	93.1095
935	93.106
935.2	93.1027
935.5	93.0994
935.8	93.0962
936	93.0931
936.2	93.0901
936.5	93.0872
936.8	93.0844
937	93.0817
937.2	93.0791
937.5	93.0765
937.8	93.0741
938	93.0718
938.2	93.0696
938.5	93.0675
938.8	93.0655
939	93.0636
939.2	93.0618
939.5	93.0601
939.8	93.0585
940	93.057
940.2	93.0557
940.5	93.0544
940.8	93.0533
941	93.0522
941.2	93.0513
941.5	93.0505
941.8	93.0499
942	93.0493
942.2	93.0488
942.5	93.0485
942.8	93.0483
943	93.0482
943.2	93.0482
943.5	93.0483
943.8	93.0485
944	93.0489
944.2	93.0494
944.5	93.0499
944.8	93.0506
945	93.0515
945.2	93.0524
945.5	93.0534
945.8	93.0546
946	93.0558
946.2	93.0572
946.5	93.0587
946.8	93.0603
947	93.062
947.2	93.0638
947.5	93.0658
947.8	93.0678
948	93.0699
948.2	93.0722
948.5	93.0745
948.8	93.077
949	93.0796
949.2	93.0822
949.5	93.085
949.8	93.0878
950	93.0908
950.2	93.0938
950.5	93.097
950.8	93.1002
951	93.1035
951.2	93.1069
951.5	93.1104
951.8	93.114
952	93.1177
952.2	93.1214
952.5	93.1252
952.8	93.1291
953	93.1331
953.2	93.1372
953.5	93.1413
953.8	93.1455
954	93.1498
954.2	93.1541
954.5	93.1585
954.8	93.163
955	93.1675
955.2	93.1721
955.5	93.1768
955.8	93.1815
956	93.1862
956.2	93.191
956.5	93.1959
956.8	93.2008
957	93.2057
957.2	93.2107
957.5	93.2157
957.8	93.2207
958	93.2258
958.2	93.2309
958.5	93.2361
958.8	93.2413
959	93.2464
959.2	93.2517
959.5	93.2569
959.8	93.2622
960	93.2674
960.2	93.2727
960.5	93.278
960.8	93.2833
961	93.2886
961.2	93.2939
961.5	93.2993
961.8	93.3046
962	93.3099
962.2	93.3152
962.5	93.3205
962.8	93.3258
963	93.331
963.2	93.3363
963.5	93.3415
963.8	93.3468
964	93.352
964.2	93.3571
964.5	93.3623
964.8	93.3674
965	93.3725
965.2	93.3775
965.5	93.3826
965.8	93.3875
966	93.3925
966.2	93.3974
966.5	93.4022
966.8	93.4071
967	93.4118
967.2	93.4166
967.5	93.4212
967.8	93.4258
968	93.4304
968.2	93.4349
968.5	93.4393
968.8	93.4437
969	93.4481
969.2	93.4523
969.5	93.4565
969.8	93.4607
970	93.4647
970.2	93.4687
970.5	93.4726
970.8	93.4765
971	93.4803
971.2	93.484
971.5	93.4876
971.8	93.4911
972	93.4946
972.2	93.498
972.5	93.5013
972.8	93.5045
973	93.5077
973.2	93.5107
973.5	93.5137
973.8	93.5166
974	93.5194
974.2	93.5221
974.5	93.5248
974.8	93.5273
975	93.5297
975.2	93.5321
975.5	93.5344
975.8	93.5365
976	93.5386
976.2	93.5406
976.5	93.5425
976.8	93.5443
977	93.546
977.2	93.5477
977.5	93.5492
977.8	93.5506
978	93.552
978.2	93.5532
978.5	93.5544
978.8	93.5554
979	93.5564
979.2	93.5572
979.5	93.558
979.8	93.5587
980	93.5593
980.2	93.5598
980.5	93.5602
980.8	93.5605
981	93.5607
981.2	93.5609
981.5	93.5609
981.8	93.5608
982	93.5607
982.2	93.5605
982.5	93.5602
982.8	93.5598
983	93.5593
983.2	93.5587
983.5	93.558
983.8	93.5573
984	93.5565
984.2	93.5556
984.5	93.5546
984.8	93.5535
985	93.5524
985.2	93.5511
985.5	93.5498
985.8	93.5485
986	93.547
986.2	93.5455
986.5	93.5439
986.8	93.5422
987	93.5405
987.2	93.5387
987.5	93.5368
987.8	93.5349
988	93.5329
988.2	93.5308
988.5	93.5287
988.8	93.5265
989	93.5243
989.2	93.522
989.5	93.5196
989.8	93.5172
990	93.5148
990.2	93.5123
990.5	93.5097
990.8	93.5071
991	93.5045
991.2	93.5018
991.5	93.4991
991.8	93.4963
992	93.4935
992.2	93.4907
992.5	93.4878
992.8	93.4849
993	93.4819
993.2	93.479
993.5	93.476
993.8	93.4729
994	93.4699
994.2	93.4668
994.5	93.4637
994.8	93.4606
995	93.4575
995.2	93.4543
995.5	93.4512
995.8	93.448
996	93.4448
996.2	93.4416
996.5	93.4384
996.8	93.4352
997	93.432
997.2	93.4288
997.5	93.4256
997.8	93.4223
998	93.4191
998.2	93.4159
998.5	93.4127
998.8	93.4095
999	93.4064
999.2	93.4032
999.5	93.4
999.8	93.3969
1000	93.3938
1000.2	93.3907
1000.5	93.3876
1000.8	93.3845
1001	93.3815
1001.2	93.3784
1001.5	93.3754
1001.8	93.3725
1002	93.3695
1002.2	93.3666
1002.5	93.3637
1002.8	93.3609
1003	93.358
1003.2	93.3553
1003.5	93.3525
1003.8	93.3498
1004	93.3471
1004.2	93.3445
1004.5	93.3419
1004.8	93.3393
1005	93.3368
1005.2	93.3343
1005.5	93.3319
1005.8	93.3295
1006	93.3272
1006.2	93.3249
1006.5	93.3227
1006.8	93.3205
1007	93.3183
1007.2	93.3162
1007.5	93.3142
1007.8	93.3122
1008	93.3103
1008.2	93.3084
1008.5	93.3066
1008.8	93.3048
1009	93.3031
1009.2	93.3015
1009.5	93.2999
1009.8	93.2983
1010	93.2969
1010.2	93.2954
1010.5	93.2941
1010.8	93.2928
1011	93.2916
1011.2	93.2904
1011.5	93.2893
1011.8	93.2882
1012	93.2872
1012.2	93.2863
1012.5	93.2854
1012.8	93.2846
1013	93.2839
1013.2	93.2832
1013.5	93.2826
1013.8	93.282
1014	93.2815
1014.2	93.2811
1014.5	93.2808
1014.8	93.2805
1015	93.2802
1015.2	93.2801
1015.5	93.2799
1015.8	93.2799
1016	93.2799
1016.2	93.28
1016.5	93.2801
1016.8	93.2803
1017	93.2806
1017.2	93.2809
1017.5	93.2813
1017.8	93.2818
1018	93.2823
1018.2	93.2829
1018.5	93.2835
1018.8	93.2842
1019	93.2849
1019.2	93.2857
1019.5	93.2866
1019.8	93.2875
1020	93.2885
1020.2	93.2895
1020.5	93.2906
1020.8	93.2918
1021	93.293
1021.2	93.2942
1021.5	93.2955
1021.8	93.2969
1022	93.2983
1022.2	93.2997
1022.5	93.3012
1022.8	93.3028
1023	93.3044
1023.2	93.306
1023.5	93.3077
1023.8	93.3095
1024	93.3113
1024.2	93.3131
1024.5	93.315
1024.8	93.3169
1025	93.3188
1025.2	93.3208
1025.5	93.3229
1025.8	93.3249
1026	93.327
1026.2	93.3292
1026.5	93.3314
1026.8	93.3336
1027	93.3358
1027.2	93.3381
1027.5	93.3404
1027.8	93.3427
1028	93.3451
1028.2	93.3475
1028.5	93.3499
1028.8	93.3523
1029	93.3548
1029.2	93.3573
1029.5	93.3598
1029.8	93.3623
1030	93.3649
1030.2	93.3674
1030.5	93.37
1030.8	93.3726
1031	93.3752
1031.2	93.3779
1031.5	93.3805
1031.8	93.3831
1032	93.3858
1032.2	93.3885
1032.5	93.3912
1032.8	93.3938
1033	93.3965
1033.2	93.3992
1033.5	93.4019
1033.8	93.4046
1034	93.4073
1034.2	93.41
1034.5	93.4127
1034.8	93.4154
1035	93.4181
1035.2	93.4208
1035.5	93.4234
1035.8	93.4261
1036	93.4288
1036.2	93.4314
1036.5	93.4341
1036.8	93.4367
1037	93.4393
1037.2	93.4419
1037.5	93.4445
1037.8	93.4471
1038	93.4496
1038.2	93.4521
1038.5	93.4547
1038.8	93.4572
1039	93.4596
1039.2	93.4621
1039.5	93.4645
1039.8	93.4669
1040	93.4693
1040.2	93.4717
1040.5	93.474
1040.8	93.4763
1041	93.4786
1041.2	93.4808
1041.5	93.483
1041.8	93.4852
1042	93.4874
1042.2	93.4895
1042.5	93.4916
1042.8	93.4936
1043	93.4956
1043.2	93.4976
1043.5	93.4996
1043.8	93.5015
1044	93.5033
1044.2	93.5052
1044.5	93.507
1044.8	93.5087
1045	93.5104
1045.2	93.5121
1045.5	93.5137
1045.8	93.5153
1046	93.5169
1046.2	93.5184
1046.5	93.5198
1046.8	93.5213
1047	93.5226
1047.2	93.524
1047.5	93.5252
1047.8	93.5265
1048	93.5277
1048.2	93.5288
1048.5	93.5299
1048.8	93.531
1049	93.532
1049.2	93.5329
1049.5	93.5338
1049.8	93.5347
1050	93.5355
1050.2	93.5363
1050.5	93.537
1050.8	93.5377
1051	93.5383
1051.2	93.5388
1051.5	93.5394
1051.8	93.5398
1052	93.5403
1052.2	93.5406
1052.5	93.541
1052.8	93.5413
1053	93.5415
1053.2	93.5417
1053.5	93.5418
1053.8	93.5419
1054	93.5419
1054.2	93.5419
1054.5	93.5419
1054.8	93.5417
1055	93.5416
1055.2	93.5414
1055.5	93.5411
1055.8	93.5409
1056	93.5405
1056.2	93.5401
1056.5	93.5397
1056.8	93.5392
1057	93.5387
1057.2	93.5381
1057.5	93.5375
1057.8	93.5369
1058	93.5362
1058.2	93.5354
1058.5	93.5346
1058.8	93.5338
1059	93.533
1059.2	93.532
1059.5	93.5311
1059.8	93.5301
1060	93.5291
1060.2	93.528
1060.5	93.5269
1060.8	93.5258
1061	93.5246
1061.2	93.5234
1061.5	93.5221
1061.8	93.5208
1062	93.5195
1062.2	93.5182
1062.5	93.5168
1062.8	93.5154
1063	93.5139
1063.2	93.5125
1063.5	93.5109
1063.8	93.5094
1064	93.5078
1064.2	93.5062
1064.5	93.5046
1064.8	93.503
1065	93.5013
1065.2	93.4996
1065.5	93.4979
1065.8	93.4961
1066	93.4944
1066.2	93.4926
1066.5	93.4908
1066.8	93.489
1067	93.4871
1067.2	93.4853
1067.5	93.4834
1067.8	93.4815
1068	93.4796
1068.2	93.4776
1068.5	93.4757
1068.8	93.4738
1069	93.4718
1069.2	93.4698
1069.5	93.4678
1069.8	93.4658
1070	93.4638
1070.2	93.4618
1070.5	93.4598
1070.8	93.4578
1071	93.4558
1071.2	93.4537
1071.5	93.4517
1071.8	93.4497
1072	93.4477
1072.2	93.4456
1072.5	93.4436
1072.8	93.4415
1073	93.4395
1073.2	93.4375
1073.5	93.4355
1073.8	93.4335
1074	93.4314
1074.2	93.4294
1074.5	93.4274
1074.8	93.4255
1075	93.4235
1075.2	93.4215
1075.5	93.4195
1075.8	93.4176
1076	93.4157
1076.2	93.4137
1076.5	93.4118
1076.8	93.41
1077	93.4081
1077.2	93.4062
1077.5	93.4044
1077.8	93.4026
1078	93.4008
1078.2	93.399
1078.5	93.3972
1078.8	93.3955
1079	93.3937
1079.2	93.392
1079.5	93.3904
1079.8	93.3887
1080	93.3871
1080.2	93.3855
1080.5	93.3839
1080.8	93.3824
1081	93.3808
1081.2	93.3794
1081.5	93.3779
1081.8	93.3765
1082	93.375
1082.2	93.3737
1082.5	93.3723
1082.8	93.371
1083	93.3697
1083.2	93.3685
1083.5	93.3673
1083.8	93.3661
1084	93.3649
1084.2	93.3638
1084.5	93.3627
1084.8	93.3617
1085	93.3607
1085.2	93.3597
1085.5	93.3588
1085.8	93.3579
1086	93.357
1086.2	93.3562
1086.5	93.3554
1086.8	93.3547
1087	93.354
1087.2	93.3533
1087.5	93.3527
1087.8	93.3521
1088	93.3515
1088.2	93.351
1088.5	93.3506
1088.8	93.3501
1089	93.3497
1089.2	93.3494
1089.5	93.3491
1089.8	93.3488
1090	93.3486
1090.2	93.3484
1090.5	93.3483
1090.8	93.3482
1091	93.3481
1091.2	93.3481
1091.5	93.3482
1091.8	93.3482
1092	93.3484
1092.2	93.3485
1092.5	93.3487
1092.8	93.349
1093	93.3493
1093.2	93.3496
1093.5	93.3499
1093.8	93.3504
1094	93.3508
1094.2	93.3513
1094.5	93.3519
1094.8	93.3524
1095	93.3531
1095.2	93.3537
1095.5	93.3544
1095.8	93.3552
1096	93.356
1096.2	93.3568
1096.5	93.3577
1096.8	93.3586
1097	93.3595
1097.2	93.3605
1097.5	93.3616
1097.8	93.3626
1098	93.3637
1098.2	93.3649
1098.5	93.3661
1098.8	93.3673
1099	93.3686
1099.2	93.3699
1099.5	93.3712
1099.8	93.3726
1100	93.374
1100.2	93.3754
1100.5	93.3769
1100.8	93.3784
1101	93.38
1101.2	93.3816
1101.5	93.3832
1101.8	93.3849
1102	93.3865
1102.2	93.3883
1102.5	93.39
1102.8	93.3918
1103	93.3936
1103.2	93.3955
1103.5	93.3973
1103.8	93.3993
1104	93.4012
1104.2	93.4032
1104.5	93.4051
1104.8	93.4072
1105	93.4092
1105.2	93.4113
1105.5	93.4134
1105.8	93.4155
1106	93.4177
1106.2	93.4198
1106.5	93.422
1106.8	93.4242
1107	93.4265
1107.2	93.4287
1107.5	93.431
1107.8	93.4333
1108	93.4357
1108.2	93.438
1108.5	93.4404
1108.8	93.4427
1109	93.4451
1109.2	93.4475
1109.5	93.45
1109.8	93.4524
1110	93.4549
1110.2	93.4573
1110.5	93.4598
1110.8	93.4623
1111	93.4648
1111.2	93.4673
1111.5	93.4699
1111.8	93.4724
1112	93.4749
1112.2	93.4775
1112.5	93.4801
1112.8	93.4826
1113	93.4852
1113.2	93.4878
1113.5	93.4904
1113.8	93.4929
1114	93.4955
1114.2	93.4981
1114.5	93.5007
1114.8	93.5033
1115	93.5059
1115.2	93.5085
1115.5	93.5111
1115.8	93.5137
1116	93.5163
1116.2	93.5189
1116.5	93.5215
1116.8	93.5241
1117	93.5266
1117.2	93.5292
1117.5	93.5318
1117.8	93.5343
1118	93.5369
1118.2	93.5394
1118.5	93.5419
1118.8	93.5445
1119	93.547
1119.2	93.5495
1119.5	93.552
1119.8	93.5544
1120	93.5569
1120.2	93.5594
1120.5	93.5618
1120.8	93.5642
1121	93.5666
1121.2	93.569
1121.5	93.5714
1121.8	93.5738
1122	93.5761
1122.2	93.5784
1122.5	93.5807
1122.8	93.583
1123	93.5853
1123.2	93.5875
1123.5	93.5897
1123.8	93.5919
1124	93.5941
1124.2	93.5963
1124.5	93.5984
1124.8	93.6005
1125	93.6026
1125.2	93.6046
1125.5	93.6067
1125.8	93.6087
1126	93.6107
1126.2	93.6126
1126.5	93.6146
1126.8	93.6165
1127	93.6183
1127.2	93.6202
1127.5	93.622
1127.8	93.6238
1128	93.6256
1128.2	93.6273
1128.5	93.629
1128.8	93.6307
1129	93.6323
1129.2	93.6339
1129.5	93.6355
1129.8	93.637
1130	93.6386
1130.2	93.64
1130.5	93.6415
1130.8	93.6429
1131	93.6443
1131.2	93.6456
1131.5	93.6469
1131.8	93.6482
1132	93.6495
1132.2	93.6507
1132.5	93.6519
1132.8	93.653
1133	93.6541
1133.2	93.6552
1133.5	93.6562
1133.8	93.6572
1134	93.6582
1134.2	93.6591
1134.5	93.66
1134.8	93.6609
1135	93.6617
1135.2	93.6625
1135.5	93.6632
1135.8	93.664
1136	93.6646
1136.2	93.6653
1136.5	93.6659
1136.8	93.6665
1137	93.667
1137.2	93.6675
1137.5	93.668
1137.8	93.6684
1138	93.6688
1138.2	93.6691
1138.5	93.6694
1138.8	93.6697
1139	93.67
1139.2	93.6702
1139.5	93.6703
1139.8	93.6705
1140	93.6706
1140.2	93.6707
1140.5	93.6707
1140.8	93.6707
1141	93.6706
1141.2	93.6706
1141.5	93.6705
1141.8	93.6703
1142	93.6701
1142.2	93.6699
1142.5	93.6697
1142.8	93.6694
1143	93.6691
1143.2	93.6687
1143.5	93.6684
1143.8	93.6679
1144	93.6675
1144.2	93.667
1144.5	93.6665
1144.8	93.666
1145	93.6654
1145.2	93.6648
1145.5	93.6642
1145.8	93.6635
1146	93.6628
1146.2	93.6621
1146.5	93.6613
1146.8	93.6605
1147	93.6597
1147.2	93.6589
1147.5	93.658
1147.8	93.6571
1148	93.6562
1148.2	93.6553
1148.5	93.6543
1148.8	93.6533
1149	93.6523
1149.2	93.6512
1149.5	93.6501
1149.8	93.649
1150	93.6479
1150.2	93.6468
1150.5	93.6456
1150.8	93.6444
1151	93.6432
1151.2	93.6419
1151.5	93.6407
1151.8	93.6394
1152	93.6381
1152.2	93.6368
1152.5	93.6355
1152.8	93.6341
1153	93.6327
1153.2	93.6313
1153.5	93.6299
1153.8	93.6285
1154	93.6271
1154.2	93.6256
1154.5	93.6241
1154.8	93.6226
1155	93.6211
1155.2	93.6196
1155.5	93.6181
1155.8	93.6166
1156	93.615
1156.2	93.6134
1156.5	93.6119
1156.8	93.6103
1157	93.6087
1157.2	93.6071
1157.5	93.6055
1157.8	93.6038
1158	93.6022
1158.2	93.6006
1158.5	93.5989
1158.8	93.5973
1159	93.5956
1159.2	93.594
1159.5	93.5923
1159.8	93.5906
1160	93.589
1160.2	93.5873
1160.5	93.5856
1160.8	93.5839
1161	93.5822
1161.2	93.5805
1161.5	93.5789
1161.8	93.5772
1162	93.5755
1162.2	93.5738
1162.5	93.5721
1162.8	93.5705
1163	93.5688
1163.2	93.5671
1163.5	93.5654
1163.8	93.5638
1164	93.5621
1164.2	93.5605
1164.5	93.5588
1164.8	93.5572
1165	93.5555
1165.2	93.5539
1165.5	93.5523
1165.8	93.5507
1166	93.5491
1166.2	93.5475
1166.5	93.5459
1166.8	93.5443
1167	93.5428
1167.2	93.5412
1167.5	93.5397
1167.8	93.5381
1168	93.5366
1168.2	93.5351
1168.5	93.5336
1168.8	93.5322
1169	93.5307
1169.2	93.5292
1169.5	93.5278
1169.8	93.5264
1170	93.525
1170.2	93.5236
1170.5	93.5222
1170.8	93.5209
1171	93.5196
1171.2	93.5182
1171.5	93.5169
1171.8	93.5157
1172	93.5144
1172.2	93.5132
1172.5	93.5119
1172.8	93.5107
1173	93.5096
1173.2	93.5084
1173.5	93.5073
1173.8	93.5061
1174	93.505
1174.2	93.504
1174.5	93.5029
1174.8	93.5019
1175	93.5009
1175.2	93.4999
1175.5	93.4989
1175.8	93.498
1176	93.4971
1176.2	93.4962
1176.5	93.4953
1176.8	93.4945
1177	93.4937
1177.2	93.4929
1177.5	93.4921
1177.8	93.4913
1178	93.4906
1178.2	93.4899
1178.5	93.4893
1178.8	93.4886
1179	93.488
1179.2	93.4874
1179.5	93.4869
1179.8	93.4864
1180	93.4859
1180.2	93.4854
1180.5	93.4849
1180.8	93.4845
1181	93.4841
1181.2	93.4837
1181.5	93.4834
1181.8	93.4831
1182	93.4828
1182.2	93.4825
1182.5	93.4823
1182.8	93.4821
1183	93.4819
1183.2	93.4818
1183.5	93.4817
1183.8	93.4816
1184	93.4815
1184.2	93.4815
1184.5	93.4815
1184.8	93.4815
1185	93.4816
1185.2	93.4817
1185.5	93.4818
1185.8	93.4819
1186	93.4821
1186.2	93.4823
1186.5	93.4825
1186.8	93.4828
1187	93.483
1187.2	93.4834
1187.5	93.4837
1187.8	93.4841
1188	93.4845
1188.2	93.4849
1188.5	93.4853
1188.8	93.4858
1189	93.4863
1189.2	93.4868
1189.5	93.4874
1189.8	93.488
1190	93.4886
1190.2	93.4892
1190.5	93.4899
1190.8	93.4906
1191	93.4913
1191.2	93.492
1191.5	93.4928
1191.8	93.4936
1192	93.4944
1192.2	93.4953
1192.5	93.4962
1192.8	93.4971
1193	93.498
1193.2	93.4989
1193.5	93.4999
1193.8	93.5009
1194	93.5019
1194.2	93.503
1194.5	93.504
1194.8	93.5051
1195	93.5063
1195.2	93.5074
1195.5	93.5086
1195.8	93.5097
1196	93.5109
1196.2	93.5122
1196.5	93.5134
1196.8	93.5147
1197	93.516
1197.2	93.5173
1197.5	93.5186
1197.8	93.52
1198	93.5214
1198.2	93.5228
1198.5	93.5242
1198.8	93.5256
1199	93.5271
1199.2	93.5285
1199.5	93.53
1199.8	93.5315
1200	93.533
1200.2	93.5346
1200.5	93.5361
1200.8	93.5377
1201	93.5393
1201.2	93.5409
1201.5	93.5425
1201.8	93.5441
1202	93.5458
1202.2	93.5475
1202.5	93.5491
1202.8	93.5508
1203	93.5525
1203.2	93.5543
1203.5	93.556
1203.8	93.5577
1204	93.5595
1204.2	93.5613
1204.5	93.563
1204.8	93.5648
1205	93.5666
1205.2	93.5684
1205.5	93.5702
1205.8	93.5721
1206	93.5739
1206.2	93.5758
1206.5	93.5776
1206.8	93.5795
1207	93.5813
1207.2	93.5832
1207.5	93.5851
1207.8	93.587
1208	93.5889
1208.2	93.5908
1208.5	93.5927
1208.8	93.5946
1209	93.5965
1209.2	93.5984
1209.5	93.6003
1209.8	93.6023
1210	93.6042
1210.2	93.6061
1210.5	93.6081
1210.8	93.61
1211	93.6119
1211.2	93.6139
1211.5	93.6158
1211.8	93.6177
1212	93.6197
1212.2	93.6216
1212.5	93.6236
1212.8	93.6255
1213	93.6274
1213.2	93.6294
1213.5	93.6313
1213.8	93.6332
1214	93.6351
1214.2	93.637
1214.5	93.639
1214.8	93.6409
1215	93.6428
1215.2	93.6447
1215.5	93.6466
1215.8	93.6485
1216	93.6504
1216.2	93.6522
1216.5	93.6541
1216.8	93.656
1217	93.6578
1217.2	93.6597
1217.5	93.6615
1217.8	93.6634
1218	93.6652
1218.2	93.667
1218.5	93.6688
1218.8	93.6706
1219	93.6724
1219.2	93.6742
1219.5	93.676
1219.8	93.6777
1220	93.6795
1220.2	93.6812
1220.5	93.6829
1220.8	93.6846
1221	93.6863
1221.2	93.688
1221.5	93.6897
1221.8	93.6914
1222	93.693
1222.2	93.6946
1222.5	93.6963
1222.8	93.6979
1223	93.6995
1223.2	93.7011
1223.5	93.7026
1223.8	93.7042
1224	93.7057
1224.2	93.7072
1224.5	93.7087
1224.8	93.7102
1225	93.7117
1225.2	93.7131
1225.5	93.7146
1225.8	93.716
1226	93.7174
1226.2	93.7188
1226.5	93.7202
1226.8	93.7215
1227	93.7228
1227.2	93.7242
1227.5	93.7255
1227.8	93.7267
1228	93.728
1228.2	93.7293
1228.5	93.7305
1228.8	93.7317
1229	93.7329
1229.2	93.734
1229.5	93.7352
1229.8	93.7363
1230	93.7374
1230.2	93.7385
1230.5	93.7396
1230.8	93.7407
1231	93.7417
1231.2	93.7427
1231.5	93.7437
1231.8	93.7447
1232	93.7456
1232.2	93.7466
1232.5	93.7475
1232.8	93.7484
1233	93.7492
1233.2	93.7501
1233.5	93.7509
1233.8	93.7517
1234	93.7525
1234.2	93.7533
1234.5	93.754
1234.8	93.7547
1235	93.7555
1235.2	93.7561
1235.5	93.7568
1235.8	93.7574
1236	93.7581
1236.2	93.7587
1236.5	93.7593
1236.8	93.7598
1237	93.7603
1237.2	93.7609
1237.5	93.7614
1237.8	93.7618
1238	93.7623
1238.2	93.7627
1238.5	93.7632
1238.8	93.7635
1239	93.7639
1239.2	93.7643
1239.5	93.7646
1239.8	93.7649
1240	93.7652
1240.2	93.7655
1240.5	93.7657
1240.8	93.766
1241	93.7662
1241.2	93.7664
1241.5	93.7666
1241.8	93.7667
1242	93.7669
1242.2	93.767
1242.5	93.7671
1242.8	93.7671
1243	93.7672
1243.2	93.7672
1243.5	93.7673
1243.8	93.7673
1244	93.7673
1244.2	93.7672
1244.5	93.7672
1244.8	93.7671
1245	93.767
1245.2	93.7669
1245.5	93.7668
1245.8	93.7667
1246	93.7665
1246.2	93.7663
1246.5	93.7661
1246.8	93.7659
1247	93.7657
1247.2	93.7655
1247.5	93.7652
1247.8	93.7649
1248	93.7647
1248.2	93.7644
1248.5	93.764
1248.8	93.7637
1249	93.7634
1249.2	93.763
1249.5	93.7626
1249.8	93.7622
1250	93.7618
1250.2	93.7614
1250.5	93.761
1250.8	93.7605
1251	93.7601
1251.2	93.7596
1251.5	93.7591
1251.8	93.7586
1252	93.7581
1252.2	93.7576
1252.5	93.7571
1252.8	93.7565
1253	93.756
1253.2	93.7554
1253.5	93.7549
1253.8	93.7543
1254	93.7537
1254.2	93.7531
1254.5	93.7525
1254.8	93.7518
1255	93.7512
1255.2	93.7506
1255.5	93.7499
1255.8	93.7493
1256	93.7486
1256.2	93.7479
1256.5	93.7472
1256.8	93.7465
1257	93.7459
1257.2	93.7452
1257.5	93.7444
1257.8	93.7437
1258	93.743
1258.2	93.7423
1258.5	93.7416
1258.8	93.7408
1259	93.7401
1259.2	93.7393
1259.5	93.7386
1259.8	93.7378
1260	93.7371
1260.2	93.7363
1260.5	93.7356
1260.8	93.7348
1261	93.734
1261.2	93.7332
1261.5	93.7325
1261.8	93.7317
1262	93.7309
1262.2	93.7301
1262.5	93.7294
1262.8	93.7286
1263	93.7278
1263.2	93.727
1263.5	93.7262
1263.8	93.7255
1264	93.7247
1264.2	93.7239
1264.5	93.7231
1264.8	93.7224
1265	93.7216
1265.2	93.7208
1265.5	93.72
1265.8	93.7193
1266	93.7185
1266.2	93.7177
1266.5	93.717
1266.8	93.7162
1267	93.7155
1267.2	93.7147
1267.5	93.714
1267.8	93.7133
1268	93.7125
1268.2	93.7118
1268.5	93.7111
1268.8	93.7103
1269	93.7096
1269.2	93.7089
1269.5	93.7082
1269.8	93.7075
1270	93.7068
1270.2	93.7062
1270.5	93.7055
1270.8	93.7048
1271	93.7042
1271.2	93.7035
1271.5	93.7029
1271.8	93.7022
1272	93.7016
1272.2	93.701
1272.5	93.7004
1272.8	93.6998
1273	93.6992
1273.2	93.6986
1273.5	93.698
1273.8	93.6975
1274	93.6969
1274.2	93.6964
1274.5	93.6958
1274.8	93.6953
1275	93.6948
1275.2	93.6943
1275.5	93.6938
1275.8	93.6933
1276	93.6929
1276.2	93.6924
1276.5	93.692
1276.8	93.6915
1277	93.6911
1277.2	93.6907
1277.5	93.6903
1277.8	93.6899
1278	93.6896
1278.2	93.6892
1278.5	93.6889
1278.8	93.6885
1279	93.6882
1279.2	93.6879
1279.5	93.6876
1279.8	93.6873
1280	93.6871
1280.2	93.6868
1280.5	93.6866
1280.8	93.6863
1281	93.6861
1281.2	93.6859
1281.5	93.6857
1281.8	93.6856
1282	93.6854
1282.2	93.6853
1282.5	93.6852
1282.8	93.6851
1283	93.685
1283.2	93.6849
1283.5	93.6848
1283.8	93.6848
1284	93.6847
1284.2	93.6847
1284.5	93.6847
1284.8	93.6847
1285	93.6847
1285.2	93.6848
1285.5	93.6848
1285.8	93.6849
1286	93.685
1286.2	93.6851
1286.5	93.6852
1286.8	93.6853
1287	93.6855
1287.2	93.6856
1287.5	93.6858
1287.8	93.686
1288	93.6862
1288.2	93.6864
1288.5	93.6867
1288.8	93.6869
1289	93.6872
1289.2	93.6875
1289.5	93.6878
1289.8	93.6881
1290	93.6884
1290.2	93.6888
1290.5	93.6891
1290.8	93.6895
1291	93.6899
1291.2	93.6903
1291.5	93.6907
1291.8	93.6912
1292	93.6916
1292.2	93.6921
1292.5	93.6926
1292.8	93.6931
1293	93.6936
1293.2	93.6941
1293.5	93.6946
1293.8	93.6952
1294	93.6958
1294.2	93.6964
1294.5	93.697
1294.8	93.6976
1295	93.6982
1295.2	93.6988
1295.5	93.6995
1295.8	93.7002
1296	93.7008
1296.2	93.7015
1296.5	93.7023
1296.8	93.703
1297	93.7037
1297.2	93.7045
1297.5	93.7052
1297.8	93.706
1298	93.7068
1298.2	93.7076
1298.5	93.7084
1298.8	93.7092
1299	93.7101
1299.2	93.7109
1299.5	93.7118
1299.8	93.7127
1300	93.7136
1300.2	93.7145
1300.5	93.7154
1300.8	93.7163
1301	93.7172
1301.2	93.7182
1301.5	93.7191
1301.8	93.7201
1302	93.721
1302.2	93.722
1302.5	93.723
1302.8	93.724
1303	93.725
1303.2	93.7261
1303.5	93.7271
1303.8	93.7281
1304	93.7292
1304.2	93.7302
1304.5	93.7313
1304.8	93.7324
1305	93.7335
1305.2	93.7346
1305.5	93.7357
1305.8	93.7368
1306	93.7379
1306.2	93.739
1306.5	93.7401
1306.8	93.7413
1307	93.7424
1307.2	93.7436
1307.5	93.7447
1307.8	93.7459
1308	93.7471
1308.2	93.7483
1308.5	93.7494
1308.8	93.7506
1309	93.7518
1309.2	93.753
1309.5	93.7542
1309.8	93.7555
1310	93.7567
1310.2	93.7579
1310.5	93.7591
1310.8	93.7603
1311	93.7616
1311.2	93.7628
1311.5	93.764
1311.8	93.7653
1312	93.7665
1312.2	93.7678
1312.5	93.769
1312.8	93.7703
1313	93.7715
1313.2	93.7728
1313.5	93.774
1313.8	93.7753
1314	93.7765
1314.2	93.7778
1314.5	93.7791
1314.8	93.7803
1315	93.7816
1315.2	93.7828
1315.5	93.7841
1315.8	93.7854
1316	93.7866
1316.2	93.7879
1316.5	93.7891
1316.8	93.7904
1317	93.7917
1317.2	93.7929
1317.5	93.7942
1317.8	93.7954
1318	93.7967
1318.2	93.7979
1318.5	93.7991
1318.8	93.8004
1319	93.8016
1319.2	93.8029
1319.5	93.8041
1319.8	93.8053
1320	93.8065
1320.2	93.8077
1320.5	93.809
1320.8	93.8102
1321	93.8114
1321.2	93.8126
1321.5	93.8138
1321.8	93.8149
1322	93.8161
1322.2	93.8173
1322.5	93.8185
1322.8	93.8196
1323	93.8208
1323.2	93.8219
1323.5	93.8231
1323.8	93.8242
1324	93.8253
1324.2	93.8265
1324.5	93.8276
1324.8	93.8287
1325	93.8298
1325.2	93.8309
1325.5	93.832
1325.8	93.833
1326	93.8341
1326.2	93.8351
1326.5	93.8362
1326.8	93.8372
1327	93.8383
1327.2	93.8393
1327.5	93.8403
1327.8	93.8413
1328	93.8423
1328.2	93.8432
1328.5	93.8442
1328.8	93.8452
1329	93.8461
1329.2	93.8471
1329.5	93.848
1329.8	93.8489
1330	93.8498
1330.2	93.8507
1330.5	93.8516
1330.8	93.8524
1331	93.8533
1331.2	93.8541
1331.5	93.8549
1331.8	93.8558
1332	93.8566
1332.2	93.8574
1332.5	93.8581
1332.8	93.8589
1333	93.8597
1333.2	93.8604
1333.5	93.8611
1333.8	93.8618
1334	93.8626
1334.2	93.8632
1334.5	93.8639
1334.8	93.8646
1335	93.8652
1335.2	93.8659
1335.5	93.8665
1335.8	93.8671
1336	93.8677
1336.2	93.8682
1336.5	93.8688
1336.8	93.8693
1337	93.8699
1337.2	93.8704
1337.5	93.8709
1337.8	93.8714
1338	93.8719
1338.2	93.8723
1338.5	93.8728
1338.8	93.8732
1339	93.8736
1339.2	93.874
1339.5	93.8744
1339.8	93.8747
1340	93.8751
1340.2	93.8754
1340.5	93.8758
1340.8	93.8761
1341	93.8763
1341.2	93.8766
1341.5	93.8769
1341.8	93.8771
1342	93.8773
1342.2	93.8776
1342.5	93.8778
1342.8	93.8779
1343	93.8781
1343.2	93.8782
1343.5	93.8784
1343.8	93.8785
1344	93.8786
1344.2	93.8787
1344.5	93.8788
1344.8	93.8788
1345	93.8789
1345.2	93.8789
1345.5	93.8789
1345.8	93.8789
1346	93.8788
1346.2	93.8788
1346.5	93.8788
1346.8	93.8787
1347	93.8786
1347.2	93.8785
1347.5	93.8784
1347.8	93.8782
1348	93.8781
1348.2	93.8779
1348.5	93.8778
1348.8	93.8776
1349	93.8774
1349.2	93.8771
1349.5	93.8769
1349.8	93.8766
1350	93.8764
1350.2	93.8761
1350.5	93.8758
1350.8	93.8755
1351	93.8751
1351.2	93.8748
1351.5	93.8744
1351.8	93.8741
1352	93.8737
1352.2	93.8733
1352.5	93.8729
1352.8	93.8725
1353	93.872
1353.2	93.8716
1353.5	93.8711
1353.8	93.8706
1354	93.8701
1354.2	93.8696
1354.5	93.8691
1354.8	93.8685
1355	93.868
1355.2	93.8674
1355.5	93.8669
1355.8	93.8663
1356	93.8657
1356.2	93.865
1356.5	93.8644
1356.8	93.8638
1357	93.8631
1357.2	93.8625
1357.5	93.8618
1357.8	93.8611
1358	93.8604
1358.2	93.8597
1358.5	93.859
1358.8	93.8583
1359	93.8575
1359.2	93.8568
1359.5	93.856
1359.8	93.8552
1360	93.8545
1360.2	93.8537
1360.5	93.8529
1360.8	93.8521
1361	93.8512
1361.2	93.8504
1361.5	93.8496
1361.8	93.8487
1362	93.8478
1362.2	93.847
1362.5	93.8461
1362.8	93.8452
1363	93.8443
1363.2	93.8434
1363.5	93.8425
1363.8	93.8416
1364	93.8407
1364.2	93.8397
1364.5	93.8388
1364.8	93.8379
1365	93.8369
1365.2	93.8359
1365.5	93.835
1365.8	93.834
1366	93.833
1366.2	93.8321
1366.5	93.8311
1366.8	93.8301
1367	93.8291
1367.2	93.8281
1367.5	93.8271
1367.8	93.826
1368	93.825
1368.2	93.824
1368.5	93.823
1368.8	93.8219
1369	93.8209
1369.2	93.8199
1369.5	93.8188
1369.8	93.8178
1370	93.8167
1370.2	93.8157
1370.5	93.8146
1370.8	93.8136
1371	93.8125
1371.2	93.8115
1371.5	93.8104
1371.8	93.8094
1372	93.8083
1372.2	93.8072
1372.5	93.8062
1372.8	93.8051
1373	93.804
1373.2	93.803
1373.5	93.8019
1373.8	93.8009
1374	93.7998
1374.2	93.7987
1374.5	93.7977
1374.8	93.7966
1375	93.7956
1375.2	93.7945
1375.5	93.7935
1375.8	93.7924
1376	93.7913
1376.2	93.7903
1376.5	93.7893
1376.8	93.7882
1377	93.7872
1377.2	93.7861
1377.5	93.7851
1377.8	93.7841
1378	93.7831
1378.2	93.782
1378.5	93.781
1378.8	93.78
1379	93.779
1379.2	93.778
1379.5	93.777
1379.8	93.776
1380	93.775
1380.2	93.7741
1380.5	93.7731
1380.8	93.7721
1381	93.7712
1381.2	93.7702
1381.5	93.7693
1381.8	93.7683
1382	93.7674
1382.2	93.7665
1382.5	93.7655
1382.8	93.7646
1383	93.7637
1383.2	93.7628
1383.5	93.762
1383.8	93.7611
1384	93.7602
1384.2	93.7593
1384.5	93.7585
1384.8	93.7577
1385	93.7568
1385.2	93.756
1385.5	93.7552
1385.8	93.7544
1386	93.7536
1386.2	93.7528
1386.5	93.752
1386.8	93.7513
1387	93.7505
1387.2	93.7498
1387.5	93.7491
1387.8	93.7484
1388	93.7476
1388.2	93.747
1388.5	93.7463
1388.8	93.7456
1389	93.7449
1389.2	93.7443
1389.5	93.7437
1389.8	93.7431
1390	93.7424
1390.2	93.7419
1390.5	93.7413
1390.8	93.7407
1391	93.7401
1391.2	93.7396
1391.5	93.7391
1391.8	93.7386
1392	93.7381
1392.2	93.7376
1392.5	93.7371
1392.8	93.7367
1393	93.7362
1393.2	93.7358
1393.5	93.7354
1393.8	93.735
1394	93.7346
1394.2	93.7342
1394.5	93.7339
1394.8	93.7335
1395	93.7332
1395.2	93.7329
1395.5	93.7326
1395.8	93.7323
1396	93.7321
1396.2	93.7318
1396.5	93.7316
1396.8	93.7314
1397	93.7312
1397.2	93.731
1397.5	93.7308
1397.8	93.7307
1398	93.7306
1398.2	93.7304
1398.5	93.7303
1398.8	93.7303
1399	93.7302
1399.2	93.7301
1399.5	93.7301
1399.8	93.7301
1400	93.7301
1400.2	93.7301
1400.5	93.7302
1400.8	93.7302
1401	93.7303
1401.2	93.7304
1401.5	93.7305
1401.8	93.7306
1402	93.7307
1402.2	93.7309
1402.5	93.7311
1402.8	93.7313
1403	93.7315
1403.2	93.7317
1403.5	93.732
1403.8	93.7322
1404	93.7325
1404.2	93.7328
1404.5	93.7331
1404.8	93.7335
1405	93.7338
1405.2	93.7342
1405.5	93.7346
1405.8	93.735
1406	93.7354
1406.2	93.7358
1406.5	93.7363
1406.8	93.7368
1407	93.7373
1407.2	93.7378
1407.5	93.7383
1407.8	93.7389
1408	93.7394
1408.2	93.74
1408.5	93.7406
1408.8	93.7412
1409	93.7419
1409.2	93.7425
1409.5	93.7432
1409.8	93.7439
1410	93.7446
1410.2	93.7453
1410.5	93.7461
1410.8	93.7468
1411	93.7476
1411.2	93.7484
1411.5	93.7492
1411.8	93.7501
1412	93.7509
1412.2	93.7518
1412.5	93.7526
1412.8	93.7535
1413	93.7545
1413.2	93.7554
1413.5	93.7563
1413.8	93.7573
1414	93.7583
1414.2	93.7593
1414.5	93.7603
1414.8	93.7613
1415	93.7624
1415.2	93.7635
1415.5	93.7645
1415.8	93.7656
1416	93.7668
1416.2	93.7679
1416.5	93.769
1416.8	93.7702
1417	93.7714
1417.2	93.7726
1417.5	93.7738
1417.8	93.775
1418	93.7762
1418.2	93.7775
1418.5	93.7788
1418.8	93.78
1419	93.7813
1419.2	93.7827
1419.5	93.784
1419.8	93.7853
1420	93.7867
1420.2	93.7881
1420.5	93.7894
1420.8	93.7908
1421	93.7923
1421.2	93.7937
1421.5	93.7951
1421.8	93.7966
1422	93.7981
1422.2	93.7995
1422.5	93.801
1422.8	93.8025
1423	93.8041
1423.2	93.8056
1423.5	93.8071
1423.8	93.8087
1424	93.8103
1424.2	93.8118
1424.5	93.8134
1424.8	93.815
1425	93.8167
1425.2	93.8183
1425.5	93.8199
1425.8	93.8216
1426	93.8232
1426.2	93.8249
1426.5	93.8266
1426.8	93.8283
1427	93.83
1427.2	93.8317
1427.5	93.8334
1427.8	93.8352
1428	93.8369
1428.2	93.8387
1428.5	93.8404
1428.8	93.8422
1429	93.844
1429.2	93.8458
1429.5	93.8476
1429.8	93.8494
1430	93.8512
1430.2	93.853
1430.5	93.8548
1430.8	93.8567
1431	93.8585
1431.2	93.8604
1431.5	93.8622
1431.8	93.8641
1432	93.866
1432.2	93.8679
1432.5	93.8697
1432.8	93.8716
1433	93.8735
1433.2	93.8754
1433.5	93.8773
1433.8	93.8793
1434	93.8812
1434.2	93.8831
1434.5	93.885
1434.8	93.887
1435	93.8889
1435.2	93.8909
1435.5	93.8928
1435.8	93.8948
1436	93.8967
1436.2	93.8987
1436.5	93.9006
1436.8	93.9026
1437	93.9046
1437.2	93.9065
1437.5	93.9085
1437.8	93.9105
1438	93.9125
1438.2	93.9144
1438.5	93.9164
1438.8	93.9184
1439	93.9204
1439.2	93.9224
1439.5	93.9243
1439.8	93.9263
1440	93.9283
1440.2	93.9303
1440.5	93.9323
1440.8	93.9343
1441	93.9363
1441.2	93.9382
1441.5	93.9402
1441.8	93.9422
1442	93.9442
1442.2	93.9462
1442.5	93.9481
1442.8	93.9501
1443	93.9521
1443.2	93.9541
1443.5	93.956
1443.8	93.958
1444	93.96
1444.2	93.9619
1444.5	93.9639
1444.8	93.9658
1445	93.9678
1445.2	93.9698
1445.5	93.9717
1445.8	93.9736
1446	93.9756
1446.2	93.9775
1446.5	93.9794
1446.8	93.9814
1447	93.9833
1447.2	93.9852
1447.5	93.9871
1447.8	93.989
1448	93.9909
1448.2	93.9928
1448.5	93.9947
1448.8	93.9965
1449	93.9984
1449.2	94.0003
1449.5	94.0021
1449.8	94.004
1450	94.0058
1450.2	94.0076
1450.5	94.0095
1450.8	94.0113
1451	94.0131
1451.2	94.0149
1451.5	94.0167
1451.8	94.0185
1452	94.0203
1452.2	94.022
1452.5	94.0238
1452.8	94.0255
1453	94.0273
1453.2	94.029
1453.5	94.0307
1453.8	94.0325
1454	94.0342
1454.2	94.0359
1454.5	94.0375
1454.8	94.0392
1455	94.0409
1455.2	94.0425
1455.5	94.0442
1455.8	94.0458
1456	94.0474
1456.2	94.049
1456.5	94.0506
1456.8	94.0522
1457	94.0538
1457.2	94.0553
1457.5	94.0569
1457.8	94.0584
1458	94.06
1458.2	94.0615
1458.5	94.063
1458.8	94.0645
1459	94.0659
1459.2	94.0674
1459.5	94.0688
1459.8	94.0703
1460	94.0717
1460.2	94.0731
1460.5	94.0745
1460.8	94.0759
1461	94.0773
1461.2	94.0786
1461.5	94.08
1461.8	94.0813
1462	94.0826
1462.2	94.0839
1462.5	94.0852
1462.8	94.0865
1463	94.0878
1463.2	94.089
1463.5	94.0902
1463.8	94.0914
1464	94.0926
1464.2	94.0938
1464.5	94.095
1464.8	94.0962
1465	94.0973
1465.2	94.0984
1465.5	94.0996
1465.8	94.1007
1466	94.1017
1466.2	94.1028
1466.5	94.1039
1466.8	94.1049
1467	94.1059
1467.2	94.1069
1467.5	94.1079
1467.8	94.1089
1468	94.1099
1468.2	94.1108
1468.5	94.1117
1468.8	94.1127
1469	94.1136
1469.2	94.1144
1469.5	94.1153
1469.8	94.1162
1470	94.117
1470.2	94.1178
1470.5	94.1186
1470.8	94.1194
1471	94.1202
1471.2	94.121
1471.5	94.1217
1471.8	94.1224
1472	94.1231
1472.2	94.1238
1472.5	94.1245
1472.8	94.1252
1473	94.1258
1473.2	94.1265
1473.5	94.1271
1473.8	94.1277
1474	94.1283
1474.2	94.1288
1474.5	94.1294
1474.8	94.1299
1475	94.1305
1475.2	94.131
1475.5	94.1315
1475.8	94.1319
1476	94.1324
1476.2	94.1329
1476.5	94.1333
1476.8	94.1337
1477	94.1341
1477.2	94.1345
1477.5	94.1349
1477.8	94.1352
1478	94.1356
1478.2	94.1359
1478.5	94.1362
1478.8	94.1365
1479	94.1368
1479.2	94.1371
1479.5	94.1373
1479.8	94.1376
1480	94.1378
1480.2	94.138
1480.5	94.1382
1480.8	94.1384
1481	94.1386
1481.2	94.1387
1481.5	94.1389
1481.8	94.139
1482	94.1391
1482.2	94.1392
1482.5	94.1393
1482.8	94.1394
1483	94.1394
1483.2	94.1395
1483.5	94.1395
1483.8	94.1395
1484	94.1396
1484.2	94.1396
1484.5	94.1395
1484.8	94.1395
1485	94.1395
1485.2	94.1394
1485.5	94.1394
1485.8	94.1393
1486	94.1392
1486.2	94.1391
1486.5	94.139
1486.8	94.1389
1487	94.1388
1487.2	94.1386
1487.5	94.1385
1487.8	94.1383
1488	94.1381
1488.2	94.138
1488.5	94.1378
1488.8	94.1376
1489	94.1374
1489.2	94.1371
1489.5	94.1369
1489.8	94.1367
1490	94.1364
1490.2	94.1362
1490.5	94.1359
1490.8	94.1356
1491	94.1353
1491.2	94.135
1491.5	94.1347
1491.8	94.1344
1492	94.1341
1492.2	94.1338
1492.5	94.1335
1492.8	94.1331
1493	94.1328
1493.2	94.1324
1493.5	94.1321
1493.8	94.1317
1494	94.1313
1494.2	94.131
1494.5	94.1306
1494.8	94.1302
1495	94.1298
1495.2	94.1294
1495.5	94.129
1495.8	94.1286
1496	94.1282
1496.2	94.1278
1496.5	94.1273
1496.8	94.1269
1497	94.1265
1497.2	94.1261
1497.5	94.1256
1497.8	94.1252
1498	94.1247
1498.2	94.1243
1498.5	94.1238
1498.8	94.1234
1499	94.123
1499.2	94.1225
1499.5	94.122
1499.8	94.1216
1500	94.1211
1500.2	94.1207
1500.5	94.1202
1500.8	94.1198
1501	94.1193
1501.2	94.1188
1501.5	94.1184
1501.8	94.1179
1502	94.1175
1502.2	94.117
1502.5	94.1166
1502.8	94.1161
1503	94.1157
1503.2	94.1152
1503.5	94.1148
1503.8	94.1143
1504	94.1139
1504.2	94.1134
1504.5	94.113
1504.8	94.1126
1505	94.1121
1505.2	94.1117
1505.5	94.1113
1505.8	94.1108
1506	94.1104
1506.2	94.11
1506.5	94.1096
1506.8	94.1092
1507	94.1088
1507.2	94.1084
1507.5	94.108
1507.8	94.1076
1508	94.1073
1508.2	94.1069
1508.5	94.1065
1508.8	94.1062
1509	94.1058
1509.2	94.1055
1509.5	94.1052
1509.8	94.1048
1510	94.1045
1510.2	94.1042
1510.5	94.1039
1510.8	94.1036
1511	94.1033
1511.2	94.103
1511.5	94.1028
1511.8	94.1025
1512	94.1023
1512.2	94.102
1512.5	94.1018
1512.8	94.1016
1513	94.1014
1513.2	94.1012
1513.5	94.101
1513.8	94.1008
1514	94.1006
1514.2	94.1005
1514.5	94.1003
1514.8	94.1002
1515	94.1001
1515.2	94.0999
1515.5	94.0999
1515.8	94.0998
1516	94.0997
1516.2	94.0996
1516.5	94.0996
1516.8	94.0996
1517	94.0995
1517.2	94.0995
1517.5	94.0995
1517.8	94.0996
1518	94.0996
1518.2	94.0996
1518.5	94.0997
1518.8	94.0998
1519	94.0999
1519.2	94.1
1519.5	94.1001
1519.8	94.1002
1520	94.1004
1520.2	94.1006
1520.5	94.1007
1520.8	94.1009
1521	94.1012
1521.2	94.1014
1521.5	94.1016
1521.8	94.1019
1522	94.1022
1522.2	94.1025
1522.5	94.1028
1522.8	94.1031
1523	94.1035
1523.2	94.1038
1523.5	94.1042
1523.8	94.1046
1524	94.105
1524.2	94.1055
1524.5	94.1059
1524.8	94.1064
1525	94.1069
1525.2	94.1074
1525.5	94.1079
1525.8	94.1085
1526	94.109
1526.2	94.1096
1526.5	94.1102
1526.8	94.1108
1527	94.1114
1527.2	94.1121
1527.5	94.1128
1527.8	94.1135
1528	94.1142
1528.2	94.1149
1528.5	94.1156
1528.8	94.1164
1529	94.1172
1529.2	94.118
1529.5	94.1188
1529.8	94.1197
1530	94.1205
1530.2	94.1214
1530.5	94.1223
1530.8	94.1232
1531	94.1242
1531.2	94.1251
1531.5	94.1261
1531.8	94.1271
1532	94.1281
1532.2	94.1292
1532.5	94.1302
1532.8	94.1313
1533	94.1324
1533.2	94.1335
1533.5	94.1346
1533.8	94.1358
1534	94.137
1534.2	94.1382
1534.5	94.1394
1534.8	94.1406
1535	94.1418
1535.2	94.1431
1535.5	94.1444
1535.8	94.1457
1536	94.147
1536.2	94.1484
1536.5	94.1497
1536.8	94.1511
1537	94.1525
1537.2	94.1539
1537.5	94.1554
1537.8	94.1568
1538	94.1583
1538.2	94.1598
1538.5	94.1613
1538.8	94.1629
1539	94.1644
1539.2	94.166
1539.5	94.1675
1539.8	94.1691
1540	94.1708
1540.2	94.1724
1540.5	94.1741
1540.8	94.1757
1541	94.1774
1541.2	94.1791
1541.5	94.1808
1541.8	94.1826
1542	94.1843
1542.2	94.1861
1542.5	94.1879
1542.8	94.1897
1543	94.1915
1543.2	94.1933
1543.5	94.1952
1543.8	94.197
1544	94.1989
1544.2	94.2008
1544.5	94.2027
1544.8	94.2046
1545	94.2065
1545.2	94.2085
1545.5	94.2104
1545.8	94.2124
1546	94.2144
1546.2	94.2164
1546.5	94.2184
1546.8	94.2204
1547	94.2224
1547.2	94.2245
1547.5	94.2265
1547.8	94.2286
1548	94.2307
1548.2	94.2328
1548.5	94.2349
1548.8	94.237
1549	94.2391
1549.2	94.2412
1549.5	94.2434
1549.8	94.2455
1550	94.2476
1550.2	94.2496
1550.5	94.2516
1550.8	94.2536
1551	94.2556
1551.2	94.2576
1551.5	94.2596
1551.8	94.2617
1552	94.2637
1552.2	94.2657
1552.5	94.2678
1552.8	94.2698
1553	94.2718
1553.2	94.2739
1553.5	94.2759
1553.8	94.278
1554	94.28
1554.2	94.2821
1554.5	94.2841
1554.8	94.2862
1555	94.2882
1555.2	94.2903
1555.5	94.2923
1555.8	94.2944
1556	94.2965
1556.2	94.2985
1556.5	94.3005
1556.8	94.3026
1557	94.3046
1557.2	94.3067
1557.5	94.3087
1557.8	94.3107
1558	94.3127
1558.2	94.3148
1558.5	94.3168
1558.8	94.3188
1559	94.3208
1559.2	94.3228
1559.5	94.3247
1559.8	94.3267
1560	94.3287
1560.2	94.3306
1560.5	94.3326
1560.8	94.3345
1561	94.3364
1561.2	94.3383
1561.5	94.3402
1561.8	94.3421
1562	94.344
1562.2	94.3458
1562.5	94.3476
1562.8	94.3495
1563	94.3513
1563.2	94.3531
1563.5	94.3548
1563.8	94.3566
1564	94.3583
1564.2	94.36
1564.5	94.3617
1564.8	94.3634
1565	94.3651
1565.2	94.3667
1565.5	94.3683
1565.8	94.3699
1566	94.3715
1566.2	94.373
1566.5	94.3745
1566.8	94.376
1567	94.3775
1567.2	94.3789
1567.5	94.3803
1567.8	94.3817
1568	94.383
1568.2	94.3843
1568.5	94.3856
1568.8	94.3869
1569	94.3881
1569.2	94.3893
1569.5	94.3905
1569.8	94.3916
1570	94.3927
1570.2	94.3937
1570.5	94.3948
1570.8	94.3957
1571	94.3967
1571.2	94.3976
1571.5	94.3985
1571.8	94.3993
1572	94.4001
1572.2	94.4008
1572.5	94.4015
1572.8	94.4022
1573	94.4028
1573.2	94.4033
1573.5	94.4039
1573.8	94.4043
1574	94.4048
1574.2	94.4051
1574.5	94.4055
1574.8	94.4057
1575	94.406
1575.2	94.4061
1575.5	94.4063
1575.8	94.4063
1576	94.4063
1576.2	94.4063
1576.5	94.4062
1576.8	94.4061
1577	94.4058
1577.2	94.4056
1577.5	94.4053
1577.8	94.4049
1578	94.4044
1578.2	94.4039
1578.5	94.4033
1578.8	94.4027
1579	94.402
1579.2	94.4012
1579.5	94.4004
1579.8	94.3995
1580	94.3985
1580.2	94.3975
1580.5	94.3963
1580.8	94.3952
1581	94.3939
1581.2	94.3926
1581.5	94.3912
1581.8	94.3897
1582	94.3881
1582.2	94.3865
1582.5	94.3848
1582.8	94.383
1583	94.3811
1583.2	94.3792
1583.5	94.3771
1583.8	94.375
1584	94.3728
1584.2	94.3705
1584.5	94.3681
1584.8	94.3657
1585	94.3631
1585.2	94.3605
1585.5	94.3578
1585.8	94.355
1586	94.352
1586.2	94.349
1586.5	94.3459
1586.8	94.3428
1587	94.3395
1587.2	94.3361
1587.5	94.3326
1587.8	94.329
1588	94.3253
1588.2	94.3215
1588.5	94.3176
1588.8	94.3137
1589	94.3096
1589.2	94.3054
1589.5	94.3011
1589.8	94.2966
1590	94.2921
1590.2	94.2875
1590.5	94.2827
1590.8	94.2779
1591	94.2729
1591.2	94.2678
1591.5	94.2626
1591.8	94.2573
1592	94.2519
1592.2	94.2463
1592.5	94.2406
1592.8	94.2349
1593	94.2289
1593.2	94.2229
1593.5	94.2167
1593.8	94.2105
1594	94.204
1594.2	94.1975
1594.5	94.1908
1594.8	94.184
1595	94.1771
1595.2	94.1701
1595.5	94.1629
1595.8	94.1556
1596	94.1481
1596.2	94.1405
1596.5	94.1328
1596.8	94.1249
1597	94.1169
1597.2	94.1087
1597.5	94.1005
1597.8	94.092
1598	94.0834
1598.2	94.0747
1598.5	94.0659
1598.8	94.0569
1599	94.0477
1599.2	94.0384
1599.5	94.0289
1599.8	94.0193
1600	94.0095
1600.2	93.9996
1600.5	93.9896
1600.8	93.9793
1601	93.969
1601.2	93.9584
1601.5	93.9477
1601.8	93.9369
1602	93.9258
1602.2	93.9147
1602.5	93.9033
1602.8	93.8918
1603	93.8801
1603.2	93.8683
1603.5	93.8563
1603.8	93.8441
1604	93.8318
1604.2	93.8192
1604.5	93.8066
1604.8	93.7937
1605	93.7807
1605.2	93.7674
1605.5	93.7541
1605.8	93.7405
1606	93.7268
1606.2	93.7128
1606.5	93.6987
1606.8	93.6845
1607	93.67
1607.2	93.6553
1607.5	93.6405
1607.8	93.6255
1608	93.6103
1608.2	93.5949
1608.5	93.5793
1608.8	93.5636
1609	93.5476
1609.2	93.5315
1609.5	93.5151
1609.8	93.4986
1610	93.4818
1610.2	93.4649
1610.5	93.4478
1610.8	93.4305
1611	93.413
1611.2	93.3953
1611.5	93.3773
1611.8	93.3592
1612	93.3409
1612.2	93.3224
1612.5	93.3036
1612.8	93.2847
1613	93.2656
1613.2	93.2462
1613.5	93.2267
1613.8	93.2069
1614	93.1869
1614.2	93.1668
1614.5	93.1464
1614.8	93.1258
1615	93.105
1615.2	93.0839
1615.5	93.0627
1615.8	93.0412
1616	93.0195
1616.2	92.9976
1616.5	92.9755
1616.8	92.9532
1617	92.9306
1617.2	92.9079
1617.5	92.8849
1617.8	92.8616
1618	92.8382
1618.2	92.8145
1618.5	92.7906
1618.8	92.7665
1619	92.7422
1619.2	92.7176
1619.5	92.6928
1619.8	92.6678
1620	92.6425
1620.2	92.617
1620.5	92.5913
1620.8	92.5654
1621	92.5392
1621.2	92.5128
1621.5	92.4861
1621.8	92.4593
1622	92.4321
1622.2	92.4048
1622.5	92.3772
1622.8	92.3494
1623	92.3213
1623.2	92.293
1623.5	92.2645
1623.8	92.2357
1624	92.2067
1624.2	92.1774
1624.5	92.1479
1624.8	92.1182
1625	92.0882
1625.2	92.058
1625.5	92.0275
1625.8	91.9968
1626	91.9658
1626.2	91.9346
1626.5	91.9032
1626.8	91.8715
1627	91.8396
1627.2	91.8074
1627.5	91.775
1627.8	91.7423
1628	91.7094
1628.2	91.6762
1628.5	91.6428
1628.8	91.6091
1629	91.5752
1629.2	91.541
1629.5	91.5066
1629.8	91.4719
1630	91.437
1630.2	91.4018
1630.5	91.3664
1630.8	91.3307
1631	91.2948
1631.2	91.2586
1631.5	91.2222
1631.8	91.1855
1632	91.1486
1632.2	91.1114
1632.5	91.074
1632.8	91.0363
1633	90.9983
1633.2	90.9601
1633.5	90.9217
1633.8	90.8829
1634	90.844
1634.2	90.8048
1634.5	90.7653
1634.8	90.7256
1635	90.6856
1635.2	90.6453
1635.5	90.6049
1635.8	90.5641
1636	90.5231
1636.2	90.4819
1636.5	90.4404
1636.8	90.3986
1637	90.3566
1637.2	90.3143
1637.5	90.2718
1637.8	90.229
1638	90.186
1638.2	90.1427
1638.5	90.0991
1638.8	90.0553
1639	90.0113
1639.2	89.967
1639.5	89.9224
1639.8	89.8776
1640	89.8326
1640.2	89.7872
1640.5	89.7417
1640.8	89.6959
1641	89.6498
1641.2	89.6035
1641.5	89.5569
1641.8	89.5101
1642	89.463
1642.2	89.4156
1642.5	89.3681
1642.8	89.3202
1643	89.2722
1643.2	89.2238
1643.5	89.1753
1643.8	89.1264
1644	89.0774
1644.2	89.028
1644.5	88.9785
1644.8	88.9287
1645	88.8786
1645.2	88.8283
1645.5	88.7778
1645.8	88.727
1646	88.6759
1646.2	88.6246
1646.5	88.5731
1646.8	88.5214
1647	88.4694
1647.2	88.4171
1647.5	88.3646
1647.8	88.3119
1648	88.2589
1648.2	88.2057
1648.5	88.1523
1648.8	88.0986
1649	88.0447
1649.2	87.9905
1649.5	87.9361
1649.8	87.8815
1650	87.8266
1650.2	87.7715
1650.5	87.7162
1650.8	87.6607
1651	87.6049
1651.2	87.5489
1651.5	87.4926
1651.8	87.4361
1652	87.3795
1652.2	87.3225
1652.5	87.2654
1652.8	87.208
1653	87.1504
1653.2	87.0926
1653.5	87.0345
1653.8	86.9763
1654	86.9178
1654.2	86.8591
1654.5	86.8002
1654.8	86.741
1655	86.6817
1655.2	86.6221
1655.5	86.5623
1655.8	86.5023
1656	86.4421
1656.2	86.3817
1656.5	86.321
1656.8	86.2602
1657	86.1992
1657.2	86.1379
1657.5	86.0764
1657.8	86.0148
1658	85.9529
1658.2	85.8908
1658.5	85.8286
1658.8	85.7661
1659	85.7034
1659.2	85.6406
1659.5	85.5775
1659.8	85.5143
1660	85.4508
1660.2	85.3872
1660.5	85.3233
1660.8	85.2593
1661	85.1951
1661.2	85.1307
1661.5	85.0661
1661.8	85.0013
1662	84.9364
1662.2	84.8712
1662.5	84.8059
1662.8	84.7404
1663	84.6747
1663.2	84.6088
1663.5	84.5428
1663.8	84.4766
1664	84.4102
1664.2	84.3437
1664.5	84.2769
1664.8	84.21
1665	84.143
1665.2	84.0758
1665.5	84.0084
1665.8	83.9408
1666	83.8731
1666.2	83.8052
1666.5	83.7372
1666.8	83.669
1667	83.6006
1667.2	83.5321
1667.5	83.4634
1667.8	83.3946
1668	83.3257
1668.2	83.2565
1668.5	83.1873
1668.8	83.1179
1669	83.0483
1669.2	82.9786
1669.5	82.9088
1669.8	82.8388
1670	82.7687
1670.2	82.6984
1670.5	82.628
1670.8	82.5575
1671	82.4869
1671.2	82.4161
1671.5	82.3452
1671.8	82.2741
1672	82.2029
1672.2	82.1316
1672.5	82.0602
1672.8	81.9887
1673	81.917
1673.2	81.8452
1673.5	81.7733
1673.8	81.7013
1674	81.6292
1674.2	81.5569
1674.5	81.4846
1674.8	81.4121
1675	81.3396
1675.2	81.2669
1675.5	81.1941
1675.8	81.1212
1676	81.0483
1676.2	80.9752
1676.5	80.902
1676.8	80.8287
1677	80.7553
1677.2	80.6819
1677.5	80.6083
1677.8	80.5347
1678	80.4609
1678.2	80.3871
1678.5	80.3132
1678.8	80.2392
1679	80.1651
1679.2	80.091
1679.5	80.0168
1679.8	79.9424
1680	79.8681
1680.2	79.7936
1680.5	79.7191
1680.8	79.6445
1681	79.5698
1681.2	79.4951
1681.5	79.4203
1681.8	79.3454
1682	79.2705
1682.2	79.1955
1682.5	79.1204
1682.8	79.0453
1683	78.9701
1683.2	78.8949
1683.5	78.8196
1683.8	78.7443
1684	78.6689
1684.2	78.5935
1684.5	78.5181
1684.8	78.4425
1685	78.367
1685.2	78.2914
1685.5	78.2157
1685.8	78.1401
1686	78.0643
1686.2	77.9886
1686.5	77.9128
1686.8	77.837
1687	77.7611
1687.2	77.6853
1687.5	77.6094
1687.8	77.5334
1688	77.4575
1688.2	77.3815
1688.5	77.3055
1688.8	77.2295
1689	77.1534
1689.2	77.0774
1689.5	77.0013
1689.8	76.9252
1690	76.8491
1690.2	76.773
1690.5	76.6969
1690.8	76.6207
1691	76.5446
1691.2	76.4685
1691.5	76.3923
1691.8	76.3162
1692	76.2401
1692.2	76.1639
1692.5	76.0878
1692.8	76.0116
1693	75.9355
1693.2	75.8594
1693.5	75.7833
1693.8	75.7072
1694	75.6311
1694.2	75.555
1694.5	75.4789
1694.8	75.4029
1695	75.3269
1695.2	75.2509
1695.5	75.1749
1695.8	75.0989
1696	75.0229
1696.2	74.947
1696.5	74.8711
1696.8	74.7952
1697	74.7194
1697.2	74.6436
1697.5	74.5678
1697.8	74.4921
1698	74.4164
1698.2	74.3407
1698.5	74.265
1698.8	74.1894
1699	74.1139
1699.2	74.0383
1699.5	73.9629
1699.8	73.8874
1700	73.812
1700.2	73.7367
1700.5	73.6614
1700.8	73.5861
1701	73.5109
1701.2	73.4358
1701.5	73.3607
1701.8	73.2856
1702	73.2106
1702.2	73.1357
1702.5	73.0608
1702.8	72.986
1703	72.9112
1703.2	72.8365
1703.5	72.7619
1703.8	72.6873
1704	72.6128
1704.2	72.5384
1704.5	72.464
1704.8	72.3897
1705	72.3155
1705.2	72.2413
1705.5	72.1672
1705.8	72.0932
1706	72.0192
1706.2	71.9453
1706.5	71.8715
1706.8	71.7978
1707	71.7242
1707.2	71.6506
1707.5	71.5771
1707.8	71.5037
1708	71.4304
1708.2	71.3572
1708.5	71.284
1708.8	71.211
1709	71.138
1709.2	71.0651
1709.5	70.9923
1709.8	70.9196
1710	70.847
1710.2	70.7745
1710.5	70.702
1710.8	70.6297
1711	70.5575
1711.2	70.4853
1711.5	70.4133
1711.8	70.3413
1712	70.2695
1712.2	70.1977
1712.5	70.1261
1712.8	70.0545
1713	69.9831
1713.2	69.9117
1713.5	69.8405
1713.8	69.7693
1714	69.6983
1714.2	69.6274
1714.5	69.5566
1714.8	69.4859
1715	69.4153
1715.2	69.3448
1715.5	69.2744
1715.8	69.2042
1716	69.1341
1716.2	69.064
1716.5	68.9941
1716.8	68.9243
1717	68.8546
1717.2	68.7851
1717.5	68.7156
1717.8	68.6463
1718	68.5771
1718.2	68.508
1718.5	68.439
1718.8	68.3702
1719	68.3015
1719.2	68.2329
1719.5	68.1644
1719.8	68.0961
1720	68.0279
1720.2	67.9598
1720.5	67.8918
1720.8	67.824
1721	67.7563
1721.2	67.6887
1721.5	67.6212
1721.8	67.5539
1722	67.4867
1722.2	67.4197
1722.5	67.3528
1722.8	67.286
1723	67.2193
1723.2	67.1528
1723.5	67.0864
1723.8	67.0202
1724	66.9541
1724.2	66.8881
1724.5	66.8222
1724.8	66.7565
1725	66.691
1725.2	66.6256
1725.5	66.5603
1725.8	66.4952
1726	66.4302
1726.2	66.3653
1726.5	66.3006
1726.8	66.236
1727	66.1716
1727.2	66.1073
1727.5	66.0432
1727.8	65.9792
1728	65.9153
1728.2	65.8516
1728.5	65.7881
1728.8	65.7247
1729	65.6614
1729.2	65.5983
1729.5	65.5353
1729.8	65.4725
1730	65.4098
1730.2	65.3473
1730.5	65.285
1730.8	65.2228
1731	65.1607
1731.2	65.0988
1731.5	65.037
1731.8	64.9754
1732	64.914
1732.2	64.8526
1732.5	64.7915
1732.8	64.7305
1733	64.6697
1733.2	64.609
1733.5	64.5485
1733.8	64.4881
1734	64.4279
1734.2	64.3678
1734.5	64.3079
1734.8	64.2481
1735	64.1886
1735.2	64.1291
1735.5	64.0698
1735.8	64.0107
1736	63.9518
1736.2	63.893
1736.5	63.8343
1736.8	63.7758
1737	63.7175
1737.2	63.6594
1737.5	63.6014
1737.8	63.5435
1738	63.4859
1738.2	63.4283
1738.5	63.371
1738.8	63.3138
1739	63.2568
1739.2	63.1999
1739.5	63.1432
1739.8	63.0866
1740	63.0303
1740.2	62.974
1740.5	62.918
1740.8	62.8621
1741	62.8064
1741.2	62.7508
1741.5	62.6954
1741.8	62.6402
1742	62.5851
1742.2	62.5302
1742.5	62.4755
1742.8	62.4209
1743	62.3665
1743.2	62.3123
1743.5	62.2582
1743.8	62.2043
1744	62.1505
1744.2	62.097
1744.5	62.0436
1744.8	61.9903
1745	61.9372
1745.2	61.8843
1745.5	61.8316
1745.8	61.779
1746	61.7266
1746.2	61.6744
1746.5	61.6223
1746.8	61.5704
1747	61.5187
1747.2	61.4671
1747.5	61.4157
1747.8	61.3645
1748	61.3134
1748.2	61.2625
1748.5	61.2118
1748.8	61.1613
1749	61.1109
1749.2	61.0607
1749.5	61.0106
1749.8	60.9608
1750	60.911
1750.2	60.8615
1750.5	60.8121
1750.8	60.7629
1751	60.7139
1751.2	60.6651
1751.5	60.6164
1751.8	60.5679
1752	60.5195
1752.2	60.4713
1752.5	60.4233
1752.8	60.3755
1753	60.3278
1753.2	60.2803
1753.5	60.233
1753.8	60.1858
1754	60.1388
1754.2	60.092
1754.5	60.0454
1754.8	59.9989
1755	59.9526
1755.2	59.9064
1755.5	59.8605
1755.8	59.8147
1756	59.769
1756.2	59.7236
1756.5	59.6783
1756.8	59.6332
1757	59.5882
1757.2	59.5435
1757.5	59.4989
1757.8	59.4544
1758	59.4102
1758.2	59.3661
1758.5	59.3221
1758.8	59.2784
1759	59.2348
1759.2	59.1914
1759.5	59.1481
1759.8	59.1051
1760	59.0622
1760.2	59.0194
1760.5	58.9769
1760.8	58.9345
1761	58.8922
1761.2	58.8502
1761.5	58.8083
1761.8	58.7666
1762	58.725
1762.2	58.6837
1762.5	58.6424
1762.8	58.6014
1763	58.5605
1763.2	58.5198
1763.5	58.4793
1763.8	58.439
1764	58.3988
1764.2	58.3587
1764.5	58.3189
1764.8	58.2792
1765	58.2397
1765.2	58.2003
1765.5	58.1612
1765.8	58.1222
1766	58.0833
1766.2	58.0446
1766.5	58.0061
1766.8	57.9678
1767	57.9296
1767.2	57.8916
1767.5	57.8538
1767.8	57.8161
1768	57.7786
1768.2	57.7413
1768.5	57.7042
1768.8	57.6672
1769	57.6303
1769.2	57.5937
1769.5	57.5572
1769.8	57.5209
1770	57.4847
1770.2	57.4487
1770.5	57.4129
1770.8	57.3772
1771	57.3417
1771.2	57.3064
1771.5	57.2713
1771.8	57.2363
1772	57.2015
1772.2	57.1668
1772.5	57.1323
1772.8	57.098
1773	57.0638
1773.2	57.0298
1773.5	56.996
1773.8	56.9623
1774	56.9288
1774.2	56.8955
1774.5	56.8623
1774.8	56.8293
1775	56.7964
1775.2	56.7638
1775.5	56.7313
1775.8	56.6989
1776	56.6667
1776.2	56.6347
1776.5	56.6028
1776.8	56.5711
1777	56.5396
1777.2	56.5082
1777.5	56.477
1777.8	56.446
1778	56.4151
1778.2	56.3844
1778.5	56.3538
1778.8	56.3234
1779	56.2932
1779.2	56.2631
1779.5	56.2332
1779.8	56.2035
1780	56.1739
1780.2	56.1445
1780.5	56.1152
1780.8	56.0861
1781	56.0572
1781.2	56.0284
1781.5	55.9998
1781.8	55.9713
1782	55.943
1782.2	55.9149
1782.5	55.8869
1782.8	55.8591
1783	55.8315
1783.2	55.804
1783.5	55.7766
1783.8	55.7495
1784	55.7224
1784.2	55.6956
1784.5	55.6689
1784.8	55.6423
1785	55.6159
1785.2	55.5897
1785.5	55.5637
1785.8	55.5377
1786	55.512
1786.2	55.4864
1786.5	55.461
1786.8	55.4357
1787	55.4105
1787.2	55.3856
1787.5	55.3608
1787.8	55.3361
1788	55.3116
1788.2	55.2873
1788.5	55.2631
1788.8	55.2391
1789	55.2152
1789.2	55.1915
1789.5	55.1679
1789.8	55.1445
1790	55.1212
1790.2	55.0981
1790.5	55.0752
1790.8	55.0524
1791	55.0298
1791.2	55.0073
1791.5	54.985
1791.8	54.9628
1792	54.9408
1792.2	54.9189
1792.5	54.8972
1792.8	54.8756
1793	54.8542
1793.2	54.833
1793.5	54.8119
1793.8	54.7909
1794	54.7701
1794.2	54.7495
1794.5	54.729
1794.8	54.7086
1795	54.6884
1795.2	54.6684
1795.5	54.6485
1795.8	54.6288
1796	54.6092
1796.2	54.5897
1796.5	54.5705
1796.8	54.5513
1797	54.5323
1797.2	54.5135
1797.5	54.4948
1797.8	54.4763
1798	54.4579
1798.2	54.4396
1798.5	54.4215
1798.8	54.4036
1799	54.3858
1799.2	54.3682
1799.5	54.3507
1799.8	54.3333
1800	54.3161
1800.2	54.299
1800.5	54.2821
1800.8	54.2654
1801	54.2488
1801.2	54.2323
1801.5	54.216
1801.8	54.1998
1802	54.1838
1802.2	54.1679
1802.5	54.1521
1802.8	54.1365
1803	54.1211
1803.2	54.1058
1803.5	54.0906
1803.8	54.0756
1804	54.0608
1804.2	54.046
1804.5	54.0315
1804.8	54.017
1805	54.0027
1805.2	53.9886
1805.5	53.9746
1805.8	53.9607
1806	53.947
1806.2	53.9334
1806.5	53.92
1806.8	53.9067
1807	53.8936
1807.2	53.8806
1807.5	53.8677
1807.8	53.855
1808	53.8424
1808.2	53.83
1808.5	53.8177
1808.8	53.8055
1809	53.7935
1809.2	53.7817
1809.5	53.7699
1809.8	53.7583
1810	53.7469
1810.2	53.7356
1810.5	53.7244
1810.8	53.7134
1811	53.7025
1811.2	53.6917
1811.5	53.6811
1811.8	53.6707
1812	53.6603
1812.2	53.6501
1812.5	53.6401
1812.8	53.6302
1813	53.6204
1813.2	53.6107
1813.5	53.6012
1813.8	53.5919
1814	53.5826
1814.2	53.5735
1814.5	53.5646
1814.8	53.5558
1815	53.5471
1815.2	53.5385
1815.5	53.5301
1815.8	53.5218
1816	53.5137
1816.2	53.5057
1816.5	53.4978
1816.8	53.4901
1817	53.4825
1817.2	53.4751
1817.5	53.4677
1817.8	53.4605
1818	53.4535
1818.2	53.4465
1818.5	53.4398
1818.8	53.4331
1819	53.4266
1819.2	53.4202
1819.5	53.4139
1819.8	53.4078
1820	53.4018
1820.2	53.396
1820.5	53.3902
1820.8	53.3847
1821	53.3792
1821.2	53.3739
1821.5	53.3687
1821.8	53.3636
1822	53.3587
1822.2	53.3539
1822.5	53.3492
1822.8	53.3447
1823	53.3403
1823.2	53.336
1823.5	53.3318
1823.8	53.3278
1824	53.3239
1824.2	53.3202
1824.5	53.3165
1824.8	53.313
1825	53.3097
1825.2	53.3064
1825.5	53.3033
1825.8	53.3003
1826	53.2975
1826.2	53.2948
1826.5	53.2922
1826.8	53.2897
1827	53.2874
1827.2	53.2852
1827.5	53.2831
1827.8	53.2811
1828	53.2793
1828.2	53.2776
1828.5	53.276
1828.8	53.2746
1829	53.2732
1829.2	53.272
1829.5	53.271
1829.8	53.27
1830	53.2692
1830.2	53.2685
1830.5	53.2679
1830.8	53.2675
1831	53.2672
1831.2	53.267
1831.5	53.2669
1831.8	53.267
1832	53.2672
1832.2	53.2675
1832.5	53.2679
1832.8	53.2685
1833	53.2691
1833.2	53.2699
1833.5	53.2709
1833.8	53.2719
1834	53.2731
1834.2	53.2744
1834.5	53.2758
1834.8	53.2773
1835	53.279
1835.2	53.2808
1835.5	53.2827
1835.8	53.2847
1836	53.2869
1836.2	53.2891
1836.5	53.2915
1836.8	53.294
1837	53.2967
1837.2	53.2994
1837.5	53.3023
1837.8	53.3053
1838	53.3084
1838.2	53.3117
1838.5	53.315
1838.8	53.3185
1839	53.3221
1839.2	53.3258
1839.5	53.3296
1839.8	53.3336
1840	53.3377
1840.2	53.3419
1840.5	53.3462
1840.8	53.3506
1841	53.3552
1841.2	53.3598
1841.5	53.3646
1841.8	53.3695
1842	53.3745
1842.2	53.3797
1842.5	53.3849
1842.8	53.3903
1843	53.3958
1843.2	53.4014
1843.5	53.4071
1843.8	53.4129
1844	53.4189
1844.2	53.425
1844.5	53.4311
1844.8	53.4374
1845	53.4439
1845.2	53.4504
1845.5	53.457
1845.8	53.4638
1846	53.4707
1846.2	53.4777
1846.5	53.4848
1846.8	53.492
1847	53.4993
1847.2	53.5068
1847.5	53.5143
1847.8	53.522
1848	53.5298
1848.2	53.5377
1848.5	53.5457
1848.8	53.5539
1849	53.5621
1849.2	53.5705
1849.5	53.5789
1849.8	53.5875
1850	53.5962
1850.2	53.605
1850.5	53.6139
1850.8	53.6229
1851	53.6321
1851.2	53.6413
1851.5	53.6507
1851.8	53.6602
1852	53.6698
1852.2	53.6794
1852.5	53.6892
1852.8	53.6992
1853	53.7092
1853.2	53.7193
1853.5	53.7296
1853.8	53.7399
1854	53.7504
1854.2	53.761
1854.5	53.7716
1854.8	53.7824
1855	53.7933
1855.2	53.8043
1855.5	53.8155
1855.8	53.8267
1856	53.838
1856.2	53.8495
1856.5	53.861
1856.8	53.8727
1857	53.8844
1857.2	53.8963
1857.5	53.9083
1857.8	53.9204
1858	53.9326
1858.2	53.9449
1858.5	53.9573
1858.8	53.9698
1859	53.9824
1859.2	53.9951
1859.5	54.008
1859.8	54.0209
1860	54.0339
1860.2	54.0471
1860.5	54.0603
1860.8	54.0737
1861	54.0872
1861.2	54.1007
1861.5	54.1144
1861.8	54.1282
1862	54.1421
1862.2	54.156
1862.5	54.1701
1862.8	54.1843
1863	54.1986
1863.2	54.213
1863.5	54.2275
1863.8	54.2421
1864	54.2568
1864.2	54.2716
1864.5	54.2865
1864.8	54.3016
1865	54.3167
1865.2	54.3319
1865.5	54.3472
1865.8	54.3626
1866	54.3782
1866.2	54.3938
1866.5	54.4095
1866.8	54.4253
1867	54.4413
1867.2	54.4573
1867.5	54.4734
1867.8	54.4896
1868	54.506
1868.2	54.5224
1868.5	54.5389
1868.8	54.5556
1869	54.5723
1869.2	54.5891
1869.5	54.606
1869.8	54.6231
1870	54.6402
1870.2	54.6574
1870.5	54.6747
1870.8	54.6921
1871	54.7096
1871.2	54.7273
1871.5	54.745
1871.8	54.7628
1872	54.7807
1872.2	54.7987
1872.5	54.8168
1872.8	54.835
1873	54.8533
1873.2	54.8717
1873.5	54.8901
1873.8	54.9087
1874	54.9274
1874.2	54.9462
1874.5	54.9651
1874.8	54.984
1875	55.0031
1875.2	55.0222
1875.5	55.0415
1875.8	55.0608
1876	55.0803
1876.2	55.0998
1876.5	55.1194
1876.8	55.1391
1877	55.159
1877.2	55.1789
1877.5	55.1989
1877.8	55.219
1878	55.2391
1878.2	55.2594
1878.5	55.2798
1878.8	55.3003
1879	55.3208
1879.2	55.3415
1879.5	55.3622
1879.8	55.3831
1880	55.404
1880.2	55.425
1880.5	55.4461
1880.8	55.4673
1881	55.4886
1881.2	55.51
1881.5	55.5314
1881.8	55.553
1882	55.5747
1882.2	55.5964
1882.5	55.6182
1882.8	55.6402
1883	55.6622
1883.2	55.6843
1883.5	55.7065
1883.8	55.7287
1884	55.7511
1884.2	55.7736
1884.5	55.7961
1884.8	55.8187
1885	55.8415
1885.2	55.8643
1885.5	55.8872
1885.8	55.9102
1886	55.9332
1886.2	55.9564
1886.5	55.9796
1886.8	56.003
1887	56.0264
1887.2	56.0499
1887.5	56.0735
1887.8	56.0972
1888	56.1209
1888.2	56.1448
1888.5	56.1687
1888.8	56.1927
1889	56.2168
1889.2	56.241
1889.5	56.2653
1889.8	56.2896
1890	56.3141
1890.2	56.3386
1890.5	56.3632
1890.8	56.3879
1891	56.4127
1891.2	56.4376
1891.5	56.4625
1891.8	56.4875
1892	56.5126
1892.2	56.5378
1892.5	56.5631
1892.8	56.5885
1893	56.6139
1893.2	56.6394
1893.5	56.665
1893.8	56.6907
1894	56.7165
1894.2	56.7423
1894.5	56.7682
1894.8	56.7943
1895	56.8203
1895.2	56.8465
1895.5	56.8728
1895.8	56.8991
1896	56.9255
1896.2	56.952
1896.5	56.9785
1896.8	57.0052
1897	57.0319
1897.2	57.0587
1897.5	57.0856
1897.8	57.1126
1898	57.1396
1898.2	57.1667
1898.5	57.1939
1898.8	57.2212
1899	57.2485
1899.2	57.2759
1899.5	57.3034
1899.8	57.331
1900	57.3587
1900.2	57.3864
1900.5	57.4142
1900.8	57.4421
1901	57.4701
1901.2	57.4981
1901.5	57.5262
1901.8	57.5544
1902	57.5826
1902.2	57.611
1902.5	57.6394
1902.8	57.6679
1903	57.6964
1903.2	57.725
1903.5	57.7538
1903.8	57.7825
1904	57.8114
1904.2	57.8403
1904.5	57.8693
1904.8	57.8984
1905	57.9275
1905.2	57.9567
1905.5	57.986
1905.8	58.0154
1906	58.0448
1906.2	58.0743
1906.5	58.1038
1906.8	58.1335
1907	58.1632
1907.2	58.193
1907.5	58.2228
1907.8	58.2528
1908	58.2827
1908.2	58.3128
1908.5	58.3429
1908.8	58.3731
1909	58.4034
1909.2	58.4337
1909.5	58.4641
1909.8	58.4946
1910	58.5252
1910.2	58.5558
1910.5	58.5864
1910.8	58.6172
1911	58.648
1911.2	58.6789
1911.5	58.7098
1911.8	58.7408
1912	58.7719
1912.2	58.8031
1912.5	58.8343
1912.8	58.8655
1913	58.8969
1913.2	58.9283
1913.5	58.9598
1913.8	58.9913
1914	59.0229
1914.2	59.0546
1914.5	59.0863
1914.8	59.1181
1915	59.1499
1915.2	59.1818
1915.5	59.2138
1915.8	59.2459
1916	59.278
1916.2	59.3101
1916.5	59.3424
1916.8	59.3747
1917	59.407
1917.2	59.4394
1917.5	59.4719
1917.8	59.5045
1918	59.5371
1918.2	59.5697
1918.5	59.6024
1918.8	59.6352
1919	59.6681
1919.2	59.701
1919.5	59.7339
1919.8	59.767
1920	59.8
1920.2	59.8332
1920.5	59.8664
1920.8	59.8996
1921	59.9329
1921.2	59.9663
1921.5	59.9997
1921.8	60.0332
1922	60.0668
1922.2	60.1004
1922.5	60.134
1922.8	60.1677
1923	60.2015
1923.2	60.2353
1923.5	60.2692
1923.8	60.3031
1924	60.3371
1924.2	60.3712
1924.5	60.4053
1924.8	60.4394
1925	60.4736
1925.2	60.5079
1925.5	60.5422
1925.8	60.5766
1926	60.611
1926.2	60.6455
1926.5	60.68
1926.8	60.7146
1927	60.7492
1927.2	60.7839
1927.5	60.8186
1927.8	60.8534
1928	60.8883
1928.2	60.9232
1928.5	60.9581
1928.8	60.9931
1929	61.0281
1929.2	61.0632
1929.5	61.0984
1929.8	61.1336
1930	61.1688
1930.2	61.2041
1930.5	61.2394
1930.8	61.2748
1931	61.3103
1931.2	61.3457
1931.5	61.3813
1931.8	61.4168
1932	61.4525
1932.2	61.4881
1932.5	61.5239
1932.8	61.5596
1933	61.5954
1933.2	61.6313
1933.5	61.6672
1933.8	61.7032
1934	61.7392
1934.2	61.7752
1934.5	61.8113
1934.8	61.8474
1935	61.8836
1935.2	61.9198
1935.5	61.9561
1935.8	61.9924
1936	62.0287
1936.2	62.0651
1936.5	62.1015
1936.8	62.138
1937	62.1745
1937.2	62.2111
1937.5	62.2477
1937.8	62.2843
1938	62.321
1938.2	62.3577
1938.5	62.3945
1938.8	62.4313
1939	62.4682
1939.2	62.505
1939.5	62.542
1939.8	62.5789
1940	62.6159
1940.2	62.653
1940.5	62.6901
1940.8	62.7272
1941	62.7643
1941.2	62.8015
1941.5	62.8388
1941.8	62.876
1942	62.9133
1942.2	62.9507
1942.5	62.9881
1942.8	63.0255
1943	63.0629
1943.2	63.1004
1943.5	63.1379
1943.8	63.1755
1944	63.2131
1944.2	63.2507
1944.5	63.2883
1944.8	63.326
1945	63.3638
1945.2	63.4015
1945.5	63.4393
1945.8	63.4771
1946	63.515
1946.2	63.5529
1946.5	63.5908
1946.8	63.6288
1947	63.6667
1947.2	63.7048
1947.5	63.7428
1947.8	63.7809
1948	63.819
1948.2	63.8571
1948.5	63.8953
1948.8	63.9335
1949	63.9717
1949.2	64.01
1949.5	64.0483
1949.8	64.0866
1950	64.1249
1950.2	64.1633
1950.5	64.2017
1950.8	64.2401
1951	64.2785
1951.2	64.317
1951.5	64.3555
1951.8	64.394
1952	64.4326
1952.2	64.4712
1952.5	64.5098
1952.8	64.5484
1953	64.5871
1953.2	64.6257
1953.5	64.6644
1953.8	64.7032
1954	64.7419
1954.2	64.7807
1954.5	64.8195
1954.8	64.8583
1955	64.8971
1955.2	64.936
1955.5	64.9749
1955.8	65.0138
1956	65.0527
1956.2	65.0917
1956.5	65.1306
1956.8	65.1696
1957	65.2086
1957.2	65.2477
1957.5	65.2867
1957.8	65.3258
1958	65.3649
1958.2	65.404
1958.5	65.4431
1958.8	65.4823
1959	65.5214
1959.2	65.5606
1959.5	65.5998
1959.8	65.639
1960	65.6782
1960.2	65.7175
1960.5	65.7568
1960.8	65.796
1961	65.8353
1961.2	65.8746
1961.5	65.914
1961.8	65.9533
1962	65.9926
1962.2	66.032
1962.5	66.0714
1962.8	66.1108
1963	66.1502
1963.2	66.1896
1963.5	66.2291
1963.8	66.2685
1964	66.308
1964.2	66.3474
1964.5	66.3869
1964.8	66.4264
1965	66.4659
1965.2	66.5054
1965.5	66.5449
1965.8	66.5845
1966	66.624
1966.2	66.6636
1966.5	66.7031
1966.8	66.7427
1967	66.7823
1967.2	66.8219
1967.5	66.8615
1967.8	66.9011
1968	66.9407
1968.2	66.9803
1968.5	67.0199
1968.8	67.0596
1969	67.0992
1969.2	67.1388
1969.5	67.1785
1969.8	67.2181
1970	67.2578
1970.2	67.2975
1970.5	67.3371
1970.8	67.3768
1971	67.4165
1971.2	67.4562
1971.5	67.4959
1971.8	67.5355
1972	67.5752
1972.2	67.6149
1972.5	67.6546
1972.8	67.6943
1973	67.734
1973.2	67.7737
1973.5	67.8134
1973.8	67.8531
1974	67.8928
1974.2	67.9325
1974.5	67.9722
1974.8	68.0119
1975	68.0516
1975.2	68.0913
1975.5	68.131
1975.8	68.1707
1976	68.2104
1976.2	68.2501
1976.5	68.2898
1976.8	68.3295
1977	68.3692
1977.2	68.4088
1977.5	68.4485
1977.8	68.4882
1978	68.5279
1978.2	68.5675
1978.5	68.6072
1978.8	68.6468
1979	68.6865
1979.2	68.7261
1979.5	68.7658
1979.8	68.8054
1980	68.845
1980.2	68.8846
1980.5	68.9243
1980.8	68.9639
1981	69.0035
1981.2	69.043
1981.5	69.0826
1981.8	69.1222
1982	69.1618
1982.2	69.2013
1982.5	69.2408
1982.8	69.2804
1983	69.3199
1983.2	69.3594
1983.5	69.3989
1983.8	69.4384
1984	69.4779
1984.2	69.5174
1984.5	69.5568
1984.8	69.5963
1985	69.6357
1985.2	69.6751
1985.5	69.7145
1985.8	69.7539
1986	69.7933
1986.2	69.8327
1986.5	69.872
1986.8	69.9113
1987	69.9507
1987.2	69.99
1987.5	70.0293
1987.8	70.0685
1988	70.1078
1988.2	70.1471
1988.5	70.1863
1988.8	70.2255
1989	70.2647
1989.2	70.3039
1989.5	70.343
1989.8	70.3822
1990	70.4213
1990.2	70.4604
1990.5	70.4995
1990.8	70.5386
1991	70.5776
1991.2	70.6167
1991.5	70.6557
1991.8	70.6947
1992	70.7336
1992.2	70.7726
1992.5	70.8115
1992.8	70.8504
1993	70.8893
1993.2	70.9282
1993.5	70.967
1993.8	71.0059
1994	71.0447
1994.2	71.0834
1994.5	71.1222
1994.8	71.1609
1995	71.1996
1995.2	71.2383
1995.5	71.277
1995.8	71.3156
1996	71.3542
1996.2	71.3928
1996.5	71.4314
1996.8	71.4699
1997	71.5084
1997.2	71.5469
1997.5	71.5854
1997.8	71.6238
1998	71.6622
1998.2	71.7006
1998.5	71.739
1998.8	71.7773
1999	71.8156
1999.2	71.8539
1999.5	71.8921
1999.8	71.9303
2000	71.9685
