500	-0.003580515
501	0.0021153
502	0.000774751
503	-0.000112611
504	-0.00279058
505	0.002392703
506	0.00061274
507	-0.002047671
508	-0.006485249
509	-0.00134161
510	-0.001988939
511	0.002454119
512	0.002022992
513	-0.003482486
514	0.004461292
515	0.001828484
516	0.003372119
517	0.000966106
518	0.003821348
519	0.00010393
520	0.000768315
521	-0.001192437
522	0.000777608
523	-8.92001E-05
524	-0.000519834
525	0.002750934
526	-0.000297325
527	0.002536049
528	0.002538645
529	0.001014628
530	-0.002039705
531	0.000792244
532	-0.000302589
533	0.001003237
534	0.004060062
535	-0.000108473
536	-0.000776532
537	0.004489818
538	0.004265137
539	0.005807313
540	0.009578236
541	0.01940446
542	0.04118508
543	0.1019338
544	0.2785328
545	0.8377692
546	2.908852
547	10.81403
548	32.13758
549	62.70717
550	84.80566
551	91.51907
552	92.62975
553	94.015
554	95.10767
555	95.16237
556	95.04058
557	95.15763
558	95.47679
559	95.70146
560	95.70018
561	95.4899
562	95.24914
563	95.14709
564	95.25082
565	95.48895
566	95.65083
567	95.70114
568	95.66011
569	95.46888
570	95.30281
571	95.33714
572	95.43131
573	95.54395
574	95.71303
575	95.87831
576	95.79572
577	95.63582
578	95.40517
579	95.15981
580	94.93084
581	94.83589
582	94.83669
583	94.94525
584	95.15649
585	95.33144
586	95.52995
587	95.57513
588	95.61908
589	95.51456
590	95.3914
591	95.2542
592	95.20969
593	95.15226
594	95.17157
595	95.28797
596	95.44386
597	95.54736
598	95.70878
599	95.69079
600	95.69079
601	95.63548
602	95.50091
603	95.34016
604	95.22093
605	95.19891
606	95.12867
607	95.18159
608	95.33242
609	95.3855
610	95.54573
611	95.62994
612	95.69836
613	95.69268
614	95.62135
615	95.50977
616	95.44412
617	95.35137
618	95.23033
619	95.23425
620	95.22449
621	95.26602
622	95.29936
623	95.44902
624	95.54298
625	95.63608
626	95.72321
627	95.75327
628	95.71695
629	95.67318
630	95.57262
631	95.4539
632	95.31387
633	95.21539
634	95.1212
635	95.11399
636	95.105
637	95.10967
638	95.18829
639	95.29443
640	95.39745
641	95.53938
642	95.60026
643	95.71545
644	95.7688
645	95.66647
646	95.71087
647	95.61177
648	95.52415
649	95.49881
650	95.39619
651	95.33756
652	95.38148
653	95.30373
654	95.40817
655	95.42877
656	95.48445
657	95.59343
658	95.65432
659	95.68679
660	95.70785
661	95.70831
662	95.69079
663	95.6877
664	95.57288
665	95.52864
666	95.41929
667	95.30236
668	95.23713
669	95.1572
670	95.16953
671	95.16644
672	95.12402
673	95.18575
674	95.28864
675	95.37883
676	95.48412
677	95.53632
678	95.59826
679	95.69693
680	95.72993
681	95.71125
682	95.66172
683	95.66566
684	95.55088
685	95.45789
686	95.42184
687	95.35677
688	95.29537
689	95.23022
690	95.26776
691	95.29327
692	95.24693
693	95.26315
694	95.36213
695	95.40134
696	95.54428
697	95.63739
698	95.67307
699	95.77361
700	95.73872
701	95.75475
702	95.73128
703	95.6246
704	95.60859
705	95.54227
706	95.43896
707	95.32467
708	95.29201
709	95.19276
710	95.20591
711	95.09534
712	95.17782
713	95.17422
714	95.16366
715	95.2704
716	95.31664
717	95.4166
718	95.50179
719	95.54664
720	95.58733
721	95.69652
722	95.63407
723	95.71286
724	95.7872
725	95.7038
726	95.65466
727	95.57096
728	95.5725
729	95.48708
730	95.43975
731	95.35175
732	95.25608
733	95.30471
734	95.26268
735	95.31703
736	95.25745
737	95.24186
738	95.33195
739	95.38843
740	95.44723
741	95.50937
742	95.58858
743	95.50352
744	95.61987
745	95.62289
746	95.59877
747	95.63065
748	95.63799
749	95.631
750	95.5681
751	95.60432
752	95.54223
753	95.44485
754	95.41456
755	95.40202
756	95.34629
757	95.28979
758	95.25459
759	95.2454
760	95.21984
761	95.35523
762	95.30325
763	95.33478
764	95.31494
765	95.45297
766	95.47359
767	95.59079
768	95.56894
769	95.53576
770	95.74412
771	95.68445
772	95.70016
773	95.73774
774	95.66783
775	95.68872
776	95.57133
777	95.5315
778	95.48374
779	95.44753
780	95.38921
781	95.29034
782	95.20622
783	95.20394
784	95.1942
785	95.27248
786	95.16383
787	95.14916
788	95.21717
789	95.25549
790	95.22894
791	95.21296
792	95.23843
793	95.33407
794	95.40859
795	95.42484
796	95.50126
797	95.44784
798	95.55649
799	95.55683
800	95.51276
