	
	
350	0.1229
350.5	0.136
351	0.1751
351.5	0.2367
352	0.3605
352.5	0.6267
353	1.2102
353.5	2.3653
354	3.6651
354.5	3.908
355	3.5849
355.5	3.4601
356	3.7357
356.5	4.5356
357	5.821
357.5	8.0411
358	12.0975
358.5	19.4425
359	31.5941
359.5	43.8982
360	42.7255
360.5	32.3328
361	24.1098
361.5	19.7617
362	18.2581
362.5	19.089
363	22.5585
363.5	30.1971
364	49.1146
364.5	75.9333
365	55.0655
365.5	46.018
366	41.1823
366.5	40.7817
367	46.0645
367.5	60.4789
368	82.1792
368.5	81.0292
369	68.7906
369.5	63.9985
370	68.7741
370.5	65.1352
371	45.4279
371.5	36.0677
372	34.457
372.5	34.868
373	33.7602
373.5	30.6588
374	27.7244
374.5	26.9703
375	29.0327
375.5	31.409
376	31.5548
376.5	32.7578
377	36.2444
377.5	38.7991
378	36.2473
378.5	30.7838
379	27.4997
379.5	27.5799
380	26.0247
380.5	20.6429
381	17.0317
381.5	16.467
382	18.9015
382.5	25.6368
383	39.2025
383.5	51.9624
384	42.7028
384.5	37.4949
385	50.1199
385.5	19.7649
386	9.3875
386.5	6.0941
387	4.6874
387.5	4.0241
388	3.7541
388.5	3.7534
389	3.9908
389.5	4.4906
390	5.3293
390.5	6.5716
391	8.4495
391.5	11.2565
392	15.3622
392.5	21.0694
393	28.249
393.5	35.9576
394	42.7914
394.5	48.13
395	52.8287
395.5	58.7095
396	67.5775
396.5	79.2761
397	89.7474
397.5	95.1386
398	96.4769
398.5	96.3746
399	96.1866
399.5	96.2196
400	96.3856
400.5	96.5487
401	96.6532
401.5	96.7034
402	96.7211
402.5	96.714
403	96.6754
403.5	96.6015
404	96.5072
404.5	96.4288
405	96.4083
405.5	96.4717
406	96.6106
406.5	96.7806
407	96.9165
407.5	96.9589
408	96.8809
408.5	96.7021
409	96.4834
409.5	96.3046
410	96.2342
410.5	96.3044
411	96.4985
411.5	96.7558
412	96.9912
412.5	97.1251
413	97.1121
413.5	96.9579
414	96.717
414.5	96.4724
415	96.3175
415.5	96.276
416	96.3617
416.5	96.5529
417	96.799
417.5	97.0349
418	97.1989
418.5	97.251
419	97.1844
419.5	97.0258
420	96.8269
420.5	96.6485
421	96.5436
421.5	96.5438
422	96.6518
422.5	96.8415
423	97.0647
423.5	97.2647
424	97.3918
424.5	97.4174
425	97.3413
425.5	97.1908
426	97.0118
426.5	96.8558
427	96.7664
427.5	96.7689
428	96.8645
428.5	97.0303
429	97.225
429.5	97.3997
430	97.511
430.5	97.5326
431	97.4624
431.5	97.3218
432	97.149
432.5	96.9885
433	96.8802
433.5	96.8501
434	96.9052
434.5	97.0313
435	97.1969
435.5	97.3607
436	97.482
436.5	97.5319
437	97.5003
437.5	97.3983
438	97.2537
438.5	97.1032
439	96.9704
439.5	96.9
440	96.9066
440.5	96.986
441	97.1156
441.5	97.2595
442	97.3779
442.5	97.4377
443	97.4223
443.5	97.3357
444	97.2007
444.5	97.0517
445	96.9249
445.5	96.8497
446	96.8429
446.5	96.9049
447	97.0204
447.5	97.1607
448	97.2899
448.5	97.3739
449	97.3895
449.5	97.332
450	97.2167
450.5	97.0739
451	96.9404
451.5	96.8493
452	96.8225
452.5	96.866
453	96.9696
453.5	97.1092
454	97.2512
454.5	97.3598
455	97.405
455.5	97.3715
456	97.2635
456.5	97.1055
457	96.936
457.5	96.7975
458	96.7256
458.5	96.7405
459	96.8425
459.5	97.0124
460	97.2151
460.5	97.4066
461	97.5434
461.5	97.5914
462	97.5354
462.5	97.3842
463	97.17
463.5	96.9418
464	96.7542
464.5	96.6544
465	96.6716
465.5	96.81
466	97.0477
466.5	97.3401
467	97.628
467.5	97.8499
468	97.9557
468.5	97.9185
469	97.7429
469.5	97.4651
470	97.1449
470.5	96.8521
471	96.651
471.5	96.5862
472	96.6738
472.5	96.897
473	97.2088
473.5	97.54
474	97.8133
474.5	97.961
475	97.942
475.5	97.7539
476	97.4347
476.5	97.0542
477	96.6966
477.5	96.4406
478	96.3419
478.5	96.4205
479	96.6557
479.5	96.9887
480	97.335
480.5	97.6044
481	97.7261
481.5	97.6699
482	97.4575
482.5	97.1555
483	96.8558
483.5	96.646
484	96.5805
484.5	96.6586
485	96.8185
485.5	96.9545
486	96.9629
486.5	96.8003
487	96.5259
487.5	96.2968
488	96.3027
488.5	96.6243
489	96.9377
489.5	96.0026
490	91.5514
490.5	82.4574
491	71.5416
491.5	62.6968
492	56.9841
492.5	53.4019
493	50.4859
493.5	46.9044
494	41.8127
494.5	35.2594
495	28.1527
495.5	21.5849
496	16.1983
496.5	12.1023
497	9.1111
497.5	6.9621
498	5.4202
498.5	4.3058
499	3.4907
499.5	2.8862
500	2.4322
500.5	2.113
501	1.8646
501.5	1.6716
502	1.5227
502.5	1.4092
503	1.3244
503.5	1.2627
504	1.2196
504.5	1.1912
505	1.1734
505.5	1.162
506	1.1518
506.5	1.1373
507	1.1124
507.5	1.0723
508	1.0143
508.5	0.9397
509	0.8529
509.5	0.7608
510	0.67
510.5	0.5855
511	0.5104
511.5	0.4457
512	0.3914
512.5	0.3465
513	0.3099
513.5	0.2804
514	0.2569
514.5	0.2386
515	0.2247
515.5	0.2148
516	0.2084
516.5	0.2055
517	0.206
517.5	0.21
518	0.2181
518.5	0.2309
519	0.2495
519.5	0.2757
520	0.312
520.5	0.3622
521	0.4321
521.5	0.5298
522	0.6651
522.5	0.8448
523	1.0548
523.5	1.2294
524	1.2615
524.5	1.1185
525	0.8931
525.5	0.6832
526	0.5243
526.5	0.4139
527	0.3346
527.5	0.2716
528	0.2245
528.5	0.191
529	0.167
529.5	0.1496
530	0.137
530.5	0.1281
531	0.1221
531.5	0.1187
532	0.1174
532.5	0.1183
533	0.1215
533.5	0.1271
534	0.1355
534.5	0.1474
535	0.1638
535.5	0.1863
536	0.2171
536.5	0.2597
537	0.3198
537.5	0.4055
538	0.5287
538.5	0.7031
539	0.9314
539.5	1.1709
540	1.306
540.5	1.2432
541	1.0432
541.5	0.8281
542	0.6592
542.5	0.5428
543	0.4556
543.5	0.3802
544	0.3233
544.5	0.2844
545	0.2584
545.5	0.2418
546	0.2323
546.5	0.229
547	0.2314
547.5	0.2396
548	0.2544
548.5	0.2773
549	0.3108
549.5	0.3588
550	0.4279
550.5	0.5284
551	0.6766
551.5	0.895
552	1.2031
552.5	1.5692
553	1.8241
553.5	1.7594
554	1.4662
554.5	1.158
555	0.8261
555.5	0.5896
556	0.4437
556.5	0.3494
557	0.2857
557.5	0.2413
558	0.2096
558.5	0.1868
559	0.1704
559.5	0.1588
560	0.151
560.5	0.1465
561	0.1449
561.5	0.146
562	0.15
562.5	0.1571
563	0.1679
563.5	0.1833
564	0.2046
564.5	0.2342
565	0.2755
565.5	0.334
566	0.4189
566.5	0.546
567	0.7366
567.5	0.9707
568	1.1931
568.5	1.3546
569	1.3198
569.5	1.0999
570	0.8392
570.5	0.6262
571	0.4734
571.5	0.3676
572	0.2941
572.5	0.2422
573	0.2048
573.5	0.1775
574	0.1573
574.5	0.1423
575	0.1311
575.5	0.123
576	0.1173
576.5	0.1137
577	0.112
577.5	0.112
578	0.1137
578.5	0.1174
579	0.1233
579.5	0.1321
580	0.1454
580.5	0.1671
581	0.2031
581.5	0.2192
582	0.2323
582.5	0.2675
583	0.3226
583.5	0.4031
584	0.5212
584.5	0.6977
585	0.964
585.5	1.3531
586	1.8434
586.5	2.232
587	2.2087
587.5	1.8161
588	1.3645
588.5	1.0118
589	0.7669
589.5	0.6004
590	0.486
590.5	0.4056
591	0.3481
591.5	0.3062
592	0.2754
592.5	0.2528
593	0.2363
593.5	0.2247
594	0.2171
594.5	0.213
595	0.2121
595.5	0.2141
596	0.2192
596.5	0.2275
597	0.2393
597.5	0.2552
598	0.2759
598.5	0.3024
599	0.3363
599.5	0.3795
600	0.4344
600.5	0.5044
601	0.5937
601.5	0.7075
602	0.8508
602.5	1.0266
603	1.2313
603.5	1.448
604	1.6412
604.5	1.7643
605	1.7845
605.5	1.7053
606	1.5614
606.5	1.3938
607	1.2317
607.5	1.0891
608	0.9704
608.5	0.8745
609	0.7988
609.5	0.74
610	0.6956
610.5	0.6633
611	0.6414
611.5	0.6288
612	0.6248
612.5	0.629
613	0.6413
613.5	0.662
614	0.6918
614.5	0.7314
615	0.7822
615.5	0.8455
616	0.9229
616.5	1.016
617	1.1258
617.5	1.2522
618	1.3926
618.5	1.541
619	1.6872
619.5	1.8178
620	1.9221
620.5	2.0013
621	2.0634
621.5	2.0409
622	1.8785
622.5	1.6864
623	1.5153
623.5	1.3683
624	1.2432
624.5	1.1384
625	1.0519
625.5	0.9819
626	0.9269
626.5	0.8855
627	0.8568
627.5	0.8403
628	0.8357
628.5	0.8427
629	0.8593
629.5	0.8807
630	0.899
630.5	0.9082
631	0.9106
631.5	0.9147
632	0.9279
632.5	0.9539
633	0.9936
633.5	1.044
634	1.1064
634.5	1.1802
635	1.264
635.5	1.3558
636	1.4518
636.5	1.5468
637	1.6335
637.5	1.7037
638	1.7491
638.5	1.7634
639	1.7443
639.5	1.6937
640	1.6177
640.5	1.5244
641	1.4222
641.5	1.3183
642	1.218
642.5	1.1247
643	1.0405
643.5	0.9661
644	0.9016
644.5	0.8468
645	0.8013
645.5	0.7647
646	0.7365
646.5	0.7165
647	0.7039
647.5	0.6974
648	0.6946
648.5	0.6915
649	0.6839
649.5	0.6701
650	0.6517
650.5	0.6322
651	0.6151
651.5	0.6023
652	0.5945
652.5	0.5916
653	0.5936
653.5	0.6001
654	0.6109
654.5	0.6261
655	0.6457
655.5	0.6699
656	0.6989
656.5	0.7332
657	0.7734
657.5	0.82
658	0.874
658.5	0.9364
659	1.0084
659.5	1.0915
660	1.1876
660.5	1.2987
661	1.4277
661.5	1.5778
662	1.7529
662.5	1.9579
663	2.1987
663.5	2.4826
664	2.8186
664.5	3.2178
665	3.6938
665.5	4.2634
666	4.947
666.5	5.7696
667	6.7609
667.5	7.956
668	9.3948
668.5	11.1204
669	13.1754
669.5	15.5955
670	18.3991
670.5	21.5727
671	25.0566
671.5	28.7328
672	32.4274
672.5	35.9309
673	39.0378
673.5	41.5911
674	43.5146
674.5	44.8192
675	45.585
675.5	45.9306
676	45.9838
676.5	45.8612
677	45.6583
677.5	45.4468
678	45.277
678.5	45.1814
679	45.1788
679.5	45.278
680	45.4805
680.5	45.7827
681	46.1782
681.5	46.6585
682	47.215
682.5	47.8403
683	48.53
683.5	49.2847
684	50.1128
684.5	51.034
685	52.0838
685.5	53.3191
686	54.8249
686.5	56.721
687	59.165
687.5	62.343
688	66.4298
688.5	71.4981
689	77.3743
689.5	83.515
690	89.0745
690.5	93.2503
691	95.6817
691.5	96.546
692	96.3304
692.5	95.5486
693	94.5905
693.5	93.6981
694	92.998
694.5	92.5411
695	92.3338
695.5	92.357
696	92.578
696.5	92.9567
697	93.4498
697.5	94.0135
698	94.6056
698.5	95.1881
699	95.7284
699.5	96.2014
700	96.59
700.5	96.8853
701	97.0863
701.5	97.1986
702	97.2327
702.5	97.2027
703	97.1242
703.5	97.0132
704	96.8846
704.5	96.7519
705	96.626
705.5	96.5155
706	96.4266
706.5	96.3627
707	96.3251
707.5	96.313
708	96.3239
708.5	96.3538
709	96.3981
709.5	96.4512
710	96.5076
710.5	96.5618
711	96.609
711.5	96.6452
712	96.6673
712.5	96.6737
713	96.6635
713.5	96.6373
714	96.5968
714.5	96.5443
715	96.4828
715.5	96.4157
716	96.3469
716.5	96.2798
717	96.2179
717.5	96.1644
718	96.1218
718.5	96.0923
719	96.0776
719.5	96.0785
720	96.0955
720.5	96.1283
721	96.1763
721.5	96.2381
722	96.312
722.5	96.3959
723	96.4872
723.5	96.5832
724	96.6809
724.5	96.7771
725	96.869
725.5	96.9536
726	97.0283
726.5	97.0907
727	97.1391
727.5	97.1722
728	97.1892
728.5	97.1901
729	97.1753
729.5	97.146
730	97.1039
730.5	97.0508
731	96.9894
731.5	96.9223
732	96.8521
732.5	96.7819
733	96.7143
733.5	96.6518
734	96.5967
734.5	96.5512
735	96.5167
735.5	96.4946
736	96.4855
736.5	96.4901
737	96.5082
737.5	96.5395
738	96.5832
738.5	96.6382
739	96.7031
739.5	96.7763
740	96.8559
740.5	96.9398
741	97.0258
741.5	97.1119
742	97.1957
742.5	97.275
743	97.3479
743.5	97.4123
744	97.4667
744.5	97.5097
745	97.5402
745.5	97.5575
746	97.5613
746.5	97.5516
747	97.5287
747.5	97.4937
748	97.4474
748.5	97.3915
749	97.3275
749.5	97.2574
750	97.1832
750.5	97.107
751	97.0309
751.5	96.957
752	96.8872
752.5	96.8234
753	96.7672
753.5	96.7201
754	96.6831
754.5	96.6572
755	96.6429
755.5	96.6407
756	96.6505
756.5	96.672
757	96.7048
757.5	96.7481
758	96.8008
758.5	96.8619
759	96.9299
759.5	97.0034
760	97.0806
760.5	97.1599
761	97.2395
761.5	97.3177
762	97.3929
762.5	97.4633
763	97.5275
763.5	97.584
764	97.6318
764.5	97.6697
765	97.6971
765.5	97.7134
766	97.7184
766.5	97.7121
767	97.6946
767.5	97.6666
768	97.6288
768.5	97.5821
769	97.5276
769.5	97.4667
770	97.4007
770.5	97.3311
771	97.2595
771.5	97.1874
772	97.1163
772.5	97.0477
773	96.9829
773.5	96.9232
774	96.8698
774.5	96.8234
775	96.785
775.5	96.7552
776	96.7342
776.5	96.7224
777	96.7198
777.5	96.7261
778	96.7411
778.5	96.7642
779	96.7947
779.5	96.8318
780	96.8745
780.5	96.9218
781	96.9725
781.5	97.0255
782	97.0795
782.5	97.1332
783	97.1853
783.5	97.2348
784	97.2805
784.5	97.3212
785	97.3561
785.5	97.3843
786	97.4051
786.5	97.4181
787	97.4227
787.5	97.419
788	97.4067
788.5	97.3862
789	97.3577
789.5	97.3217
790	97.2789
790.5	97.23
791	97.1759
791.5	97.1176
792	97.0561
792.5	96.9926
793	96.9283
793.5	96.8641
794	96.8013
794.5	96.7411
795	96.6843
795.5	96.632
796	96.585
796.5	96.5442
797	96.5102
797.5	96.4835
798	96.4645
798.5	96.4536
799	96.4508
799.5	96.4561
800	96.4694
800.5	96.4905
801	96.5189
801.5	96.5541
802	96.5956
802.5	96.6424
803	96.694
803.5	96.7493
804	96.8074
804.5	96.8673
805	96.9281
805.5	96.9886
806	97.0479
806.5	97.1049
807	97.1587
807.5	97.2084
808	97.2531
808.5	97.2922
809	97.3249
809.5	97.3508
810	97.3694
810.5	97.3804
811	97.3837
811.5	97.3792
812	97.3671
812.5	97.3476
813	97.321
813.5	97.2878
814	97.2485
814.5	97.2039
815	97.1547
815.5	97.1017
816	97.0458
816.5	96.9878
817	96.9286
817.5	96.8693
818	96.8106
818.5	96.7536
819	96.6989
819.5	96.6475
820	96.6001
820.5	96.5573
821	96.5196
821.5	96.4877
822	96.4619
822.5	96.4426
823	96.4298
823.5	96.4238
824	96.4245
824.5	96.4318
825	96.4456
825.5	96.4656
826	96.4913
826.5	96.5224
827	96.5582
827.5	96.5982
828	96.6417
828.5	96.688
829	96.7364
829.5	96.786
830	96.8361
830.5	96.8859
831	96.9345
831.5	96.9812
832	97.0253
832.5	97.0661
833	97.1028
833.5	97.135
834	97.162
834.5	97.1836
835	97.1993
835.5	97.2089
836	97.2122
836.5	97.2092
837	97.1999
837.5	97.1844
838	97.1631
838.5	97.1361
839	97.1039
839.5	97.067
840	97.026
840.5	96.9813
841	96.9337
841.5	96.8838
842	96.8325
842.5	96.7803
843	96.7281
843.5	96.6766
844	96.6264
844.5	96.5785
845	96.5332
845.5	96.4914
846	96.4536
846.5	96.4204
847	96.3921
847.5	96.3692
848	96.3521
848.5	96.3409
849	96.3359
849.5	96.3372
850	96.3449
850.5	96.3587
851	96.3788
851.5	96.4047
852	96.4364
852.5	96.4733
853	96.5152
853.5	96.5614
854	96.6116
854.5	96.6652
855	96.7214
855.5	96.7797
856	96.8393
856.5	96.8997
857	96.9599
857.5	97.0194
858	97.0774
858.5	97.1332
859	97.1862
859.5	97.2357
860	97.2811
860.5	97.3218
861	97.3575
861.5	97.3876
862	97.4119
862.5	97.43
863	97.4418
863.5	97.4471
864	97.4459
864.5	97.4382
865	97.4241
865.5	97.404
866	97.378
866.5	97.3464
867	97.3098
867.5	97.2685
868	97.2231
868.5	97.1741
869	97.1222
869.5	97.068
870	97.0121
870.5	96.9552
871	96.898
871.5	96.8411
872	96.7852
872.5	96.7309
873	96.6789
873.5	96.6297
874	96.5838
874.5	96.5419
875	96.5043
875.5	96.4715
876	96.4438
876.5	96.4215
877	96.4049
877.5	96.3942
878	96.3896
878.5	96.3909
879	96.3984
879.5	96.4119
880	96.4313
880.5	96.4565
881	96.4872
881.5	96.5231
882	96.5638
882.5	96.6091
883	96.6584
883.5	96.7114
884	96.7674
884.5	96.8259
885	96.8864
885.5	96.9483
886	97.011
886.5	97.0739
887	97.1363
887.5	97.1976
888	97.2573
888.5	97.3148
889	97.3696
889.5	97.421
890	97.4687
890.5	97.5121
891	97.5509
891.5	97.5848
892	97.6134
892.5	97.6365
893	97.654
893.5	97.6658
894	97.6717
894.5	97.6718
895	97.6662
895.5	97.655
896	97.6385
896.5	97.6168
897	97.5902
897.5	97.5592
898	97.524
898.5	97.4851
899	97.443
899.5	97.3981
900	97.3509
900.5	97.3034
901	97.2548
901.5	97.2054
902	97.1558
902.5	97.1064
903	97.0577
903.5	97.0102
904	96.9642
904.5	96.9201
905	96.8785
905.5	96.8395
906	96.8035
906.5	96.7709
907	96.7419
907.5	96.7167
908	96.6956
908.5	96.6786
909	96.6659
909.5	96.6576
910	96.6536
910.5	96.6541
911	96.659
911.5	96.6682
912	96.6816
912.5	96.699
913	96.7203
913.5	96.7453
914	96.7736
914.5	96.8052
915	96.8395
915.5	96.8764
916	96.9154
916.5	96.9562
917	96.9985
917.5	97.0418
918	97.0858
918.5	97.13
919	97.174
919.5	97.2175
920	97.26
920.5	97.3011
921	97.3406
921.5	97.3779
922	97.4129
922.5	97.4451
923	97.4743
923.5	97.5003
924	97.5228
924.5	97.5416
925	97.5566
925.5	97.5676
926	97.5745
926.5	97.5774
927	97.5761
927.5	97.5708
928	97.5615
928.5	97.5482
929	97.5311
929.5	97.5105
930	97.4863
930.5	97.459
931	97.4287
931.5	97.3957
932	97.3602
932.5	97.3227
933	97.2833
933.5	97.2425
934	97.2005
934.5	97.1578
935	97.1146
935.5	97.0713
936	97.0282
936.5	96.9857
937	96.944
937.5	96.9035
938	96.8646
938.5	96.8274
939	96.7922
939.5	96.7593
940	96.7289
940.5	96.7012
941	96.6765
941.5	96.6547
942	96.6362
942.5	96.6209
943	96.6091
943.5	96.6006
944	96.5957
944.5	96.5942
945	96.5961
945.5	96.6014
946	96.6101
946.5	96.6219
947	96.6369
947.5	96.6548
948	96.6755
948.5	96.6988
949	96.7245
949.5	96.7523
950	96.7821
950.5	96.8135
951	96.8463
951.5	96.8802
952	96.9149
952.5	96.9502
953	96.9856
953.5	97.021
954	97.056
954.5	97.0903
955	97.1236
955.5	97.1557
956	97.1863
956.5	97.215
957	97.2418
957.5	97.2662
958	97.2882
958.5	97.3076
959	97.3241
959.5	97.3376
960	97.3481
960.5	97.3554
961	97.3594
961.5	97.3601
962	97.3575
962.5	97.3517
963	97.3426
963.5	97.3303
964	97.3148
964.5	97.2964
965	97.2751
965.5	97.2511
966	97.2246
966.5	97.1957
967	97.1647
967.5	97.1317
968	97.097
968.5	97.0609
969	97.0235
969.5	96.9852
970	96.9461
970.5	96.9066
971	96.867
971.5	96.8273
972	96.788
972.5	96.7493
973	96.7114
973.5	96.6745
974	96.6388
974.5	96.6047
975	96.5722
975.5	96.5416
976	96.513
976.5	96.4866
977	96.4625
977.5	96.4409
978	96.4219
978.5	96.4055
979	96.3919
979.5	96.3811
980	96.3732
980.5	96.368
981	96.3658
981.5	96.3664
982	96.3698
982.5	96.376
983	96.3849
983.5	96.3964
984	96.4103
984.5	96.4267
985	96.4454
985.5	96.4661
986	96.4888
986.5	96.5132
987	96.5392
987.5	96.5667
988	96.5952
988.5	96.6248
989	96.6551
989.5	96.6859
990	96.7169
990.5	96.7481
991	96.779
991.5	96.8096
992	96.8395
992.5	96.8685
993	96.8964
993.5	96.9231
994	96.9482
994.5	96.9717
995	96.9933
995.5	97.0129
996	97.0303
996.5	97.0454
997	97.0581
997.5	97.0683
998	97.0758
998.5	97.0807
999	97.0829
999.5	97.0824
1000	97.0792
1000.5	97.0732
1001	97.0645
1001.5	97.0532
1002	97.0394
1002.5	97.0231
1003	97.0045
1003.5	96.9837
1004	96.9607
1004.5	96.9358
1005	96.9092
1005.5	96.8809
1006	96.8512
1006.5	96.8202
1007	96.7882
1007.5	96.7553
1008	96.7218
1008.5	96.6878
1009	96.6536
1009.5	96.6193
1010	96.5851
1010.5	96.5513
1011	96.5181
1011.5	96.4856
1012	96.454
1012.5	96.4235
1013	96.3943
1013.5	96.3665
1014	96.3403
1014.5	96.3158
1015	96.2932
1015.5	96.2726
1016	96.254
1016.5	96.2377
1017	96.2236
1017.5	96.2119
1018	96.2026
1018.5	96.1957
1019	96.1914
1019.5	96.1896
1020	96.1904
1020.5	96.1937
1021	96.1995
1021.5	96.2079
1022	96.2187
1022.5	96.232
1023	96.2476
1023.5	96.2655
1024	96.2856
1024.5	96.3079
1025	96.3321
1025.5	96.3582
1026	96.3861
1026.5	96.4156
1027	96.4466
1027.5	96.4789
1028	96.5123
1028.5	96.5468
1029	96.5821
1029.5	96.618
1030	96.6545
1030.5	96.6912
1031	96.728
1031.5	96.7648
1032	96.8012
1032.5	96.8373
1033	96.8727
1033.5	96.9073
1034	96.9409
1034.5	96.9734
1035	97.0046
1035.5	97.0344
1036	97.0626
1036.5	97.089
1037	97.1137
1037.5	97.1363
1038	97.157
1038.5	97.1755
1039	97.1919
1039.5	97.206
1040	97.2179
1040.5	97.2274
1041	97.2346
1041.5	97.2396
1042	97.2422
1042.5	97.2426
1043	97.2408
1043.5	97.2369
1044	97.2309
1044.5	97.2229
1045	97.213
1045.5	97.2013
1046	97.188
1046.5	97.1731
1047	97.1568
1047.5	97.1393
1048	97.1206
1048.5	97.101
1049	97.0805
1049.5	97.0594
1050	97.0377
1050.5	97.0157
1051	96.9935
1051.5	96.9712
1052	96.9491
1052.5	96.9272
1053	96.9057
1053.5	96.8848
1054	96.8645
1054.5	96.8451
1055	96.8265
1055.5	96.8091
1056	96.7927
1056.5	96.7777
1057	96.7639
1057.5	96.7517
1058	96.7409
1058.5	96.7317
1059	96.7241
1059.5	96.7182
1060	96.7141
1060.5	96.7117
1061	96.7111
1061.5	96.7122
1062	96.7152
1062.5	96.7199
1063	96.7264
1063.5	96.7347
1064	96.7447
1064.5	96.7564
1065	96.7697
1065.5	96.7845
1066	96.8009
1066.5	96.8188
1067	96.8379
1067.5	96.8584
1068	96.88
1068.5	96.9028
1069	96.9265
1069.5	96.951
1070	96.9764
1070.5	97.0023
1071	97.0288
1071.5	97.0557
1072	97.0828
1072.5	97.1101
1073	97.1373
1073.5	97.1644
1074	97.1912
1074.5	97.2177
1075	97.2436
1075.5	97.2688
1076	97.2933
1076.5	97.3168
1077	97.3394
1077.5	97.3608
1078	97.381
1078.5	97.3998
1079	97.4172
1079.5	97.4332
1080	97.4475
1080.5	97.4602
1081	97.4713
1081.5	97.4806
1082	97.4882
1082.5	97.494
1083	97.498
1083.5	97.5002
1084	97.5007
1084.5	97.4994
1085	97.4964
1085.5	97.4918
1086	97.4856
1086.5	97.4779
1087	97.4687
1087.5	97.4582
1088	97.4464
1088.5	97.4334
1089	97.4194
1089.5	97.4044
1090	97.3886
1090.5	97.3722
1091	97.3551
1091.5	97.3377
1092	97.3199
1092.5	97.3019
1093	97.2839
1093.5	97.2659
1094	97.2481
1094.5	97.2307
1095	97.2137
1095.5	97.1972
1096	97.1813
1096.5	97.1662
1097	97.1519
1097.5	97.1386
1098	97.1262
1098.5	97.1148
1099	97.1046
1099.5	97.0955
1100	97.0876
1100.5	97.0808
1101	97.0753
1101.5	97.071
1102	97.0679
1102.5	97.066
1103	97.0652
1103.5	97.0656
1104	97.067
1104.5	97.0695
1105	97.0728
1105.5	97.077
1106	97.082
1106.5	97.0876
1107	97.0938
1107.5	97.1004
1108	97.1073
1108.5	97.1143
1109	97.1213
1109.5	97.1282
1110	97.1348
1110.5	97.1409
1111	97.1463
1111.5	97.1509
1112	97.1544
1112.5	97.1567
1113	97.1576
1113.5	97.1568
1114	97.1541
1114.5	97.1493
1115	97.1422
1115.5	97.1326
1116	97.1202
1116.5	97.1048
1117	97.0861
1117.5	97.064
1118	97.0382
1118.5	97.0084
1119	96.9745
1119.5	96.9361
1120	96.8932
1120.5	96.8454
1121	96.7926
1121.5	96.7345
1122	96.671
1122.5	96.602
1123	96.5271
1123.5	96.4464
1124	96.3596
1124.5	96.2666
1125	96.1674
1125.5	96.0619
1126	95.9501
1126.5	95.8318
1127	95.7071
1127.5	95.5761
1128	95.4387
1128.5	95.2951
1129	95.1453
1129.5	94.9895
1130	94.8278
1130.5	94.6605
1131	94.4877
1131.5	94.3097
1132	94.1268
1132.5	93.9392
1133	93.7473
1133.5	93.5514
1134	93.3519
1134.5	93.1491
1135	92.9435
1135.5	92.7355
1136	92.5255
1136.5	92.314
1137	92.1015
1137.5	91.8884
1138	91.6751
1138.5	91.4623
1139	91.2503
1139.5	91.0396
1140	90.8308
1140.5	90.6242
1141	90.4205
1141.5	90.22
1142	90.0232
1142.5	89.8306
1143	89.6425
1143.5	89.4595
1144	89.2819
1144.5	89.1101
1145	88.9444
1145.5	88.7853
1146	88.633
1146.5	88.4879
1147	88.3503
1147.5	88.2204
1148	88.0985
1148.5	87.9847
1149	87.8794
1149.5	87.7827
1150	87.6948
1150.5	87.6157
1151	87.5456
1151.5	87.4847
1152	87.4328
1152.5	87.3902
1153	87.3569
1153.5	87.3328
1154	87.3179
1154.5	87.3122
1155	87.3157
1155.5	87.3282
1156	87.3497
1156.5	87.3801
1157	87.4191
1157.5	87.4668
1158	87.5229
1158.5	87.5872
1159	87.6595
1159.5	87.7396
1160	87.8273
1160.5	87.9224
1161	88.0246
1161.5	88.1335
1162	88.249
1162.5	88.3707
1163	88.4984
1163.5	88.6316
1164	88.7701
1164.5	88.9136
1165	89.0616
1165.5	89.2138
1166	89.3699
1166.5	89.5294
1167	89.6919
1167.5	89.8571
1168	90.0246
1168.5	90.1939
1169	90.3645
1169.5	90.5362
1170	90.7083
1170.5	90.8805
1171	91.0524
1171.5	91.2233
1172	91.3929
1172.5	91.5606
1173	91.726
1173.5	91.8886
1174	92.0478
1174.5	92.2032
1175	92.3542
1175.5	92.5002
1176	92.6408
1176.5	92.7754
1177	92.9034
1177.5	93.0243
1178	93.1376
1178.5	93.2426
1179	93.3389
1179.5	93.4259
1180	93.503
1180.5	93.5697
1181	93.6255
1181.5	93.6699
1182	93.7023
1182.5	93.7223
1183	93.7295
1183.5	93.7233
1184	93.7035
1184.5	93.6695
1185	93.6212
1185.5	93.5581
1186	93.4801
1186.5	93.3868
1187	93.2782
1187.5	93.1542
1188	93.0146
1188.5	92.8595
1189	92.689
1189.5	92.503
1190	92.3019
1190.5	92.0858
1191	91.855
1191.5	91.6098
1192	91.3507
1192.5	91.078
1193	90.7924
1193.5	90.4943
1194	90.1843
1194.5	89.8632
1195	89.5315
1195.5	89.1899
1196	88.8393
1196.5	88.4805
1197	88.114
1197.5	87.741
1198	87.362
1198.5	86.978
1199	86.5898
1199.5	86.1983
1200	85.8042
