350	99.9162
350.5	99.9266
351	99.9293
351.5	99.9254
352	99.914
352.5	99.8916
353	99.8504
353.5	99.7748
354	99.6373
354.5	99.4161
355	99.1887
355.5	99.13
356	99.2156
356.5	99.3108
357	99.3628
357.5	99.3637
358	99.3087
358.5	99.1779
359	98.9172
359.5	98.3835
360	97.1516
360.5	93.7119
361	83.5659
361.5	80.2351
362	90.0557
362.5	94.1737
363	95.5828
363.5	95.8668
364	95.3924
364.5	94.1008
365	91.5585
365.5	91.6339
366	94.2675
366.5	95.942
367	96.3748
367.5	94.3931
368	81.538
368.5	88.2527
369	96.2066
369.5	97.9957
370	98.4343
370.5	98.6355
371	98.8129
371.5	98.9778
372	99.111
372.5	99.2038
373	99.2574
373.5	99.276
374	99.2631
374.5	99.2203
375	99.1477
375.5	99.0437
376	98.9148
376.5	98.7455
377	98.517
377.5	98.1937
378	97.7097
378.5	96.9531
379	95.7704
379.5	94.1526
380	92.8744
380.5	93.2476
381	94.7513
381.5	96.0789
382	96.8738
382.5	97.1651
383	96.7897
383.5	95.7358
384	96.3652
384.5	96.6084
385	95.9677
385.5	94.2055
386	89.9075
386.5	78.8858
387	64.0732
387.5	75.955
388	87.5678
388.5	92.0653
389	93.1335
389.5	90.2825
390	85.2392
390.5	91.6807
391	94.2665
391.5	94.8518
392	94.6215
392.5	93.7819
393	92.2175
393.5	89.5822
394	85.2653
394.5	78.4461
395	68.7197
395.5	57.7299
396	49.495
396.5	46.0609
397	45.1514
397.5	43.5869
398	39.4702
398.5	32.2335
399	22.7639
399.5	13.3316
400	6.2006
400.5	2.1702
401	0.5507
401.5	0.3567
402	0.7415
402.5	1.1475
403	1.2986
403.5	1.1465
404	0.7973
404.5	0.4248
405	0.1837
405.5	0.1451
406	0.2795
406.5	0.4874
407	0.6558
407.5	0.7095
408	0.6385
408.5	0.4951
409	0.367
409.5	0.3364
410	0.4427
410.5	0.666
411	0.9367
411.5	1.1659
412	1.2796
412.5	1.2449
413	1.0802
413.5	0.8488
414	0.6378
414.5	0.5271
415	0.5559
415.5	0.7106
416	0.9455
416.5	1.1902
417	1.3722
417.5	1.4371
418	1.3633
418.5	1.1665
419	0.8954
419.5	0.6184
420	0.4053
420.5	0.3077
421	0.3446
421.5	0.4983
422	0.7207
422.5	0.9486
423	1.1205
423.5	1.1928
424	1.1491
424.5	1.003
425	0.7942
425.5	0.5776
426	0.4086
426.5	0.3283
427	0.3533
427.5	0.4719
428	0.6493
428.5	0.8374
429	0.9878
429.5	1.0632
430	1.0461
430.5	0.9422
431	0.7787
431.5	0.598
432	0.4463
432.5	0.3628
433	0.3693
433.5	0.4663
434	0.6336
434.5	0.8363
435	1.0333
435.5	1.1863
436	1.2678
436.5	1.2663
437	1.1884
437.5	1.0563
438	0.9025
438.5	0.7613
439	0.6594
439.5	0.6162
440	0.6327
440.5	0.6966
441	0.7867
441.5	0.8786
442	0.9506
442.5	0.9876
443	0.9844
443.5	0.9464
444	0.8882
444.5	0.8285
445	0.7845
445.5	0.7662
446	0.7733
446.5	0.7962
447	0.82
447.5	0.8299
448	0.8153
448.5	0.7729
449	0.7076
449.5	0.6311
450	0.5602
450.5	0.5136
451	0.507
451.5	0.549
452	0.637
452.5	0.7565
453	0.884
453.5	0.993
454	1.0602
454.5	1.0719
455	1.0268
455.5	0.9363
456	0.8223
456.5	0.7129
457	0.6372
457.5	0.6189
458	0.6712
458.5	0.7918
459	0.9629
459.5	1.1529
460	1.324
460.5	1.44
461	1.4748
461.5	1.4182
462	1.2783
462.5	1.0805
463	0.8628
463.5	0.6692
464	0.5413
464.5	0.5097
465	0.5863
465.5	0.7607
466	1.0008
466.5	1.2589
467	1.4811
467.5	1.6193
468	1.6407
468.5	1.5348
469	1.3166
469.5	1.0243
470	0.714
470.5	0.4492
471	0.2885
471.5	0.2727
472	0.4139
472.5	0.6911
473	1.0533
473.5	1.4294
474	1.7436
474.5	1.9303
475	1.9468
475.5	1.7826
476	1.4621
476.5	1.0428
477	0.6066
477.5	0.2453
478	0.04
478.5	0.0405
479	0.2505
479.5	0.6237
480	1.0748
480.5	1.5009
481	1.8069
481.5	1.9298
482	1.8552
482.5	1.6259
483	1.336
483.5	1.1057
484	1.0367
484.5	1.1589
485	1.3931
485.5	1.5618
486	1.4764
486.5	1.1464
487	1.2086
487.5	3.5034
488	10.5121
488.5	21.9029
489	33.462
489.5	42.4287
490	49.3195
490.5	55.5057
491	61.7516
491.5	68.0709
492	74.0753
492.5	79.3687
493	83.7516
493.5	87.2246
494	89.9044
494.5	91.945
495	93.4926
495.5	94.669
496	95.5687
496.5	96.2624
497	96.8026
497.5	97.2278
498	97.5664
498.5	97.8395
499	98.0631
499.5	98.249
500	98.4068
500.5	98.538
501	98.6552
501.5	98.762
502	98.8611
502.5	98.9542
503	99.0422
503.5	99.1255
504	99.2039
504.5	99.277
505	99.3445
505.5	99.406
506	99.4612
506.5	99.5102
507	99.5531
507.5	99.5902
508	99.6219
508.5	99.6487
509	99.6708
509.5	99.6888
510	99.7028
510.5	99.7132
511	99.72
511.5	99.7233
512	99.7231
512.5	99.719
513	99.7107
513.5	99.6975
514	99.6784
514.5	99.6517
515	99.6154
515.5	99.5659
516	99.4981
516.5	99.4041
517	99.2714
517.5	99.0805
518	98.8022
518.5	98.4
519	97.8578
519.5	97.2777
520	96.9797
520.5	97.2213
521	97.7903
521.5	98.3464
522	98.7629
522.5	99.0476
523	99.2342
523.5	99.3498
524	99.4309
524.5	99.5148
525	99.5822
525.5	99.6275
526	99.6573
526.5	99.6763
527	99.687
527.5	99.6907
528	99.6878
528.5	99.6783
529	99.6616
529.5	99.6364
530	99.6008
530.5	99.5517
531	99.4849
531.5	99.3942
532	99.2715
532.5	99.1075
533	98.8957
533.5	98.6448
534	98.3997
534.5	98.2487
535	98.2688
535.5	98.4434
536	98.6817
536.5	98.9055
537	99.0836
537.5	99.2216
538	99.3373
538.5	99.4336
539	99.5074
539.5	99.561
540	99.599
540.5	99.625
541	99.6415
541.5	99.6501
542	99.6515
542.5	99.646
543	99.6332
543.5	99.6124
544	99.582
544.5	99.5398
545	99.4823
545.5	99.4046
546	99.2997
546.5	99.1581
547	98.968
547.5	98.7186
548	98.4105
548.5	98.078
549	97.8104
549.5	97.7197
550	97.8381
550.5	98.0796
551	98.3337
551.5	98.5602
552	98.7824
552.5	98.9874
553	99.1471
553.5	99.2627
554	99.3454
554.5	99.4042
555	99.4454
555.5	99.4729
556	99.4894
556.5	99.4964
557	99.4947
557.5	99.485
558	99.467
558.5	99.4407
559	99.4056
559.5	99.3614
560	99.308
560.5	99.2459
561	99.1773
561.5	99.1059
562	99.0382
562.5	98.9825
563	98.9478
563.5	98.9407
564	98.9624
564.5	99.0085
565	99.0702
565.5	99.1382
566	99.2055
566.5	99.2674
567	99.3216
567.5	99.3674
568	99.4049
568.5	99.4345
569	99.4568
569.5	99.4725
570	99.482
570.5	99.4857
571	99.484
571.5	99.477
572	99.4651
572.5	99.4482
573	99.4267
573.5	99.4011
574	99.372
574.5	99.3405
575	99.3082
575.5	99.2773
576	99.25
576.5	99.229
577	99.2161
577.5	99.2125
578	99.2181
578.5	99.2317
579	99.2513
579.5	99.2745
580	99.299
580.5	99.3229
581	99.3444
581.5	99.3624
582	99.376
582.5	99.3846
583	99.3876
583.5	99.3845
584	99.3747
584.5	99.3575
585	99.3318
585.5	99.2967
586	99.2505
586.5	99.1916
587	99.1183
587.5	99.0293
588	98.925
588.5	98.8083
589	98.6855
589.5	98.566
590	98.4632
590.5	98.3942
591	98.3758
591.5	98.4156
592	98.5074
592.5	98.6334
593	98.773
593.5	98.9099
594	99.0342
594.5	99.1419
595	99.2322
595.5	99.3064
596	99.3664
596.5	99.4142
597	99.4514
597.5	99.4796
598	99.4998
598.5	99.5127
599	99.5189
599.5	99.5185
600	99.5113
600.5	99.4969
601	99.4747
601.5	99.4437
602	99.4028
602.5	99.352
603	99.2922
603.5	99.2235
604	99.142
604.5	99.043
605	98.9252
605.5	98.7934
606	98.6608
606.5	98.5496
607	98.4873
607.5	98.4946
608	98.5728
608.5	98.7027
609	98.8559
609.5	99.0086
610	99.1468
610.5	99.265
611	99.3629
611.5	99.4427
612	99.5072
612.5	99.5591
613	99.6008
613.5	99.6341
614	99.6607
614.5	99.6817
615	99.698
615.5	99.7102
616	99.719
616.5	99.7245
617	99.727
617.5	99.7266
618	99.7233
618.5	99.7169
619	99.7072
619.5	99.6938
620	99.676
620.5	99.6532
621	99.6245
621.5	99.5894
622	99.5472
622.5	99.496
623	99.4317
623.5	99.3498
624	99.2454
624.5	99.1128
625	98.9459
625.5	98.7398
626	98.4944
626.5	98.2223
627	97.9562
627.5	97.7499
628	97.6587
628.5	97.7053
629	97.8641
629.5	98.0825
630	98.3123
630.5	98.524
631	98.7058
631.5	98.8558
632	98.9769
632.5	99.0733
633	99.1493
633.5	99.2082
634	99.2536
634.5	99.2877
635	99.3119
635.5	99.3274
636	99.3349
636.5	99.3349
637	99.3275
637.5	99.3127
638	99.2902
638.5	99.2593
639	99.2195
639.5	99.1698
640	99.1092
640.5	99.0371
641	98.9531
641.5	98.8577
642	98.7532
642.5	98.6444
643	98.5396
643.5	98.4504
644	98.3899
644.5	98.3697
645	98.395
645.5	98.4628
646	98.5625
646.5	98.6807
647	98.8045
647.5	98.9243
648	99.0345
648.5	99.1324
649	99.2174
649.5	99.29
650	99.3515
650.5	99.4031
651	99.4461
651.5	99.4816
652	99.5108
652.5	99.5343
653	99.5529
653.5	99.567
654	99.5771
654.5	99.5833
655	99.5859
655.5	99.5848
656	99.58
656.5	99.5711
657	99.5577
657.5	99.5389
658	99.5136
658.5	99.4795
659	99.4331
659.5	99.3684
660	99.2801
660.5	99.1809
661	99.102
661.5	99.0324
662	98.9393
662.5	98.8092
663	98.6372
663.5	98.4195
664	98.155
664.5	97.8511
665	97.533
665.5	97.251
666	97.0734
666.5	97.0552
667	97.2004
667.5	97.4582
668	97.7591
668.5	98.0538
669	98.326
669.5	98.575
670	98.7922
670.5	98.9697
671	99.1102
671.5	99.2211
672	99.3093
672.5	99.3799
673	99.4371
673.5	99.4836
674	99.5216
674.5	99.5528
675	99.5782
675.5	99.599
676	99.6157
676.5	99.6289
677	99.6391
677.5	99.6465
678	99.6514
678.5	99.654
679	99.6543
679.5	99.6524
680	99.6484
680.5	99.6421
681	99.6334
681.5	99.6223
682	99.6085
682.5	99.5918
683	99.5718
683.5	99.5482
684	99.5204
684.5	99.488
685	99.4503
685.5	99.4065
686	99.3558
686.5	99.2971
687	99.2296
687.5	99.1522
688	99.0642
688.5	98.9649
689	98.8545
689.5	98.7342
690	98.6065
690.5	98.4756
691	98.3481
691.5	98.2316
692	98.135
692.5	98.0655
693	98.0283
693.5	98.0243
694	98.0507
694.5	98.1018
695	98.1703
695.5	98.2491
696	98.3319
696.5	98.4138
697	98.4917
697.5	98.5633
698	98.6274
698.5	98.6836
699	98.7315
699.5	98.7715
700	98.8037
700.5	98.8284
701	98.8458
701.5	98.8562
702	98.8598
702.5	98.8565
703	98.8463
703.5	98.8292
704	98.805
704.5	98.7733
705	98.7339
705.5	98.6863
706	98.63
706.5	98.5647
707	98.4898
707.5	98.4049
708	98.3097
708.5	98.2038
709	98.0876
709.5	97.9628
710	97.8364
710.5	97.7248
711	97.6514
711.5	97.6298
712	97.6544
712.5	97.7128
713	97.796
713.5	97.8982
714	98.0141
714.5	98.1384
715	98.266
715.5	98.3922
716	98.5134
716.5	98.6271
717	98.7319
717.5	98.827
718	98.9122
718.5	98.988
719	99.0547
719.5	99.113
720	99.1634
720.5	99.2066
721	99.2431
721.5	99.2734
722	99.2978
722.5	99.3168
723	99.3307
723.5	99.3402
724	99.346
724.5	99.3495
725	99.3524
725.5	99.3567
726	99.3644
726.5	99.3766
727	99.3931
727.5	99.4127
728	99.4335
728.5	99.4535
729	99.4716
729.5	99.487
730	99.4993
730.5	99.5086
731	99.5151
731.5	99.5188
732	99.5201
732.5	99.519
733	99.5156
733.5	99.5101
734	99.5025
734.5	99.4928
735	99.481
735.5	99.467
736	99.4507
736.5	99.432
737	99.4107
737.5	99.3866
738	99.3595
738.5	99.3291
739	99.295
739.5	99.257
740	99.2144
740.5	99.1669
741	99.1138
741.5	99.0543
742	98.9877
742.5	98.913
743	98.8291
743.5	98.7348
744	98.6284
744.5	98.5081
745	98.372
745.5	98.2175
746	98.0416
746.5	97.841
747	97.6115
747.5	97.3481
748	97.0452
748.5	96.6958
749	96.2915
749.5	95.8225
750	95.2771
750.5	94.6413
751	93.8987
751.5	93.03
752	92.0127
752.5	90.8215
753	89.428
753.5	87.8021
754	85.9134
754.5	83.7344
755	81.2455
755.5	78.4412
756	75.3386
756.5	71.9856
757	68.4674
757.5	64.9071
758	61.4568
758.5	58.2794
759	55.5227
759.5	53.2946
760	51.6463
760.5	50.5699
761	50.0082
761.5	49.8726
762	50.0617
762.5	50.4758
763	51.027
763.5	51.6431
764	52.268
764.5	52.8608
765	53.3928
765.5	53.8448
766	54.2053
766.5	54.4678
767	54.6299
767.5	54.6913
768	54.6537
768.5	54.5195
769	54.2913
769.5	53.9715
770	53.5618
770.5	53.0626
771	52.4725
771.5	51.7872
772	50.9992
772.5	50.0959
773	49.0591
773.5	47.8631
774	46.473
774.5	44.8443
775	42.9217
775.5	40.6416
776	37.9377
776.5	34.7528
777	31.0587
777.5	26.8839
778	22.3421
778.5	17.6466
779	13.0931
779.5	9.0011
780	5.6331
780.5	3.1283
781	1.4844
781.5	0.5875
782	0.2653
782.5	0.337
783	0.6437
783.5	1.0613
784	1.5016
784.5	1.9064
785	2.2413
785.5	2.4885
786	2.6428
786.5	2.7067
787	2.6885
787.5	2.5995
788	2.4534
788.5	2.2645
789	2.047
789.5	1.8148
790	1.5802
790.5	1.3541
791	1.1455
791.5	0.9612
792	0.8058
792.5	0.6821
793	0.5907
793.5	0.5308
794	0.5001
794.5	0.4952
795	0.5123
795.5	0.547
796	0.5947
796.5	0.6511
797	0.712
797.5	0.7737
798	0.8332
798.5	0.8877
799	0.9352
799.5	0.9744
800	1.0043
800.5	1.0247
801	1.0358
801.5	1.0381
802	1.0325
802.5	1.0204
803	1.0032
803.5	0.9825
804	0.96
804.5	0.9373
805	0.916
805.5	0.8977
806	0.8835
806.5	0.8744
807	0.8713
807.5	0.8745
808	0.8843
808.5	0.9005
809	0.9228
809.5	0.9504
810	0.9825
810.5	1.0181
811	1.0561
811.5	1.0951
812	1.1339
812.5	1.1712
813	1.2058
813.5	1.2365
814	1.2623
814.5	1.2824
815	1.296
815.5	1.3025
816	1.3016
816.5	1.2932
817	1.2771
817.5	1.2537
818	1.2233
818.5	1.1863
819	1.1434
819.5	1.0955
820	1.0435
820.5	0.9882
821	0.9309
821.5	0.8725
822	0.8143
822.5	0.7573
823	0.7028
823.5	0.6516
824	0.6049
824.5	0.5636
825	0.5283
825.5	0.4999
826	0.4788
826.5	0.4654
827	0.4598
827.5	0.4622
828	0.4724
828.5	0.4901
829	0.5148
829.5	0.546
830	0.583
830.5	0.6249
831	0.6708
831.5	0.7197
832	0.7706
832.5	0.8224
833	0.8741
833.5	0.9245
834	0.9728
834.5	1.0179
835	1.059
835.5	1.0952
836	1.126
836.5	1.1507
837	1.1689
837.5	1.1802
838	1.1845
838.5	1.1816
839	1.1716
839.5	1.1547
840	1.1311
840.5	1.1013
841	1.0656
841.5	1.0248
842	0.9794
842.5	0.9301
843	0.8779
843.5	0.8233
844	0.7675
844.5	0.7111
845	0.655
845.5	0.6002
846	0.5475
846.5	0.4976
847	0.4513
847.5	0.4093
848	0.3722
848.5	0.3404
849	0.3145
849.5	0.2948
850	0.2814
850.5	0.2746
851	0.2744
851.5	0.2805
852	0.293
852.5	0.3114
853	0.3355
853.5	0.3647
854	0.3986
854.5	0.4364
855	0.4776
855.5	0.5215
856	0.5674
856.5	0.6145
857	0.662
857.5	0.7093
858	0.7555
858.5	0.8001
859	0.8423
859.5	0.8816
860	0.9174
860.5	0.9492
861	0.9765
861.5	0.9991
862	1.0165
862.5	1.0288
863	1.0356
863.5	1.037
864	1.033
864.5	1.0237
865	1.0092
865.5	0.9899
866	0.966
866.5	0.9379
867	0.9061
867.5	0.8709
868	0.8329
868.5	0.7927
869	0.7508
869.5	0.7079
870	0.6644
870.5	0.621
871	0.5783
871.5	0.5368
872	0.4971
872.5	0.4598
873	0.4253
873.5	0.394
874	0.3663
874.5	0.3427
875	0.3232
875.5	0.3083
876	0.2979
876.5	0.2923
877	0.2914
877.5	0.2952
878	0.3036
878.5	0.3164
879	0.3335
879.5	0.3544
880	0.379
880.5	0.4069
881	0.4376
881.5	0.4707
882	0.5057
882.5	0.5423
883	0.5798
883.5	0.6179
884	0.6559
884.5	0.6935
885	0.7302
885.5	0.7655
886	0.7989
886.5	0.8302
887	0.8589
887.5	0.8847
888	0.9073
888.5	0.9265
889	0.9421
889.5	0.954
890	0.962
890.5	0.966
891	0.9662
891.5	0.9625
892	0.955
892.5	0.9438
893	0.9292
893.5	0.9112
894	0.8903
894.5	0.8666
895	0.8404
895.5	0.8122
896	0.7822
896.5	0.7509
897	0.7186
897.5	0.6857
898	0.6526
898.5	0.6198
899	0.5876
899.5	0.5563
900	0.5264
900.5	0.4987
901	0.473
901.5	0.4494
902	0.4284
902.5	0.41
903	0.3945
903.5	0.3821
904	0.3728
904.5	0.3667
905	0.3639
905.5	0.3644
906	0.3681
906.5	0.375
907	0.3849
907.5	0.3978
908	0.4135
908.5	0.4317
909	0.4523
909.5	0.4751
910	0.4996
910.5	0.5258
911	0.5532
911.5	0.5817
912	0.6108
912.5	0.6402
913	0.6697
913.5	0.699
914	0.7277
914.5	0.7555
915	0.7823
915.5	0.8076
916	0.8313
916.5	0.8532
917	0.873
917.5	0.8906
918	0.9057
918.5	0.9184
919	0.9284
919.5	0.9357
920	0.9403
920.5	0.9421
921	0.9411
921.5	0.9375
922	0.9311
922.5	0.9223
923	0.9109
923.5	0.8972
924	0.8814
924.5	0.8636
925	0.844
925.5	0.8229
926	0.8004
926.5	0.7768
927	0.7523
927.5	0.7273
928	0.7019
928.5	0.6765
929	0.6513
929.5	0.6265
930	0.6024
930.5	0.5792
931	0.5572
931.5	0.5367
932	0.5177
932.5	0.5005
933	0.4853
933.5	0.4722
934	0.4614
934.5	0.4529
935	0.4469
935.5	0.4433
936	0.4423
936.5	0.4438
937	0.4478
937.5	0.4543
938	0.4632
938.5	0.4745
939	0.488
939.5	0.5036
940	0.5212
940.5	0.5406
941	0.5616
941.5	0.584
942	0.6077
942.5	0.6324
943	0.6579
943.5	0.684
944	0.7104
944.5	0.737
945	0.7634
945.5	0.7896
946	0.8151
946.5	0.8399
947	0.8638
947.5	0.8864
948	0.9077
948.5	0.9275
949	0.9455
949.5	0.9618
950	0.9761
950.5	0.9883
951	0.9984
951.5	1.0062
952	1.0117
952.5	1.0149
953	1.0158
953.5	1.0143
954	1.0105
954.5	1.0044
955	0.9961
955.5	0.9856
956	0.9731
956.5	0.9585
957	0.9422
957.5	0.9241
958	0.9045
958.5	0.8835
959	0.8613
959.5	0.838
960	0.8138
960.5	0.7889
961	0.7636
961.5	0.738
962	0.7122
962.5	0.6866
963	0.6613
963.5	0.6365
964	0.6123
964.5	0.589
965	0.5667
965.5	0.5455
966	0.5257
966.5	0.5074
967	0.4906
967.5	0.4755
968	0.4622
968.5	0.4508
969	0.4413
969.5	0.4338
970	0.4283
970.5	0.4248
971	0.4233
971.5	0.4239
972	0.4264
972.5	0.4308
973	0.4371
973.5	0.4452
974	0.4549
974.5	0.4663
975	0.4791
975.5	0.4933
976	0.5088
976.5	0.5253
977	0.5427
977.5	0.561
978	0.5798
978.5	0.5992
979	0.6189
979.5	0.6387
980	0.6585
980.5	0.6782
981	0.6976
981.5	0.7165
982	0.7348
982.5	0.7524
983	0.7691
983.5	0.7849
984	0.7995
984.5	0.813
985	0.8251
985.5	0.8359
986	0.8452
986.5	0.8531
987	0.8594
987.5	0.8641
988	0.8672
988.5	0.8686
989	0.8685
989.5	0.8667
990	0.8634
990.5	0.8585
991	0.8522
991.5	0.8444
992	0.8352
992.5	0.8247
993	0.813
993.5	0.8002
994	0.7863
994.5	0.7716
995	0.756
995.5	0.7398
996	0.723
996.5	0.7057
997	0.6881
997.5	0.6704
998	0.6526
998.5	0.6348
999	0.6172
999.5	0.6
1000	0.5831
1000.5	0.5668
1001	0.5512
1001.5	0.5363
1002	0.5223
1002.5	0.5091
1003	0.497
1003.5	0.486
1004	0.4761
1004.5	0.4675
1005	0.46
1005.5	0.4539
1006	0.4491
1006.5	0.4456
1007	0.4435
1007.5	0.4426
1008	0.4432
1008.5	0.445
1009	0.4481
1009.5	0.4525
1010	0.4581
1010.5	0.4648
1011	0.4727
1011.5	0.4816
1012	0.4915
1012.5	0.5022
1013	0.5138
1013.5	0.5261
1014	0.5391
1014.5	0.5526
1015	0.5666
1015.5	0.581
1016	0.5957
1016.5	0.6106
1017	0.6256
1017.5	0.6406
1018	0.6556
1018.5	0.6704
1019	0.685
1019.5	0.6993
1020	0.7132
1020.5	0.7267
1021	0.7396
1021.5	0.7519
1022	0.7637
1022.5	0.7747
1023	0.785
1023.5	0.7946
1024	0.8034
1024.5	0.8113
1025	0.8184
1025.5	0.8247
1026	0.8301
1026.5	0.8347
1027	0.8384
1027.5	0.8413
1028	0.8434
1028.5	0.8447
1029	0.8452
1029.5	0.845
1030	0.8441
1030.5	0.8426
1031	0.8404
1031.5	0.8377
1032	0.8345
1032.5	0.8308
1033	0.8267
1033.5	0.8223
1034	0.8175
1034.5	0.8126
1035	0.8074
1035.5	0.8021
1036	0.7968
1036.5	0.7914
1037	0.786
1037.5	0.7807
1038	0.7755
1038.5	0.7704
1039	0.7655
1039.5	0.7609
1040	0.7565
1040.5	0.7524
1041	0.7485
1041.5	0.745
1042	0.7418
1042.5	0.7389
1043	0.7363
1043.5	0.7341
1044	0.7322
1044.5	0.7306
1045	0.7293
1045.5	0.7283
1046	0.7276
1046.5	0.7271
1047	0.7268
1047.5	0.7267
1048	0.7268
1048.5	0.727
1049	0.7273
1049.5	0.7276
1050	0.728
1050.5	0.7283
1051	0.7287
1051.5	0.7289
1052	0.729
1052.5	0.729
1053	0.7288
1053.5	0.7284
1054	0.7278
1054.5	0.7269
1055	0.7257
1055.5	0.7242
1056	0.7223
1056.5	0.7202
1057	0.7177
1057.5	0.7148
1058	0.7115
1058.5	0.7079
1059	0.704
1059.5	0.6997
1060	0.6951
1060.5	0.6901
1061	0.6848
1061.5	0.6793
1062	0.6735
1062.5	0.6676
1063	0.6614
1063.5	0.6552
1064	0.6488
1064.5	0.6424
1065	0.6361
1065.5	0.6298
1066	0.6236
1066.5	0.6176
1067	0.6119
1067.5	0.6066
1068	0.6016
1068.5	0.597
1069	0.593
1069.5	0.5896
1070	0.5868
1070.5	0.5847
1071	0.5835
1071.5	0.583
1072	0.5835
1072.5	0.585
1073	0.5875
1073.5	0.5911
1074	0.5958
1074.5	0.6017
1075	0.6088
1075.5	0.6173
1076	0.627
1076.5	0.6382
1077	0.6507
1077.5	0.6647
1078	0.6802
1078.5	0.6972
1079	0.7158
1079.5	0.736
1080	0.7578
1080.5	0.7814
1081	0.8067
1081.5	0.8338
1082	0.8628
1082.5	0.8938
1083	0.9268
1083.5	0.962
1084	0.9994
1084.5	1.0392
1085	1.0814
1085.5	1.1264
1086	1.1741
1086.5	1.2248
1087	1.2787
1087.5	1.336
1088	1.397
1088.5	1.4618
1089	1.5309
1089.5	1.6043
1090	1.6826
1090.5	1.766
1091	1.8548
1091.5	1.9495
1092	2.0504
1092.5	2.158
1093	2.2726
1093.5	2.3947
1094	2.5248
1094.5	2.6633
1095	2.8107
1095.5	2.9676
1096	3.1344
1096.5	3.3116
1097	3.4997
1097.5	3.6994
1098	3.911
1098.5	4.1352
1099	4.3725
1099.5	4.6234
1100	4.8885
1100.5	5.1682
1101	5.4631
1101.5	5.7737
1102	6.1005
1102.5	6.444
1103	6.8047
1103.5	7.1831
1104	7.5795
1104.5	7.9944
1105	8.4282
1105.5	8.8812
1106	9.3538
1106.5	9.8463
1107	10.3589
1107.5	10.8918
1108	11.4452
1108.5	12.0192
1109	12.6138
1109.5	13.229
1110	13.8647
1110.5	14.5208
1111	15.1969
1111.5	15.8928
1112	16.608
1112.5	17.342
1113	18.0944
1113.5	18.8642
1114	19.6509
1114.5	20.4535
1115	21.2711
1115.5	22.1027
1116	22.9471
1116.5	23.8032
1117	24.6697
1117.5	25.5453
1118	26.4286
1118.5	27.3183
1119	28.2129
1119.5	29.1109
1120	30.0108
1120.5	30.9113
1121	31.8107
1121.5	32.7077
1122	33.6007
1122.5	34.4885
1123	35.3696
1123.5	36.2426
1124	37.1064
1124.5	37.9597
1125	38.8013
1125.5	39.6302
1126	40.4454
1126.5	41.2459
1127	42.0308
1127.5	42.7993
1128	43.5507
1128.5	44.2843
1129	44.9996
1129.5	45.6959
1130	46.3728
1130.5	47.0299
1131	47.6669
1131.5	48.2834
1132	48.8792
1132.5	49.454
1133	50.0078
1133.5	50.5403
1134	51.0516
1134.5	51.5415
1135	52.01
1135.5	52.457
1136	52.8827
1136.5	53.287
1137	53.6699
1137.5	54.0316
1138	54.3721
1138.5	54.6914
1139	54.9897
1139.5	55.267
1140	55.5234
1140.5	55.7589
1141	55.9737
1141.5	56.1678
1142	56.3412
1142.5	56.4941
1143	56.6264
1143.5	56.7383
1144	56.8296
1144.5	56.9005
1145	56.951
1145.5	56.981
1146	56.9905
1146.5	56.9795
1147	56.948
1147.5	56.8958
1148	56.8229
1148.5	56.7292
1149	56.6146
1149.5	56.479
1150	56.3224
1150.5	56.1444
1151	55.9451
1151.5	55.7242
1152	55.4816
1152.5	55.2172
1153	54.9307
1153.5	54.6221
1154	54.2911
1154.5	53.9375
1155	53.5613
1155.5	53.1622
1156	52.7401
1156.5	52.2949
1157	51.8265
1157.5	51.3349
1158	50.8198
1158.5	50.2814
1159	49.7197
1159.5	49.1346
1160	48.5264
1160.5	47.8951
1161	47.2411
1161.5	46.5645
1162	45.8658
1162.5	45.1454
1163	44.4038
1163.5	43.6416
1164	42.8595
1164.5	42.0584
1165	41.239
1165.5	40.4023
1166	39.5495
1166.5	38.6817
1167	37.8002
1167.5	36.9061
1168	36.0011
1168.5	35.0864
1169	34.1636
1169.5	33.2342
1170	32.2995
1170.5	31.3613
1171	30.4207
1171.5	29.4793
1172	28.5382
1172.5	27.5987
1173	26.6617
1173.5	25.7281
1174	24.7988
1174.5	23.8743
1175	22.9551
1175.5	22.0417
1176	21.1345
1176.5	20.234
1177	19.3409
1177.5	18.456
1178	17.5807
1178.5	16.7169
1179	15.8674
1179.5	15.0357
1180	14.2267
1180.5	13.4467
1181	12.7035
1181.5	12.0065
1182	11.367
1182.5	10.798
1183	10.3141
1183.5	9.9312
1184	9.6661
1184.5	9.5359
1185	9.5573
1185.5	9.7456
1186	10.1139
1186.5	10.6722
1187	11.4267
1187.5	12.3792
1188	13.5266
1188.5	14.8609
1189	16.3699
1189.5	18.0369
1190	19.8426
1190.5	21.765
1191	23.7811
1191.5	25.8674
1192	28.0013
1192.5	30.1612
1193	32.3274
1193.5	34.4823
1194	36.6109
1194.5	38.7003
1195	40.7402
1195.5	42.7225
1196	44.6409
1196.5	46.4911
1197	48.2702
1197.5	49.9767
1198	51.6101
1198.5	53.1708
1199	54.6599
1199.5	56.0789
1200	57.43
