# Model spectrum Bandpass-700/100
# Created on 6/20/2017 9:28:17 PM
Description=
DateTimeCreated=6/20/2017 9:28:14 PM
X(Unknown)	Y(Unknown)

200.0	1E-06
200.1	1E-06
637.2	1E-06
637.3	1.028E-06
637.4	1.092E-06
637.5	1.16E-06
637.6	1.232E-06
637.7	1.309E-06
637.8	1.391E-06
637.9	1.478E-06
638.0	1.57E-06
638.1	1.668E-06
638.2	1.772E-06
638.3	1.882E-06
638.4	2E-06
638.5	2.125E-06
638.6	2.257E-06
638.7	2.398E-06
638.8	2.548E-06
638.9	2.706E-06
639.0	2.875E-06
639.1	3.055E-06
639.2	3.245E-06
639.3	3.448E-06
639.4	3.663E-06
639.5	3.891E-06
639.6	4.134E-06
639.7	4.392E-06
639.8	4.666E-06
639.9	4.957E-06
640.0	5.267E-06
640.1	5.595E-06
640.2	5.944E-06
640.3	6.315E-06
640.4	6.709E-06
640.5	7.128E-06
640.6	7.573E-06
640.7	8.045E-06
640.8	8.547E-06
640.9	9.08E-06
641.0	9.647E-06
641.1	1.025E-05
641.2	1.089E-05
641.3	1.157E-05
641.4	1.229E-05
641.5	1.306E-05
641.6	1.387E-05
641.7	1.474E-05
641.8	1.566E-05
641.9	1.663E-05
642.0	1.767E-05
642.1	1.877E-05
642.2	1.994E-05
642.3	2.119E-05
642.4	2.251E-05
642.5	2.391E-05
642.6	2.541E-05
642.7	2.699E-05
642.8	2.868E-05
642.9	3.046E-05
643.0	3.237E-05
643.1	3.438E-05
643.2	3.653E-05
643.3	3.881E-05
643.4	4.123E-05
643.5	4.38E-05
643.6	4.654E-05
643.7	4.944E-05
643.8	5.252E-05
643.9	5.58E-05
644.0	5.928E-05
644.1	6.298E-05
644.2	6.691E-05
644.3	7.108E-05
644.4	7.552E-05
644.5	8.023E-05
644.6	8.524E-05
644.7	9.056E-05
644.8	9.621E-05
644.9	0.0001022
645.0	0.0001086
645.1	0.0001154
645.2	0.0001226
645.3	0.0001302
645.4	0.0001383
645.5	0.000147
645.6	0.0001561
645.7	0.0001659
645.8	0.0001762
645.9	0.0001872
646.0	0.0001989
646.1	0.0002113
646.2	0.0002245
646.3	0.0002385
646.4	0.0002534
646.5	0.0002692
646.6	0.000286
646.7	0.0003038
646.8	0.0003439
646.9	0.0004409
647.0	0.0005651
647.1	0.0007243
647.2	0.0009285
647.3	0.00119
647.4	0.001525
647.5	0.001955
647.6	0.002506
647.7	0.003213
647.8	0.004118
647.9	0.005279
648.0	0.006766
648.1	0.008673
648.2	0.01112
648.3	0.01425
648.4	0.01827
648.5	0.02341
648.6	0.03001
648.7	0.03847
648.8	0.04931
648.9	0.0632
649.0	0.08101
649.1	0.1038
649.2	0.1331
649.3	0.1706
649.4	0.2187
649.5	0.2803
649.6	0.3593
649.7	0.4606
649.8	0.5904
649.9	0.7567
650.0	0.97
750.0	0.97
750.1	0.7831
750.2	0.6321
750.3	0.5103
750.4	0.412
750.5	0.3326
750.6	0.2685
750.7	0.2167
750.8	0.175
750.9	0.1412
751.0	0.114
751.1	0.09204
751.2	0.0743
751.3	0.05998
751.4	0.04842
751.5	0.03909
751.6	0.03156
751.7	0.02547
751.8	0.02056
751.9	0.0166
752.0	0.0134
752.1	0.01082
752.2	0.008734
752.3	0.00705
752.4	0.005692
752.5	0.004595
752.6	0.003709
752.7	0.002994
752.8	0.002417
752.9	0.001951
753.0	0.001575
753.1	0.001272
753.2	0.001027
753.3	0.0008287
753.4	0.000669
753.5	0.0005401
753.6	0.000436
753.7	0.000352
753.8	0.0003082
753.9	0.0002929
754.0	0.0002783
754.1	0.0002644
754.2	0.0002512
754.3	0.0002387
754.4	0.0002268
754.5	0.0002154
754.6	0.0002047
754.7	0.0001945
754.8	0.0001848
754.9	0.0001756
755.0	0.0001668
755.1	0.0001585
755.2	0.0001506
755.3	0.0001431
755.4	0.0001359
755.5	0.0001292
755.6	0.0001227
755.7	0.0001166
755.8	0.0001108
755.9	0.0001053
756.0	0.0001
756.1	9.501E-05
756.2	9.027E-05
756.3	8.577E-05
756.4	8.149E-05
756.5	7.743E-05
756.6	7.356E-05
756.7	6.989E-05
756.8	6.641E-05
756.9	6.31E-05
757.0	5.995E-05
757.1	5.696E-05
757.2	5.412E-05
757.3	5.142E-05
757.4	4.885E-05
757.5	4.642E-05
757.6	4.41E-05
757.7	4.19E-05
757.8	3.981E-05
757.9	3.782E-05
758.0	3.594E-05
758.1	3.415E-05
758.2	3.244E-05
758.3	3.082E-05
758.4	2.929E-05
758.5	2.783E-05
758.6	2.644E-05
758.7	2.512E-05
758.8	2.387E-05
758.9	2.268E-05
759.0	2.154E-05
759.1	2.047E-05
759.2	1.945E-05
759.3	1.848E-05
759.4	1.756E-05
759.5	1.668E-05
759.6	1.585E-05
759.7	1.506E-05
759.8	1.431E-05
759.9	1.359E-05
760.0	1.292E-05
760.1	1.227E-05
760.2	1.166E-05
760.3	1.108E-05
760.4	1.053E-05
760.5	1E-05
760.6	9.501E-06
760.7	9.027E-06
760.8	8.577E-06
760.9	8.149E-06
761.0	7.743E-06
761.1	7.356E-06
761.2	6.989E-06
761.3	6.641E-06
761.4	6.31E-06
761.5	5.995E-06
761.6	5.696E-06
761.7	5.412E-06
761.8	5.142E-06
761.9	4.885E-06
762.0	4.642E-06
762.1	4.41E-06
762.2	4.19E-06
762.3	3.981E-06
762.4	3.782E-06
762.5	3.594E-06
762.6	3.415E-06
762.7	3.244E-06
762.8	3.082E-06
762.9	2.929E-06
763.0	2.783E-06
763.1	2.644E-06
763.2	2.512E-06
763.3	2.387E-06
763.4	2.268E-06
763.5	2.154E-06
763.6	2.047E-06
763.7	1.945E-06
763.8	1.848E-06
763.9	1.756E-06
764.0	1.668E-06
764.1	1.585E-06
764.2	1.506E-06
764.3	1.431E-06
764.4	1.359E-06
764.5	1.292E-06
764.6	1.227E-06
764.7	1.166E-06
764.8	1.108E-06
764.9	1.053E-06
765.0	1E-06
1600.0	1E-06
