199.97546	0
200.17692	0
200.37839	0
200.57989	0
200.7814	0
200.98293	0
201.18448	0
201.38605	0
201.58764	0
201.78925	0
201.99087	0
202.19252	0
202.39418	0
202.59586	0
202.79756	0
202.99928	0
203.20102	0
203.40278	0
203.60455	0
203.80635	0
204.00816	0
204.20999	0
204.41184	0
204.61371	0
204.8156	0
205.0175	0
205.21943	0
205.42137	0
205.62334	0
205.82532	0
206.02732	0
206.22934	0
206.43137	0
206.63343	0
206.83551	0
207.0376	0
207.23971	0
207.44184	0
207.64399	0
207.84616	0
208.04835	0
208.25055	0
208.45278	0
208.65502	0
208.85728	0
209.05956	0
209.26186	0
209.46418	0
209.66651	0
209.86887	0
210.07124	0
210.27363	0
210.47604	0
210.67847	0
210.88092	0
211.08338	0
211.28587	0
211.48837	0
211.69089	0
211.89343	0
212.09599	0
212.29857	0
212.50117	0
212.70378	0
212.90641	0
213.10907	0
213.31174	0
213.51442	0
213.71713	0
213.91986	0
214.1226	0
214.32537	0
214.52815	0
214.73095	0
214.93376	0
215.1366	0
215.33946	0
215.54233	0
215.74522	0
215.94813	0
216.15106	0
216.35401	0
216.55698	0
216.75996	0
216.96297	0
217.16599	0
217.36903	0
217.57209	0
217.77517	0
217.97826	0
218.18138	0
218.38451	0
218.58766	0
218.79083	0
218.99402	0
219.19722	0
219.40045	0
219.60369	0
219.80695	0
220.01023	0
220.21353	0
220.41685	0
220.62018	0
220.82354	0
221.02691	0
221.2303	0
221.43371	0
221.63713	0
221.84058	0
222.04404	0
222.24753	0
222.45103	0
222.65455	0
222.85808	0
223.06164	0
223.26521	0
223.46881	0
223.67242	0
223.87605	0
224.07969	0
224.28336	0
224.48704	0
224.69075	0
224.89447	0
225.0982	0
225.30196	0
225.50574	0
225.70953	0
225.91334	0
226.11717	0
226.32102	0
226.52489	0
226.72878	0
226.93268	0
227.1366	0
227.34054	0
227.5445	0
227.74848	0
227.95247	0
228.15649	0
228.36052	0
228.56457	0
228.76863	0
228.97272	0
229.17683	0
229.38095	0
229.58509	0
229.78925	0
229.99343	0
230.19762	0
230.40183	0
230.60607	0
230.81032	0
231.01459	0
231.21887	0
231.42318	0
231.6275	0
231.83184	0
232.0362	0
232.24058	0
232.44497	0
232.64939	0
232.85382	0
233.05827	0
233.26274	0
233.46722	0
233.67173	0
233.87625	0
234.08079	0
234.28535	0
234.48993	0
234.69452	0
234.89914	0
235.10377	0
235.30842	0
235.51309	0
235.71777	0
235.92248	0
236.1272	0
236.33194	0
236.5367	0
236.74147	0
236.94627	0
237.15108	0
237.35591	0
237.56076	0
237.76563	0
237.97051	0
238.17541	0
238.38033	0
238.58527	0
238.79023	0
238.9952	0
239.2002	0
239.40521	0
239.61024	0
239.81529	0
240.02035	0
240.22543	0
240.43053	0
240.63565	0
240.84079	0
241.04595	0
241.25112	0
241.45631	0
241.66152	0
241.86675	0
242.07199	0
242.27726	0
242.48254	0
242.68784	0
242.89315	0
243.09849	0
243.30384	0
243.50921	0
243.7146	0
243.92001	0
244.12543	0
244.33087	0
244.53633	0
244.74181	0
244.94731	0
245.15282	0
245.35836	0
245.56391	0
245.76948	0
245.97506	0
246.18067	0
246.38629	0
246.59193	0
246.79758	0
247.00326	0
247.20895	0
247.41466	0
247.62039	0
247.82614	0
248.03191	0
248.23769	0
248.44349	0
248.64931	0
248.85514	0
249.061	0
249.26687	0
249.47276	0
249.67867	0
249.88459	0
250.09054	0
250.2965	0
250.50248	0
250.70847	0
250.91449	0
251.12052	0
251.32657	0
251.53264	0
251.73872	0
251.94483	0
252.15095	0
252.35709	0
252.56325	0
252.76942	0
252.97561	0
253.18182	0
253.38805	0
253.5943	0
253.80056	0
254.00684	0
254.21314	0
254.41946	0
254.62579	0
254.83214	0
255.03851	0
255.2449	0
255.45131	0
255.65773	0
255.86417	0
256.07063	0
256.27711	0
256.4836	0
256.69011	0
256.89664	0
257.10319	0
257.30975	0
257.51634	0
257.72294	0
257.92955	0
258.13619	0
258.34284	0
258.54951	0
258.7562	0
258.96291	0
259.16963	0
259.37637	0
259.58313	0
259.78991	0
259.9967	0
260.20351	0
260.41034	0
260.61719	0
260.82406	0
261.03094	0
261.23784	0
261.44476	0
261.65169	0
261.85864	0
262.06561	0
262.2726	0
262.47961	0
262.68663	0
262.89367	0
263.10073	0
263.30781	0
263.5149	0
263.72201	0
263.92914	0
264.13629	0
264.34345	0
264.55063	0
264.75783	0
264.96505	0
265.17228	0
265.37953	0
265.5868	0
265.79409	0
266.00139	0
266.20871	0
266.41605	0
266.62341	0
266.83078	0
267.03817	0
267.24558	0
267.45301	0
267.66045	0
267.86791	0
268.07539	0
268.28289	0
268.4904	0
268.69793	0
268.90548	0
269.11305	0
269.32063	0
269.52823	0
269.73585	0
269.94349	0
270.15114	0
270.35881	0
270.5665	0
270.77421	0
270.98193	0
271.18967	0
271.39743	0
271.60521	0
271.813	0
272.02081	0
272.22864	0
272.43648	0
272.64434	0
272.85222	0
273.06012	0
273.26804	0
273.47597	0
273.68392	0
273.89188	0
274.09987	0
274.30787	0
274.51589	0
274.72392	0
274.93198	0
275.14005	0
275.34814	0
275.55624	0
275.76437	0
275.97251	0
276.18066	0
276.38884	0
276.59703	0
276.80524	0
277.01347	0
277.22171	0
277.42997	0
277.63825	0
277.84655	0
278.05486	0
278.26319	0
278.47154	0
278.6799	0
278.88829	0
279.09669	0
279.3051	0
279.51354	0
279.72199	0
279.93046	0
280.13894	0
280.34745	0
280.55597	0
280.7645	0
280.97306	0
281.18163	0
281.39022	0
281.59883	0
281.80745	0
282.01609	0
282.22475	0
282.43342	0
282.64212	0
282.85083	0
283.05955	0
283.2683	0
283.47706	0
283.68584	0
283.89463	0
284.10345	0
284.31228	0
284.52112	0
284.72999	0
284.93887	0
285.14777	0
285.35668	0
285.56562	0
285.77457	0
285.98353	0
286.19252	0
286.40152	0
286.61054	0
286.81957	0
287.02863	0
287.2377	0
287.44678	0
287.65589	0
287.86501	0
288.07415	0
288.2833	0
288.49248	0
288.70167	0
288.91087	0
289.1201	0
289.32934	0
289.53859	0
289.74787	0
289.95716	0
290.16647	0
290.3758	0
290.58514	0
290.7945	0
291.00388	0
291.21327	0
291.42268	0
291.63211	0
291.84156	0
292.05102	0
292.2605	0
292.47	0
292.67951	0
292.88904	0
293.09859	0
293.30815	0
293.51773	0
293.72733	0
293.93695	0
294.14658	0
294.35623	0
294.56589	0
294.77558	0
294.98528	0
295.195	0
295.40473	0
295.61448	0
295.82425	0
296.03403	0
296.24384	0
296.45366	0
296.66349	0
296.87334	0
297.08321	0
297.2931	0
297.503	0
297.71292	0
297.92286	0
298.13282	0
298.34279	0
298.55277	0
298.76278	0
298.9728	0
299.18284	0
299.3929	0
299.60297	0
299.81306	0
300.02316	0
300.23329	0
300.44343	0
300.65358	0
300.86376	0
301.07395	0
301.28416	0
301.49438	0
301.70462	0
301.91488	0
302.12515	0
302.33544	0
302.54575	0
302.75608	0
302.96642	0
303.17678	0
303.38715	0
303.59755	0
303.80796	0
304.01838	0
304.22882	0
304.43928	0
304.64976	0
304.86025	0
305.07076	0
305.28129	0
305.49183	0
305.70239	0
305.91297	0
306.12356	0
306.33417	0
306.5448	0
306.75545	0
306.96611	0
307.17678	0
307.38748	0
307.59819	0
307.80892	0
308.01966	0
308.23042	0
308.4412	0
308.65199	0
308.8628	0
309.07363	0
309.28448	0
309.49534	0
309.70622	0
309.91711	0
310.12802	0
310.33895	0
310.54989	0
310.76085	0
310.97183	0
311.18283	0
311.39384	0
311.60487	0
311.81591	0
312.02697	0
312.23805	0
312.44914	0
312.66025	0
312.87138	0
313.08253	0
313.29369	0
313.50486	0
313.71606	0
313.92727	0
314.1385	0
314.34974	0
314.561	0
314.77228	0
314.98357	0
315.19488	0
315.40621	0
315.61755	0
315.82891	0
316.04029	0
316.25168	0
316.46309	0
316.67452	0
316.88596	0
317.09742	0
317.3089	0
317.52039	0
317.7319	0
317.94342	0
318.15496	0
318.36652	0
318.5781	0
318.78969	0
319.0013	0
319.21292	0
319.42456	0
319.63622	0
319.84789	0
320.05958	0
320.27129	0
320.48302	0
320.69476	0
320.90651	0
321.11828	0
321.33007	0
321.54188	0
321.7537	0
321.96554	0
322.1774	0
322.38927	0
322.60116	0
322.81306	0
323.02498	0
323.23692	0
323.44887	0
323.66084	0
323.87283	0
324.08483	0
324.29685	0
324.50889	0
324.72094	0
324.93301	0
325.14509	0
325.35719	0
325.56931	0
325.78145	0
325.9936	0
326.20576	0
326.41795	0
326.63015	0
326.84236	0
327.0546	0
327.26684	0
327.47911	0
327.69139	0
327.90369	0
328.116	0
328.32833	0
328.54068	0
328.75304	0
328.96542	0
329.17782	0
329.39023	0
329.60266	0
329.8151	0
330.02756	0
330.24004	0
330.45253	0
330.66504	0
330.87757	0
331.09011	0
331.30267	0
331.51525	0
331.72784	0
331.94045	0
332.15307	0
332.36571	0
332.57837	0
332.79104	0
333.00373	0
333.21643	0
333.42915	0
333.64189	0
333.85464	0
334.06741	0
334.2802	0
334.493	0
334.70582	0
334.91866	0
335.13151	0
335.34437	0
335.55726	0
335.77016	0
335.98307	0
336.196	0
336.40895	0
336.62192	0
336.8349	0
337.04789	0
337.26091	0
337.47394	0
337.68698	0
337.90004	0
338.11312	0
338.32621	0
338.53932	0
338.75245	0
338.96559	0
339.17875	0
339.39192	0
339.60511	0
339.81832	0
340.03154	0
340.24478	0
340.45804	0
340.67131	0
340.88459	0
341.0979	0
341.31122	0
341.52455	0
341.7379	0
341.95127	0
342.16465	0
342.37805	0
342.59147	0
342.8049	0
343.01835	0
343.23181	0
343.44529	0
343.65879	0
343.8723	0
344.08583	0
344.29937	0
344.51293	0
344.72651	0
344.9401	0
345.15371	0
345.36733	0
345.58097	0
345.79463	0
346.0083	0
346.22199	0
346.43569	0
346.64941	0
346.86315	0
347.0769	0
347.29067	0
347.50446	0
347.71826	0
347.93207	0
348.1459	0
348.35975	0
348.57362	0
348.78749	0
349.00139	0
349.2153	0
349.42923	0
349.64317	0
349.85713	0
350.07111	0
350.2851	0
350.49911	0
350.71313	0
350.92717	0
351.14122	0
351.3553	0
351.56938	0
351.78349	0
351.9976	0
352.21174	0
352.42589	0
352.64005	0
352.85424	0
353.06844	0
353.28265	0
353.49688	0
353.71112	0
353.92539	0
354.13966	0
354.35396	0
354.56827	0
354.78259	0
354.99693	0
355.21129	0
355.42566	0
355.64005	0
355.85445	0
356.06887	0
356.28331	0
356.49776	0
356.71223	0
356.92671	0
357.14121	0
357.35572	0
357.57025	0
357.7848	0
357.99936	0
358.21394	0
358.42853	0
358.64314	0
358.85777	0
359.07241	0
359.28706	0
359.50173	0
359.71642	0
359.93113	0
360.14585	0
360.36058	0
360.57533	0
360.7901	0
361.00488	0
361.21968	0
361.43449	0
361.64932	0
361.86417	0
362.07903	0
362.29391	0
362.5088	0
362.72371	0
362.93863	0
363.15357	0
363.36852	0
363.58349	0
363.79848	0
364.01348	0
364.2285	0
364.44353	0
364.65858	0
364.87365	0
365.08873	0
365.30382	0
365.51894	0
365.73406	0
365.94921	0
366.16436	0
366.37954	0
366.59473	0
366.80993	0
367.02515	0
367.24039	0
367.45564	0
367.67091	0
367.88619	0
368.10149	0
368.31681	0
368.53214	0
368.74748	0
368.96285	0
369.17822	0
369.39361	0
369.60902	0
369.82445	0
370.03989	0
370.25534	0
370.47081	0
370.6863	0
370.9018	0
371.11731	0
371.33285	0
371.54839	0
371.76396	0
371.97954	0
372.19513	0
372.41074	0
372.62637	0
372.84201	0
373.05766	0
373.27334	0
373.48902	0
373.70473	0
373.92044	0
374.13618	0
374.35193	0
374.56769	0
374.78347	0
374.99927	0
375.21508	0
375.43091	0
375.64675	0
375.86261	0
376.07848	0
376.29437	0
376.51027	0
376.72619	0
376.94213	0
377.15808	0
377.37404	0
377.59002	0
377.80602	0
378.02203	0
378.23806	0
378.4541	0
378.67016	0
378.88623	0
379.10232	0
379.31842	0
379.53454	0
379.75068	0
379.96683	0
380.183	0
380.39918	0
380.61537	0
380.83158	0
381.04781	0
381.26405	0
381.48031	0
381.69659	-0.00542
381.91287	8.88E-04
382.12918	-0.00109
382.3455	0.00752
382.56183	4.16E-04
382.77818	0.00325
382.99455	1.89E-04
383.21093	0.00617
383.42732	-0.0079
383.64373	0.00483
383.86016	-0.00338
384.0766	0.00298
384.29306	-3.13E-04
384.50953	9.44E-04
384.72602	-7.85E-04
384.94252	0.00207
385.15904	-0.00494
385.37557	0.00312
385.59212	4.97E-04
385.80868	0.00365
386.02526	-0.00198
386.24186	0.00111
386.45847	-0.0062
386.67509	-0.00384
386.89173	-6.13E-04
387.10839	0.00361
387.32506	-0.00393
387.54174	0.00553
387.75844	-0.00251
387.97516	0.00269
388.19189	0.00144
388.40864	0.00343
388.6254	6.79E-04
388.84218	0.00233
389.05897	-0.00541
389.27578	0.00503
389.4926	-0.00311
389.70944	0.00581
389.92629	-0.00279
390.14316	-0.00103
390.36004	-0.00442
390.57694	0.0023
390.79385	-0.00349
391.01078	0.00612
391.22773	8.55E-05
391.44469	0.00371
391.66166	-0.00263
391.87865	0.0016
392.09566	-8.86E-04
392.31268	0.002
392.52971	-0.00177
392.74676	0.00319
392.96383	-0.0027
393.18091	0.00384
393.398	-8.92E-04
393.61511	0.00141
393.83224	-0.00145
394.04938	0.00771
394.26653	-0.00295
394.48371	0.00527
394.70089	0.00124
394.91809	0.00561
395.13531	1.87E-04
395.35254	0.00422
395.56979	-0.00202
395.78705	0.00355
396.00433	-0.00112
396.22162	0.00389
396.43892	-0.00363
396.65625	0.00381
396.87358	3.02E-05
397.09094	0.00292
397.3083	-0.0013
397.52568	0.00609
397.74308	1.39E-04
397.96049	0.0078
398.17792	-0.00196
398.39536	0.00529
398.61282	1.22E-04
398.83029	0.00424
399.04778	5.25E-04
399.26528	0.00756
399.4828	0.00127
399.70033	0.00289
399.91788	9.32E-04
400.13544	0.00616
400.35302	-0.00148
400.57061	0.00522
400.78822	0.00207
401.00584	0.00669
401.22348	0.0047
401.44113	0.00699
401.6588	0.00402
401.87648	0.0081
402.09418	0.00216
402.31189	0.00734
402.52962	0.00341
402.74736	0.00456
402.96512	0.00387
403.18289	0.00714
403.40067	0.00525
403.61848	0.00894
403.83629	0.00541
404.05412	0.00862
404.27197	0.00521
404.48983	0.00786
404.70771	0.00701
404.9256	0.01293
405.14351	0.00594
405.36143	0.0113
405.57936	0.00736
405.79731	0.01385
406.01528	0.00954
406.23326	0.01352
406.45126	0.01105
406.66927	0.0131
406.88729	0.01208
407.10533	0.01429
407.32339	0.01117
407.54146	0.01438
407.75954	0.01117
407.97764	0.01551
408.19576	0.01433
408.41389	0.01766
408.63203	0.02022
408.85019	0.01688
409.06836	0.0212
409.28655	0.01662
409.50476	0.02158
409.72297	0.01952
409.94121	0.02032
410.15946	0.01899
410.37772	0.02181
410.596	0.02062
410.81429	0.02216
411.0326	0.02106
411.25092	0.02598
411.46925	0.02612
411.68761	0.02588
411.90597	0.02399
412.12435	0.0288
412.34275	0.02672
412.56116	0.02807
412.77959	0.02886
412.99803	0.0317
413.21648	0.03098
413.43495	0.03461
413.65344	0.03054
413.87193	0.0338
414.09045	0.03345
414.30898	0.0366
414.52752	0.03335
414.74608	0.03641
414.96465	0.03694
415.18324	0.04133
415.40184	0.03672
415.62046	0.04178
415.83909	0.04042
416.05774	0.04246
416.2764	0.04221
416.49508	0.04594
416.71377	0.04158
416.93247	0.04755
417.15119	0.04606
417.36993	0.04645
417.58868	0.04495
417.80744	0.05064
418.02622	0.04634
418.24501	0.04946
418.46382	0.04686
418.68264	0.05014
418.90148	0.04807
419.12033	0.04962
419.3392	0.04785
419.55808	0.05284
419.77698	0.04934
419.99589	0.05138
420.21481	0.04771
420.43375	0.05027
420.65271	0.04692
420.87167	0.05154
421.09066	0.04634
421.30966	0.05158
421.52867	0.04595
421.7477	0.05165
421.96674	0.04967
422.1858	0.04839
422.40487	0.04853
422.62395	0.0502
422.84305	0.0447
423.06217	0.04897
423.2813	0.04732
423.50044	0.05027
423.7196	0.04618
423.93878	0.04613
424.15796	0.04471
424.37717	0.0459
424.59638	0.04417
424.81561	0.04429
425.03486	0.04224
425.25412	0.04689
425.4734	0.03901
425.69269	0.0427
425.91199	0.03965
426.13131	0.04252
426.35064	0.03587
426.56999	0.03968
426.78935	0.03827
427.00873	0.03723
427.22812	0.03704
427.44753	0.03529
427.66695	0.03075
427.88638	0.03643
428.10583	0.03034
428.3253	0.03442
428.54477	0.03075
428.76427	0.0287
428.98377	0.0269
429.2033	0.02941
429.42283	0.02503
429.64238	0.03084
429.86195	0.0232
430.08153	0.02528
430.30112	0.02262
430.52073	0.0254
430.74035	0.02274
430.95999	0.02495
431.17964	0.02214
431.39931	0.02415
431.61899	0.01979
431.83868	0.02329
432.05839	0.017
432.27812	0.02056
432.49785	0.01697
432.71761	0.02029
432.93737	0.0174
433.15716	0.01951
433.37695	0.01755
433.59676	0.01904
433.81659	0.01635
434.03643	0.01849
434.25628	0.01339
434.47615	0.01704
434.69603	0.01436
434.91593	0.01635
435.13584	0.01262
435.35576	0.01466
435.5757	0.01307
435.79565	0.01441
436.01562	0.01162
436.23561	0.0144
436.4556	0.01225
436.67561	0.01205
436.89564	0.01098
437.11568	0.01354
437.33573	0.00996
437.5558	0.01127
437.77589	0.0117
437.99598	0.0141
438.21609	0.00977
438.43622	0.01079
438.65636	0.00774
438.87651	0.0127
439.09668	0.00951
439.31687	0.01052
439.53706	0.00735
439.75727	0.01143
439.9775	0.00701
440.19774	0.01003
440.41799	0.00664
440.63826	0.00953
440.85855	0.00733
441.07884	0.00965
441.29915	0.0075
441.51948	0.0086
441.73982	0.00556
441.96017	0.0099
442.18054	0.00752
442.40092	0.00986
442.62132	0.00632
442.84173	0.00725
443.06216	0.00518
443.2826	0.00743
443.50305	0.00545
443.72352	0.00729
443.944	0.00643
444.1645	0.00741
444.38501	0.00421
444.60553	0.00542
444.82607	0.00329
445.04662	0.00575
445.26719	0.00363
445.48777	0.00506
445.70837	0.00277
445.92898	0.00653
446.1496	0.0031
446.37024	0.00583
446.59089	0.00378
446.81156	0.0072
447.03224	0.00363
447.25293	0.00509
447.47364	0.00178
447.69436	0.00598
447.9151	0.00303
448.13585	0.00577
448.35662	0.00297
448.5774	0.00664
448.79819	0.00359
449.019	0.0061
449.23982	0.00249
449.46065	0.0042
449.6815	0.00222
449.90237	0.00405
450.12325	0.00277
450.34414	0.00363
450.56504	0.00292
450.78597	0.00437
451.0069	0.00183
451.22785	0.00421
451.44881	0.00121
451.66979	0.00385
451.89078	0.00217
452.11178	0.00505
452.3328	0.00131
452.55383	0.00207
452.77488	0.0033
452.99594	0.00248
453.21702	0.00247
453.43811	0.00449
453.65921	0.00115
453.88032	0.00449
454.10146	3.65E-04
454.3226	0.0047
454.54376	0.00116
454.76493	0.0027
454.98612	0.0023
455.20732	0.00373
455.42854	0.00152
455.64976	0.00312
455.87101	0.00145
456.09226	0.00482
456.31354	7.96E-04
456.53482	0.00378
456.75612	-5.20E-04
456.97743	0.00272
457.19876	0.00113
457.4201	0.00394
457.64145	0.00182
457.86282	0.00454
458.08421	0.00151
458.3056	0.0038
458.52701	0.00168
458.74844	0.00298
458.96988	0.00125
459.19133	0.00454
459.41279	0.00111
459.63427	0.00402
459.85577	0.00106
460.07728	0.00515
460.2988	0.00174
460.52033	0.00214
460.74188	0.00106
460.96345	0.00343
461.18502	0.00223
461.40662	0.00269
461.62822	0.00151
461.84984	0.0033
462.07147	0.0018
462.29312	0.00122
462.51478	0.0012
462.73645	0.00395
462.95814	2.44E-04
463.17984	0.00283
463.40156	7.28E-04
463.62329	0.00309
463.84503	0.00252
464.06679	0.00306
464.28856	7.65E-04
464.51035	0.00226
464.73215	0.00295
464.95396	0.0022
465.17579	0.00322
465.39763	6.99E-04
465.61948	0.00276
465.84135	0.00173
466.06323	0.00272
466.28513	0.0024
466.50704	0.0031
466.72896	6.22E-04
466.9509	0.00302
467.17285	0.00206
467.39481	0.00334
467.61679	0.00233
467.83878	0.00318
468.06079	0.00171
468.28281	0.00225
468.50484	0.00142
468.72689	0.00296
468.94895	0.00164
469.17103	0.00467
469.39312	0.00346
469.61522	0.0033
469.83733	0.00148
470.05946	0.00254
470.28161	0.0024
470.50376	0.0043
470.72594	0.00266
470.94812	0.00424
471.17032	0.00238
471.39253	0.00418
471.61476	0.00266
471.837	0.00499
472.05925	0.00209
472.28152	0.00462
472.5038	0.00382
472.72609	0.00397
472.9484	0.00388
473.17072	0.00425
473.39305	0.00272
473.6154	0.00586
473.83777	0.00387
474.06014	0.00429
474.28253	0.00474
474.50494	0.00625
474.72735	0.00443
474.94978	0.00574
475.17223	0.00491
475.39469	0.00712
475.61716	0.00594
475.83964	0.00596
476.06214	0.00555
476.28465	0.00807
476.50718	0.00552
476.72972	0.008
476.95227	0.0068
477.17484	0.00806
477.39742	0.00549
477.62001	0.00993
477.84262	0.00847
478.06524	0.01073
478.28788	0.00793
478.51053	0.01072
478.73319	0.00985
478.95586	0.01098
479.17855	0.00854
479.40126	0.01105
479.62397	0.00892
479.8467	0.01232
480.06945	0.01039
480.2922	0.01374
480.51497	0.01076
480.73776	0.01344
480.96056	0.01367
481.18337	0.01531
481.40619	0.013
481.62903	0.01492
481.85188	0.01466
482.07475	0.01789
482.29763	0.01898
482.52052	0.02007
482.74342	0.02116
482.96634	0.02225
483.18928	0.02334
483.41222	0.02443
483.63518	0.02552
483.85815	0.02661
484.08114	0.0277
484.30414	0.02879
484.52715	0.02988
484.75018	0.03097
484.97322	0.03206
485.19628	0.03314
485.41934	0.03423
485.64242	0.03532
485.86552	0.03641
486.08863	0.0375
486.31175	0.03859
486.53488	0.03968
486.75803	0.04077
486.98119	0.04186
487.20437	0.04295
487.42756	0.04404
487.65076	0.04513
487.87397	0.04622
488.0972	0.04731
488.32044	0.0484
488.5437	0.04949
488.76697	0.05058
488.99025	0.05167
489.21354	0.05167
489.43685	0.05182
489.66018	0.05539
489.88351	0.05593
490.10686	0.05926
490.33022	0.06141
490.5536	0.06398
490.77699	0.06484
491.00039	0.06701
491.22381	0.06762
491.44724	0.07206
491.67068	0.07383
491.89413	0.07734
492.1176	0.07819
492.34109	0.08253
492.56458	0.08431
492.78809	0.08961
493.01161	0.0903
493.23515	0.09276
493.4587	0.09632
493.68226	0.10365
493.90584	0.10604
494.12943	0.11167
494.35303	0.11275
494.57664	0.11631
494.80027	0.11954
495.02391	0.12405
495.24757	0.12756
495.47124	0.13557
495.69492	0.13733
495.91862	0.14352
496.14232	0.14384
496.36605	0.15115
496.58978	0.15466
496.81353	0.15659
497.03729	0.15897
497.26107	0.16197
497.48485	0.16416
497.70866	0.1713
497.93247	0.17463
498.1563	0.18052
498.38014	0.18422
498.60399	0.18986
498.82786	0.19396
499.05174	0.19934
499.27564	0.20238
499.49954	0.21012
499.72346	0.2124
499.9474	0.21889
500.17134	0.2199
500.3953	0.22822
500.61928	0.2309
500.84326	0.23699
501.06726	0.24302
501.29127	0.25436
501.5153	0.25754
501.73934	0.26345
501.96339	0.26778
502.18745	0.27018
502.41153	0.27716
502.63562	0.28289
502.85973	0.28966
503.08385	0.29627
503.30798	0.30142
503.53212	0.30967
503.75628	0.31353
503.98045	0.32002
504.20463	0.32901
504.42883	0.33644
504.65304	0.33985
504.87726	0.34945
505.1015	0.35502
505.32575	0.36379
505.55001	0.37592
505.77428	0.38327
505.99857	0.38817
506.22287	0.39294
506.44719	0.39557
506.67151	0.40592
506.89585	0.41281
507.12021	0.42083
507.34457	0.42671
507.56895	0.43743
507.79335	0.44238
508.01775	0.4515
508.24217	0.4581
508.4666	0.47041
508.69105	0.47677
508.91551	0.48515
509.13998	0.48922
509.36446	0.4935
509.58896	0.50192
509.81347	0.51282
510.03799	0.51779
510.26253	0.52609
510.48708	0.52824
510.71164	0.5345
510.93621	0.54162
511.1608	0.55396
511.3854	0.56092
511.61002	0.56889
511.83464	0.56669
512.05928	0.57545
512.28394	0.57626
512.5086	0.58343
512.73328	0.59771
512.95797	0.60518
513.18268	0.60995
513.4074	0.61663
513.63213	0.62783
513.85687	0.63659
514.08163	0.63835
514.3064	0.64633
514.53118	0.645
514.75597	0.65523
514.98078	0.65942
515.2056	0.66648
515.43044	0.66761
515.65529	0.67998
515.88015	0.68561
516.10502	0.69601
516.3299	0.70365
516.5548	0.71419
516.77972	0.72002
517.00464	0.72466
517.22958	0.72423
517.45453	0.73033
517.67949	0.73271
517.90447	0.74112
518.12946	0.74559
518.35446	0.76032
518.57947	0.75875
518.8045	0.77295
519.02954	0.78464
519.25459	0.78944
519.47966	0.78947
519.70474	0.79624
519.92983	0.7958
520.15493	0.81248
520.38005	0.81338
520.60518	0.82708
520.83033	0.82698
521.05548	0.83424
521.28065	0.8382
521.50583	0.84254
521.73103	0.84577
521.95623	0.85497
522.18145	0.86118
522.40669	0.86231
522.63193	0.86535
522.85719	0.85828
523.08246	0.85805
523.30774	0.86688
523.53304	0.88025
523.75835	0.88397
523.98367	0.88246
524.20901	0.88763
524.43436	0.88389
524.65972	0.89623
524.88509	0.89602
525.11048	0.8943
525.33587	0.88937
525.56129	0.89797
525.78671	0.89753
526.01215	0.9086
526.2376	0.91768
526.46306	0.91623
526.68853	0.91418
526.91402	0.90325
527.13952	0.90494
527.36504	0.89852
527.59056	0.9057
527.8161	0.90829
528.04165	0.90592
528.26722	0.91135
528.49279	0.91381
528.71838	0.91957
528.94398	0.91887
529.1696	0.92122
529.39523	0.92954
529.62087	0.92483
529.84652	0.93673
530.07218	0.94486
530.29786	0.95691
530.52355	0.95659
530.74926	0.96514
530.97497	0.96386
531.2007	0.96472
531.42644	0.96392
531.6522	0.95601
531.87796	0.95532
532.10374	0.95587
532.32953	0.95219
532.55534	0.94749
532.78116	0.94934
533.00698	0.95651
533.23283	0.94304
533.45868	0.94257
533.68455	0.935
533.91043	0.93841
534.13632	0.93317
534.36223	0.92947
534.58815	0.92574
534.81408	0.93066
535.04002	0.93765
535.26597	0.93646
535.49194	0.93889
535.71792	0.94022
535.94392	0.9376
536.16992	0.94039
536.39594	0.94086
536.62197	0.94052
536.84801	0.94681
537.07407	0.95264
537.30014	0.95482
537.52622	0.95816
537.75231	0.96565
537.97842	0.96555
538.20454	0.96424
538.43067	0.96675
538.65681	0.97897
538.88297	0.9846
539.10914	0.98364
539.33532	0.98874
539.56151	0.98559
539.78772	0.98811
540.01394	0.98772
540.24017	0.9859
540.46641	0.98945
540.69267	0.99316
540.91893	0.98909
541.14522	0.98711
541.37151	0.98888
541.59781	0.99187
541.82413	0.98201
542.05046	0.9831
542.27681	0.97811
542.50316	0.97896
542.72953	0.97789
542.95591	0.97682
543.1823	0.97161
543.40871	0.97935
543.63513	0.97767
543.86156	0.97703
544.088	0.9813
544.31445	0.99362
544.54092	0.99242
544.7674	0.99451
544.99389	0.99192
545.2204	0.9946
545.44691	0.99319
545.67344	0.99636
545.89999	0.99115
546.12654	0.9937
546.35311	0.99545
546.57968	1
546.80628	0.99186
547.03288	0.98774
547.2595	0.98728
547.48612	0.98895
547.71276	0.98521
547.93942	0.98945
548.16608	0.98892
548.39276	0.98512
548.61945	0.98031
548.84615	0.98028
549.07287	0.9772
549.29959	0.97917
549.52633	0.98136
549.75308	0.97828
549.97985	0.98065
550.20662	0.9852
550.43341	0.98303
550.66021	0.98708
550.88703	0.98592
551.11385	0.98452
551.34069	0.9811
551.56754	0.98115
551.7944	0.97972
552.02128	0.98025
552.24816	0.98232
552.47506	0.98742
552.70197	0.98516
552.9289	0.98793
553.15583	0.98742
553.38278	0.98792
553.60974	0.99349
553.83671	0.99121
554.0637	0.98751
554.29069	0.985
554.5177	0.98957
554.74473	0.99148
554.97176	0.989
555.1988	0.98942
555.42586	0.98642
555.65293	0.98826
555.88002	0.98875
556.10711	0.98078
556.33422	0.9802
556.56134	0.98316
556.78847	0.97962
557.01561	0.97501
557.24277	0.97108
557.46993	0.97797
557.69711	0.97517
557.92431	0.97273
558.15151	0.96603
558.37873	0.96396
558.60596	0.95953
558.8332	0.96082
559.06045	0.95217
559.28771	0.95597
559.51499	0.95288
559.74228	0.95446
559.96958	0.95037
560.1969	0.94747
560.42422	0.94126
560.65156	0.93588
560.87891	0.93218
561.10627	0.93609
561.33365	0.93263
561.56103	0.93782
561.78843	0.93375
562.01584	0.93644
562.24326	0.93948
562.4707	0.93467
562.69815	0.92957
562.9256	0.93493
563.15308	0.93311
563.38056	0.93295
563.60805	0.93288
563.83556	0.93675
564.06308	0.93324
564.29061	0.93334
564.51815	0.93327
564.74571	0.9337
564.97328	0.9359
565.20086	0.93913
565.42845	0.9351
565.65605	0.93524
565.88367	0.93145
566.11129	0.93133
566.33893	0.92852
566.56659	0.92769
566.79425	0.92514
567.02192	0.92777
567.24961	0.92343
567.47731	0.9238
567.70502	0.92044
567.93275	0.9158
568.16048	0.90959
568.38823	0.90503
568.61599	0.90228
568.84376	0.89636
569.07155	0.89385
569.29934	0.8927
569.52715	0.89138
569.75497	0.89186
569.9828	0.87979
570.21064	0.87471
570.4385	0.87067
570.66636	0.86926
570.89424	0.87046
571.12213	0.86657
571.35004	0.8666
571.57795	0.8653
571.80588	0.86338
572.03382	0.85781
572.26177	0.85815
572.48973	0.85837
572.71771	0.85497
572.94569	0.85402
573.17369	0.85339
573.4017	0.85482
573.62972	0.8535
573.85776	0.85394
574.0858	0.85147
574.31386	0.84943
574.54193	0.84714
574.77001	0.84561
574.99811	0.84407
575.22621	0.84681
575.45433	0.84128
575.68246	0.84386
575.9106	0.83616
576.13875	0.84027
576.36692	0.83537
576.59509	0.84151
576.82328	0.83615
577.05148	0.8351
577.27969	0.83135
577.50792	0.83092
577.73615	0.8261
577.9644	0.82681
578.19266	0.82377
578.42093	0.81764
578.64921	0.81748
578.87751	0.81512
579.10581	0.81585
579.33413	0.81302
579.56246	0.80932
579.7908	0.80773
580.01916	0.80082
580.24752	0.79627
580.4759	0.79759
580.70429	0.79032
580.93269	0.78854
581.1611	0.78985
581.38952	0.78828
581.61796	0.78697
581.84641	0.78669
582.07487	0.78747
582.30334	0.78394
582.53182	0.78536
582.76032	0.78468
582.98882	0.78325
583.21734	0.79085
583.44587	0.78881
583.67441	0.78784
583.90297	0.78563
584.13153	0.78771
584.36011	0.78479
584.58869	0.78462
584.81729	0.7798
585.04591	0.77823
585.27453	0.7717
585.50317	0.76842
585.73181	0.76405
585.96047	0.76091
586.18914	0.75785
586.41782	0.75979
586.64652	0.75793
586.87522	0.75862
587.10394	0.75461
587.33267	0.75404
587.56141	0.75157
587.79016	0.74412
588.01892	0.74287
588.2477	0.74183
588.47648	0.73462
588.70528	0.73838
588.93409	0.73213
589.16291	0.73654
589.39175	0.73085
589.62059	0.73298
589.84945	0.72816
590.07831	0.72741
590.30719	0.72726
590.53609	0.72674
590.76499	0.72198
590.9939	0.72044
591.22283	0.71742
591.45177	0.72289
591.68072	0.71335
591.90968	0.71243
592.13865	0.70716
592.36763	0.70253
592.59663	0.69566
592.82563	0.69743
593.05465	0.69318
593.28368	0.69568
593.51272	0.69281
593.74178	0.69242
593.97084	0.68711
594.19992	0.68545
594.42901	0.67925
594.65811	0.67799
594.88722	0.66987
595.11634	0.66843
595.34547	0.66746
595.57462	0.66846
595.80377	0.66515
596.03294	0.66588
596.26212	0.66413
596.49131	0.66357
596.72052	0.65919
596.94973	0.65629
597.17896	0.65328
597.40819	0.65037
597.63744	0.65134
597.8667	0.65134
598.09597	0.64821
598.32526	0.64842
598.55455	0.64329
598.78386	0.64614
599.01318	0.64078
599.2425	0.63912
599.47185	0.6335
599.7012	0.63454
599.93056	0.63022
600.15993	0.62744
600.38932	0.62767
600.61872	0.62665
600.84813	0.62417
601.07755	0.62249
601.30698	0.62084
601.53642	0.61878
601.76588	0.61533
601.99534	0.6136
602.22482	0.60763
602.45431	0.60934
602.68381	0.60548
602.91332	0.60022
603.14284	0.59711
603.37238	0.59754
603.60192	0.59589
603.83148	0.59392
604.06105	0.59046
604.29063	0.58544
604.52022	0.58542
604.74982	0.58317
604.97944	0.57783
605.20906	0.57927
605.4387	0.57648
605.66835	0.57384
605.898	0.57264
606.12768	0.56973
606.35736	0.56651
606.58705	0.56699
606.81675	0.56431
607.04647	0.56141
607.2762	0.5607
607.50594	0.55814
607.73569	0.55824
607.96545	0.55218
608.19522	0.55041
608.425	0.54821
608.6548	0.54445
608.8846	0.54274
609.11442	0.53946
609.34425	0.53959
609.57409	0.53812
609.80394	0.5331
610.0338	0.52965
610.26368	0.52917
610.49356	0.52302
610.72346	0.52301
610.95336	0.52236
611.18328	0.52093
611.41321	0.51809
611.64315	0.51483
611.87311	0.51095
612.10307	0.51051
612.33304	0.50815
612.56303	0.50242
612.79303	0.50133
613.02304	0.50187
613.25306	0.49757
613.48309	0.49806
613.71313	0.49404
613.94318	0.49141
614.17325	0.48921
614.40332	0.48608
614.63341	0.48639
614.86351	0.48258
615.09362	0.48076
615.32374	0.47895
615.55387	0.47483
615.78401	0.47343
616.01416	0.47511
616.24433	0.46571
616.4745	0.47071
616.70469	0.47102
616.93489	0.46325
617.1651	0.46703
617.39532	0.46144
617.62555	0.45604
617.85579	0.45264
618.08605	0.45954
618.31631	0.449
618.54659	0.44963
618.77688	0.44935
619.00717	0.45014
619.23748	0.44165
619.4678	0.44518
619.69814	0.44178
619.92848	0.43377
620.15883	0.43526
620.3892	0.43496
620.61957	0.43371
620.84996	0.42973
621.08036	0.42609
621.31077	0.4267
621.54119	0.42304
621.77162	0.42514
622.00206	0.41761
622.23252	0.41852
622.46298	0.41437
622.69345	0.41692
622.92394	0.41162
623.15444	0.40839
623.38495	0.40706
623.61547	0.40642
623.846	0.40381
624.07654	0.402
624.30709	0.40436
624.53766	0.39843
624.76823	0.39609
624.99882	0.39621
625.22941	0.39436
625.46002	0.39354
625.69064	0.39174
625.92127	0.38769
626.15191	0.38685
626.38256	0.38847
626.61322	0.38227
626.8439	0.38355
627.07458	0.38049
627.30528	0.37516
627.53598	0.37441
627.7667	0.37654
627.99743	0.37112
628.22817	0.37167
628.45892	0.36797
628.68968	0.36706
628.92045	0.36885
629.15123	0.36414
629.38203	0.3652
629.61283	0.35812
629.84365	0.35802
630.07447	0.35693
630.30531	0.35496
630.53616	0.35658
630.76702	0.35189
630.99789	0.35173
631.22877	0.35208
631.45966	0.34789
631.69057	0.34418
631.92148	0.3447
632.1524	0.33883
632.38334	0.34459
632.61429	0.33724
632.84524	0.33811
633.07621	0.33238
633.30719	0.33489
633.53818	0.33243
633.76918	0.3287
634.00019	0.32389
634.23121	0.32949
634.46225	0.32472
634.69329	0.3215
634.92435	0.31996
635.15541	0.32055
635.38649	0.31565
635.61758	0.31657
635.84867	0.31668
636.07978	0.31586
636.3109	0.30951
636.54203	0.30763
636.77317	0.30623
637.00433	0.30631
637.23549	0.30206
637.46666	0.30458
637.69785	0.2986
637.92904	0.29902
638.16025	0.29644
638.39146	0.29376
638.62269	0.29336
638.85393	0.28362
639.08518	0.28825
639.31644	0.28291
639.54771	0.28418
639.77899	0.2794
640.01028	0.27778
640.24159	0.27703
640.4729	0.27418
640.70422	0.27402
640.93556	0.27028
641.1669	0.27189
641.39826	0.26672
641.62963	0.26658
641.86101	0.26521
642.09239	0.26302
642.32379	0.26016
642.5552	0.25966
642.78662	0.25777
643.01805	0.25646
643.2495	0.25595
643.48095	0.25473
643.71241	0.2551
643.94389	0.25076
644.17537	0.24821
644.40687	0.24765
644.63837	0.2456
644.86989	0.24508
645.10142	0.24469
645.33295	0.24136
645.5645	0.23968
645.79606	0.2383
646.02763	0.23805
646.25921	0.23387
646.4908	0.23512
646.7224	0.23235
646.95402	0.22985
647.18564	0.22952
647.41727	0.22872
647.64892	0.22947
647.88057	0.22777
648.11224	0.22291
648.34391	0.22507
648.5756	0.2242
648.8073	0.22204
649.03901	0.22048
649.27072	0.21767
649.50245	0.21625
649.73419	0.21863
649.96594	0.21703
650.1977	0.21653
650.42947	0.21349
650.66126	0.21402
650.89305	0.21224
651.12485	0.21264
651.35666	0.20937
651.58849	0.21143
651.82032	0.20754
652.05217	0.20654
652.28402	0.20549
652.51589	0.20444
652.74776	0.20339
652.97965	0.20233
653.21155	0.20128
653.44346	0.20023
653.67538	0.19918
653.90731	0.19813
654.13924	0.19708
654.37119	0.19602
654.60316	0.19497
654.83513	0.19392
655.06711	0.19287
655.2991	0.19182
655.5311	0.19077
655.76312	0.18971
655.99514	0.18866
656.22717	0.18761
656.45922	0.18656
656.69127	0.18551
656.92334	0.18446
657.15541	0.1834
657.3875	0.18235
657.61959	0.1813
657.8517	0.18025
658.08382	0.1792
658.31595	0.17814
658.54809	0.17709
658.78023	0.17604
659.01239	0.17499
659.24456	0.17394
659.47674	0.17289
659.70893	0.17183
659.94113	0.17078
660.17334	0.17078
660.40557	0.16852
660.6378	0.16809
660.87004	0.16897
661.10229	0.16853
661.33455	0.16486
661.56683	0.16486
661.79911	0.16213
662.03141	0.16147
662.26371	0.16199
662.49603	0.16068
662.72835	0.15789
662.96069	0.15822
663.19303	0.15925
663.42539	0.15676
663.65775	0.15804
663.89013	0.15397
664.12252	0.15408
664.35492	0.15245
664.58732	0.15099
664.81974	0.151
665.05217	0.15134
665.28461	0.14806
665.51706	0.14889
665.74952	0.14809
665.98199	0.14633
666.21447	0.1446
666.44696	0.14396
666.67946	0.14296
666.91197	0.14375
667.14449	0.14211
667.37702	0.14232
667.60956	0.14078
667.84211	0.14108
668.07467	0.13789
668.30725	0.13866
668.53983	0.13622
668.77242	0.1367
669.00502	0.13652
669.23764	0.13562
669.47026	0.13452
669.7029	0.13351
669.93554	0.13158
670.16819	0.13131
670.40086	0.13108
670.63353	0.12926
670.86622	0.12897
671.09891	0.12972
671.33162	0.12756
671.56433	0.12694
671.79706	0.1258
672.02979	0.12491
672.26254	0.12309
672.4953	0.12312
672.72806	0.12223
672.96084	0.12141
673.19362	0.1196
673.42642	0.12077
673.65923	0.11823
673.89205	0.12048
674.12487	0.11801
674.35771	0.11741
674.59056	0.11578
674.82342	0.1159
675.05628	0.11337
675.28916	0.11441
675.52205	0.11246
675.75495	0.11423
675.98786	0.11193
676.22077	0.11228
676.4537	0.11093
676.68664	0.11073
676.91959	0.10843
677.15255	0.1068
677.38552	0.10666
677.6185	0.10753
677.85149	0.10641
678.08449	0.10703
678.3175	0.10537
678.55051	0.10573
678.78354	0.10395
679.01658	0.10378
679.24963	0.10164
679.48269	0.10271
679.71576	0.10115
679.94884	0.10185
680.18193	0.09995
680.41503	0.09907
680.64814	0.09885
680.88126	0.09867
681.11439	0.09831
681.34753	0.09728
681.58068	0.09604
681.81384	0.09653
682.04701	0.09363
682.28019	0.09446
682.51338	0.09334
682.74658	0.09343
682.97979	0.09408
683.21301	0.09329
683.44624	0.09077
683.67948	0.09252
683.91273	0.08991
684.14599	0.09046
684.37926	0.08884
684.61254	0.08916
684.84583	0.08736
685.07913	0.08789
685.31244	0.08727
685.54576	0.08701
685.77909	0.08585
686.01243	0.08668
686.24578	0.08498
686.47914	0.08504
686.71251	0.083
686.94589	0.084
687.17928	0.08165
687.41268	0.08209
687.64609	0.08041
687.87951	0.08142
688.11294	0.07914
688.34638	0.08018
688.57982	0.07809
688.81328	0.07972
689.04675	0.07831
689.28023	0.07859
689.51372	0.07843
689.74722	0.07765
689.98073	0.07563
690.21424	0.0768
690.44777	0.07565
690.68131	0.07564
690.91486	0.07321
691.14842	0.0742
691.38198	0.07311
691.61556	0.07415
691.84915	0.07112
692.08274	0.07313
692.31635	0.07081
692.54997	0.0718
692.78359	0.06914
693.01723	0.07076
693.25088	0.06874
693.48453	0.06924
693.7182	0.06748
693.95187	0.06941
694.18556	0.06766
694.41925	0.06693
694.65296	0.06616
694.88667	0.06755
695.1204	0.06597
695.35413	0.06681
695.58788	0.06505
695.82163	0.0653
696.0554	0.06452
696.28917	0.06276
696.52295	0.06343
696.75675	0.06419
696.99055	0.06269
697.22436	0.06179
697.45818	0.06243
697.69202	0.06214
697.92586	0.06029
698.15971	0.06084
698.39357	0.05979
698.62744	0.05809
698.86132	0.05809
699.09521	0.05827
699.32911	0.05776
699.56302	0.05648
699.79694	0.0568
700.03087	0.057
700.26481	0.05599
700.49876	0.05447
700.73272	0.05685
700.96669	0.05452
701.20066	0.05517
701.43465	0.05328
701.66865	0.05472
701.90266	0.05194
702.13667	0.05365
702.3707	0.05091
702.60473	0.05368
702.83878	0.05142
703.07284	0.0519
703.3069	0.05113
703.54097	0.05359
703.77506	0.05072
704.00915	0.05157
704.24326	0.04979
704.47737	0.05052
704.71149	0.04888
704.94562	0.05036
705.17977	0.04953
705.41392	0.05023
705.64808	0.04845
705.88225	0.04897
706.11643	0.04689
706.35062	0.04929
706.58482	0.04628
706.81903	0.04826
707.05325	0.04514
707.28748	0.04666
707.52171	0.04449
707.75596	0.04587
707.99022	0.04489
708.22449	0.04648
708.45876	0.04428
708.69305	0.04481
708.92734	0.0433
709.16165	0.04509
709.39596	0.04305
709.63029	0.04364
709.86462	0.04282
710.09896	0.04325
710.33332	0.04304
710.56768	0.043
710.80205	0.0409
711.03643	0.04199
711.27082	0.04103
711.50522	0.04136
711.73963	0.03972
711.97405	0.04022
712.20848	0.03873
712.44292	0.04065
712.67737	0.03989
712.91182	0.04056
713.14629	0.0386
713.38077	0.03964
713.61525	0.03705
713.84975	0.03938
714.08425	0.03633
714.31876	0.03861
714.55329	0.03764
714.78782	0.03798
715.02236	0.03632
715.25692	0.03653
715.49148	0.03649
715.72605	0.03709
715.96063	0.03582
716.19522	0.03606
716.42982	0.03514
716.66443	0.03556
716.89904	0.03502
717.13367	0.03505
717.36831	0.03353
717.60295	0.03506
717.83761	0.03455
718.07227	0.03428
718.30695	0.03194
718.54163	0.0332
718.77633	0.03375
719.01103	0.03495
719.24574	0.03411
719.48046	0.03328
719.71519	0.0312
719.94993	0.03315
720.18468	0.03127
720.41944	0.03253
720.65421	0.03139
720.88899	0.03087
721.12377	0.03126
721.35857	0.03162
721.59337	0.0305
721.82819	0.03075
722.06301	0.03055
722.29785	0.03141
722.53269	0.02857
722.76754	0.02994
723.0024	0.02802
723.23727	0.03015
723.47216	0.02919
723.70704	0.02944
723.94194	0.02883
724.17685	0.02902
724.41177	0.02737
724.6467	0.02935
724.88163	0.02826
725.11658	0.02874
725.35153	0.02713
725.58649	0.02834
725.82147	0.02678
726.05645	0.02724
726.29144	0.02603
726.52644	0.02736
726.76145	0.02591
726.99647	0.02653
727.2315	0.02604
727.46654	0.02706
727.70158	0.02548
727.93664	0.02555
728.17171	0.02509
728.40678	0.02576
728.64187	0.02518
728.87696	0.02596
729.11206	0.02521
729.34717	0.02535
729.58229	0.02468
729.81742	0.02535
730.05256	0.02363
730.28771	0.02488
730.52287	0.02314
730.75804	0.02475
730.99321	0.02251
731.2284	0.02439
731.46359	0.02222
731.69879	0.02351
731.93401	0.02301
732.16923	0.02314
732.40446	0.0216
732.6397	0.02294
732.87495	0.02155
733.11021	0.02291
733.34547	0.02239
733.58075	0.02242
733.81604	0.02119
734.05133	0.02267
734.28664	0.02108
734.52195	0.02226
734.75727	0.02076
734.9926	0.02168
735.22794	0.02101
735.46329	0.02125
735.69865	0.02099
735.93402	0.02129
736.1694	0.0201
736.40478	0.01998
736.64018	0.0195
736.87558	0.01956
737.111	0.01971
737.34642	0.01949
737.58185	0.01892
737.81729	0.02027
738.05274	0.01873
738.2882	0.0194
738.52367	0.01981
738.75914	0.01949
738.99463	0.01786
739.23012	0.01955
739.46563	0.01747
739.70114	0.01883
739.93666	0.0175
740.17219	0.01796
740.40773	0.01804
740.64328	0.0186
740.87884	0.01718
741.11441	0.01798
741.34998	0.01657
741.58557	0.01782
741.82116	0.01664
742.05676	0.01716
742.29238	0.01721
742.528	0.0177
742.76363	0.01647
742.99927	0.01691
743.23491	0.01596
743.47057	0.01684
743.70624	0.01645
743.94191	0.01754
744.1776	0.01509
744.41329	0.01609
744.64899	0.01489
744.8847	0.01723
745.12042	0.01464
745.35615	0.01602
745.59189	0.01512
745.82763	0.01645
746.06339	0.01395
746.29915	0.01563
746.53493	0.01482
746.77071	0.01531
747.0065	0.01442
747.2423	0.01486
747.47811	0.0139
747.71393	0.01471
747.94975	0.01382
748.18559	0.01446
748.42143	0.01367
748.65728	0.01437
748.89315	0.01325
749.12902	0.01408
749.3649	0.01246
749.60079	0.01477
749.83668	0.01272
750.07259	0.01402
750.30851	0.01266
750.54443	0.01398
750.78036	0.01406
751.0163	0.014
751.25226	0.01257
751.48821	0.01374
751.72418	0.01184
751.96016	0.01339
752.19615	0.0122
752.43214	0.0131
752.66814	0.01265
752.90416	0.01293
753.14018	0.01274
753.37621	0.01308
753.61225	0.01122
753.8483	0.01269
754.08435	0.01103
754.32042	0.01206
754.55649	0.01149
754.79257	0.0121
755.02867	0.01133
755.26477	0.01209
755.50087	0.01128
755.73699	0.01103
755.97312	0.01116
756.20925	0.01132
756.4454	0.01063
756.68155	0.01139
756.91771	0.01046
757.15388	0.01017
757.39006	0.00955
757.62625	0.01115
757.86245	0.00973
758.09865	0.01069
758.33487	0.00984
758.57109	0.00978
758.80732	0.01115
759.04356	0.00995
759.27981	0.01195
759.51607	0.00934
759.75233	0.01129
759.98861	0.0103
760.22489	0.00964
760.46118	0.00906
760.69748	0.01078
760.93379	0.00879
761.17011	0.01051
761.40644	0.00894
761.64278	0.00943
761.87912	0.00836
762.11547	0.01011
762.35183	0.00952
762.5882	0.00961
762.82458	0.00863
763.06097	0.00977
763.29737	0.00807
763.53377	0.00995
763.77019	0.0086
764.00661	0.00958
764.24304	0.00829
764.47948	0.00856
764.71593	0.00821
764.95238	0.00931
765.18885	0.00843
765.42532	0.00875
765.6618	0.00671
765.89829	0.00879
766.13479	0.00825
766.3713	0.00831
766.60782	0.00735
766.84434	0.00846
767.08088	0.0086
767.31742	0.00734
767.55397	0.00733
767.79053	0.00775
768.0271	0.00849
768.26367	0.00909
768.50026	0.00846
768.73685	0.00952
768.97346	0.00727
769.21007	0.00779
769.44669	0.00669
769.68331	0.00833
769.91995	0.00685
770.15659	0.00815
770.39325	0.00684
770.62991	0.00829
770.86658	0.00732
771.10326	0.00777
771.33995	0.00698
771.57664	0.00852
771.81335	0.00738
772.05006	0.00872
772.28678	0.0061
772.52351	0.00773
772.76025	0.0061
772.997	0.00816
773.23375	0.00643
773.47052	0.00818
773.70729	0.00535
773.94407	0.00705
774.18086	0.00629
774.41765	0.00731
774.65446	0.0051
774.89127	0.00833
775.1281	0.00503
775.36493	0.00617
775.60177	0.00459
775.83862	0.00605
776.07547	0.0045
776.31234	0.0075
776.54921	0.00607
776.78609	0.0074
777.02298	0.00546
777.25988	0.00675
777.49679	0.00488
777.7337	0.0085
777.97063	0.00544
778.20756	0.00832
778.4445	0.00634
778.68145	0.00662
778.91841	0.00443
779.15537	0.00575
779.39235	0.00476
779.62933	0.00648
779.86632	0.00538
780.10332	0.00765
780.34033	0.00512
780.57734	0.00545
780.81437	0.00513
781.0514	0.00817
781.28844	0.00622
781.52549	0.00599
781.76255	0.00434
781.99961	0.0068
782.23669	0.00514
782.47377	0.00546
782.71086	0.00522
782.94796	0.00552
783.18507	0.00359
783.42218	0.00623
783.6593	0.00512
783.89644	0.00688
784.13358	0.00373
784.37073	0.00525
784.60788	0.00511
784.84505	0.00693
785.08222	0.00377
785.3194	0.00551
785.55659	0.00315
785.79379	0.00602
786.031	0.00491
786.26821	0.00508
786.50544	0.00385
786.74267	0.0048
786.97991	0.00337
787.21716	0.00466
787.45441	0.00257
787.69168	0.00641
787.92895	0.00389
788.16623	0.00526
788.40352	0.00325
788.64081	0.00575
788.87812	0.00324
789.11543	0.00432
789.35275	0.0044
789.59008	0.00659
789.82742	0.00356
790.06477	0.00421
790.30212	0.00289
790.53949	0.00491
790.77686	0.00223
791.01424	0.00498
791.25162	0.00271
791.48902	0.00536
791.72642	0.00445
791.96383	0.00482
792.20125	0.00426
792.43868	0.00457
792.67612	0.00309
792.91356	0.00421
793.15101	0.00267
793.38847	0.00399
793.62594	0.00289
793.86342	0.00453
794.1009	0.00175
794.3384	0.00463
794.5759	0.00275
794.81341	0.00402
795.05092	0.00317
795.28845	0.00499
795.52598	0.00363
795.76352	0.00392
796.00107	0.00283
796.23863	0.0042
796.4762	0.00384
796.71377	0.00467
796.95135	0.00243
797.18894	0.00497
797.42654	0.00347
797.66415	0.00352
797.90176	0.00261
798.13938	0.00293
798.37701	0.00285
798.61465	0.00427
798.8523	0.00297
799.08995	0.00428
799.32761	0.00211
799.56528	0.00482
799.80296	0.00228
800.04065	0.00378
800.27834	0.00178
800.51605	0.00406
800.75376	0.00254
800.99147	0.00443
801.2292	0.00347
801.46694	0.00405
801.70468	0.00237
801.94243	0.00389
802.18019	0.0024
802.41795	0.00359
802.65573	0.00227
802.89351	0.00374
803.1313	0.00134
803.3691	0.0046
803.6069	0.00232
803.84472	0.00367
804.08254	0.00172
804.32037	0.00398
804.55821	0.00201
804.79605	0.00356
805.03391	0.00208
805.27177	0.00337
805.50964	7.95E-04
805.74752	0.00328
805.9854	0.00235
806.2233	0.00357
806.4612	0.00234
806.69911	0.00301
806.93702	0.00188
807.17495	0.00354
807.41288	7.98E-04
807.65082	0.00385
807.88877	0.00164
808.12673	0.00316
808.36469	0.00244
808.60266	0.00235
808.84064	9.59E-04
809.07863	0.00261
809.31663	0.00109
809.55463	0.00274
809.79264	6.08E-04
810.03066	0.00259
810.26869	0.00201
810.50672	0.00347
810.74477	0.00208
810.98282	0.00324
811.22088	7.32E-04
811.45894	0.00312
811.69702	9.30E-04
811.9351	0.00348
812.17319	0.00171
812.41129	0.00278
812.64939	0.00193
812.88751	0.00355
813.12563	0.00121
813.36376	0.00421
813.60189	0.00192
813.84004	0.00318
814.07819	8.33E-04
814.31635	0.00336
814.55452	9.00E-04
814.79269	0.0033
815.03088	0.0019
815.26907	0.004
815.50727	8.47E-04
815.74547	0.0037
815.98369	4.19E-04
816.22191	0.0022
816.46014	-2.88E-04
816.69838	0.00142
816.93662	0.00205
817.17488	0.00266
817.41314	5.86E-04
817.65141	0.0042
817.88968	0.00211
818.12797	0.00241
818.36626	0.00137
818.60456	0.00299
818.84286	9.84E-04
819.08118	0.00128
819.3195	0.00301
819.55783	-1.67E-04
819.79617	0.00221
820.03451	0.00106
820.27287	0.00304
820.51123	4.28E-04
820.7496	0.00293
820.98797	2.50E-05
821.22636	0.00314
821.46475	5.98E-04
821.70315	0.00229
821.94155	0.00101
822.17997	0.00299
822.41839	0.00139
822.65682	0.00354
822.89526	6.50E-04
823.1337	0.00315
823.37216	3.31E-04
823.61062	0.00174
823.84908	0.00109
824.08756	0.00314
824.32604	0.00171
824.56453	0.00305
824.80303	0.00139
825.04154	0.00264
825.28005	2.55E-04
825.51857	0.00238
825.7571	5.33E-04
825.99564	0.00199
826.23418	-0.00113
826.47273	0.00313
826.71129	4.85E-04
826.94986	0.00178
827.18843	3.69E-04
827.42701	0.00169
827.6656	-1.04E-04
827.9042	0.00155
828.1428	8.87E-04
828.38141	0.00183
828.62003	6.70E-04
828.85866	0.00289
829.0973	9.05E-04
829.33594	0.00252
829.57459	9.34E-04
829.81324	0.00217
830.05191	1.18E-04
830.29058	0.00294
830.52926	0.00121
830.76795	0.00236
831.00664	0.00113
831.24534	0.00234
831.48405	-2.96E-04
831.72277	0.0029
831.96149	1.18E-04
832.20023	0.00213
832.43897	3.77E-04
832.67771	0.00279
832.91647	5.84E-04
833.15523	0.00327
833.394	7.77E-05
833.63277	0.00255
833.87156	7.04E-04
834.11035	0.00144
834.34915	-4.68E-04
834.58796	0.00237
834.82677	0.00118
835.06559	0.00135
835.30442	1.31E-04
835.54326	0.00173
835.7821	-1.42E-04
836.02095	0.00246
836.25981	1.04E-04
836.49867	0.00178
836.73755	1.30E-04
836.97643	0.00133
837.21532	9.67E-04
837.45421	0.00243
837.69311	1.30E-04
837.93203	9.95E-04
838.17094	0.00116
838.40987	0.00121
838.6488	-7.54E-04
838.88774	0.00263
839.12669	6.18E-04
839.36564	0.00227
839.6046	-0.00108
839.84357	0.00197
840.08255	2.78E-04
840.32153	0.00249
840.56052	1.00E-03
840.79952	0.00112
841.03853	1.59E-04
841.27754	0.00171
841.51656	0.00157
841.75559	0.00152
841.99462	4.68E-04
842.23367	0.0012
842.47272	-8.78E-04
842.71177	0.00215
842.95084	5.17E-04
843.18991	7.47E-04
843.42899	-2.52E-06
843.66807	0.00183
843.90717	4.37E-04
844.14627	6.20E-04
844.38538	3.84E-04
844.62449	0.00146
844.86361	5.87E-05
845.10274	0.00178
845.34188	0.00156
845.58102	0.00155
845.82018	0.00125
846.05934	0.00243
846.2985	0.00124
846.53767	0.00218
846.77685	-0.0017
847.01604	0.00259
847.25524	-3.90E-04
847.49444	0.00129
847.73365	1.71E-04
847.97287	0.00117
848.21209	6.81E-04
848.45132	5.43E-04
848.69056	2.29E-04
848.9298	0.00122
849.16906	-0.00112
849.40832	0.0018
849.64758	-1.79E-04
849.88686	0.00135
850.12614	-0.00128
850.36543	-8.05E-05
850.60472	-2.94E-04
850.84403	0.00136
851.08334	-8.02E-04
851.32265	6.49E-04
851.56198	-0.00151
851.80131	0.00114
852.04065	-7.52E-04
852.27999	5.61E-04
852.51935	-0.00151
852.75871	0.00182
852.99807	-9.00E-05
853.23745	0.00175
853.47683	-7.66E-04
853.71622	0.00148
853.95561	-0.00138
854.19502	0.00388
854.43443	-8.44E-05
854.67384	0.00177
854.91327	0.00157
855.1527	0.00129
855.39214	-6.98E-04
855.63158	2.32E-04
855.87103	-0.00115
856.11049	0.00207
856.34996	9.25E-04
856.58943	0.00155
856.82892	-0.00136
857.0684	0.00211
857.3079	4.73E-04
857.5474	0.00248
857.78691	4.61E-04
858.02642	0.00102
858.26595	-6.43E-04
858.50548	4.73E-04
858.74502	3.47E-04
858.98456	7.39E-04
859.22411	-8.45E-04
859.46367	7.05E-04
859.70323	-5.77E-04
859.94281	4.03E-04
860.18239	-9.49E-04
860.42197	0.00108
860.66156	2.16E-05
860.90116	0.00176
861.14077	1.80E-04
861.38039	2.56E-04
861.62001	-0.001
861.85964	0.00233
862.09927	-0.00132
862.33891	0.00153
862.57856	-0.00114
862.81822	0.00159
863.05788	-8.69E-04
863.29755	1.27E-04
863.53723	-9.09E-05
863.77691	0.0023
864.0166	-8.28E-05
864.2563	0.00111
864.49601	5.04E-05
864.73572	8.30E-04
864.97544	-3.99E-04
865.21516	-5.18E-04
865.45489	-8.92E-04
865.69463	0.0015
865.93438	-0.00119
866.17413	0.00158
866.41389	-0.00104
866.65366	0.0023
866.89343	-8.71E-04
867.13321	0.00165
867.373	-0.00199
867.6128	0.00215
867.8526	-1.27E-05
868.09241	-2.89E-04
868.33222	-0.00158
868.57204	0.00235
868.81187	-0.00112
869.05171	0.00218
869.29155	-0.00127
869.5314	0.00304
869.77126	-2.19E-04
870.01112	8.63E-04
870.25099	-1.42E-04
870.49087	0.00118
870.73075	4.45E-04
870.97064	0.00281
871.21054	4.89E-04
871.45044	0.00107
871.69035	-0.00225
871.93027	-0.00123
872.1702	-0.00166
872.41013	9.72E-04
872.65007	-0.0016
872.89001	0.00103
873.12996	3.60E-04
873.36992	5.39E-04
873.60989	-0.00279
873.84986	0.00255
874.08984	-0.00149
874.32982	0.00121
874.56982	-0.00133
874.80982	5.99E-04
875.04982	-7.06E-04
875.28983	-5.83E-05
875.52985	-0.00199
875.76988	0.00111
876.00991	-7.19E-04
876.24995	0.001
876.49	-8.58E-04
876.73005	-5.97E-05
876.97011	-0.00379
877.21018	0.00244
877.45025	-0.00233
877.69033	0.00177
877.93042	-9.93E-04
878.17051	0.00167
878.41061	-8.04E-04
878.65072	8.92E-04
878.89084	-0.00404
879.13096	0.00425
879.37108	-9.53E-04
879.61122	0.00159
879.85136	0.00142
880.0915	0.00306
880.33166	-9.18E-04
880.57182	-0.00215
880.81199	0.00132
881.05216	-6.52E-04
881.29234	0.00109
881.53253	-8.56E-04
881.77272	0.00148
882.01292	-7.06E-04
882.25313	0.00231
882.49334	3.54E-04
882.73356	0.0013
882.97379	-0.00211
883.21402	0.0018
883.45426	-3.29E-04
883.69451	0.00154
883.93476	6.97E-04
884.17502	0.00298
884.41529	-0.0013
884.65556	0.00222
884.89584	-7.86E-04
885.13613	0.00304
885.37642	-0.00153
885.61672	0.00295
885.85703	6.97E-05
886.09734	0.00121
886.33766	-0.00256
886.57799	9.67E-04
886.81832	-0.00249
887.05866	0.00266
887.29901	-7.95E-04
887.53936	2.10E-05
887.77972	-1.94E-04
888.02008	-1.45E-04
888.26045	0.001
888.50083	0.00341
888.74122	-1.46E-04
888.98161	-6.92E-05
889.22201	-0.00162
889.46241	-0.00113
889.70282	-0.00228
889.94324	-0.00116
890.18366	-7.11E-04
890.42409	0.00247
890.66453	-0.00131
890.90497	7.48E-04
891.14542	-4.81E-04
891.38588	0.00367
891.62634	-0.00216
891.86681	6.07E-04
892.10729	-0.00362
892.34777	9.43E-04
892.58826	-0.00274
892.82876	0.00173
893.06926	-0.00109
893.30977	0.00136
893.55028	-0.00317
893.7908	0.00186
894.03133	3.34E-04
894.27186	5.24E-04
894.51241	-0.00266
894.75295	0.00117
894.99351	-0.00279
895.23407	0.00204
895.47463	-0.00459
895.7152	0.00448
895.95578	-0.00434
896.19637	0.00155
896.43696	-0.00198
896.67756	0.00196
896.91816	-0.00314
897.15878	0.00111
897.39939	-0.00363
897.64002	0.0028
897.88065	-0.00139
898.12128	-3.34E-05
898.36193	-0.00346
898.60258	7.09E-04
898.84323	-0.00492
899.08389	0.00142
899.32456	-0.00406
899.56524	0.00269
899.80592	-0.00291
900.04661	0.0026
900.2873	-0.00202
900.528	0.00242
900.76871	-0.00461
901.00942	0.00306
901.25014	-0.00298
901.49087	0.00323
901.7316	-0.0037
901.97234	0.00241
902.21308	-0.00555
902.45383	6.07E-04
902.69459	-0.0043
902.93535	0.00246
903.17612	-0.0023
903.4169	0.00296
903.65768	-0.00256
903.89847	0.00124
904.13926	-0.00343
904.38006	0.00129
904.62087	-0.00315
904.86169	0.00227
905.10251	-0.00174
905.34333	3.81E-04
905.58416	-0.00347
905.825	0.00236
906.06585	-0.00106
906.3067	0.00205
906.54756	-0.00133
906.78842	-5.06E-04
907.02929	-0.00163
907.27017	-5.88E-04
907.51105	-0.00318
907.75194	0.00507
907.99283	-0.00287
908.23373	0.00231
908.47464	-0.00452
908.71555	0.00103
908.95647	6.48E-04
909.1974	-0.00135
909.43833	-0.00628
909.67927	-3.11E-04
909.92021	-3.44E-04
910.16116	-0.00147
910.40212	-0.00259
910.64308	0.00159
910.88405	-0.00163
911.12503	0.00429
911.36601	-7.07E-05
911.607	0.00209
911.84799	-0.00255
912.08899	0.00165
912.33	-0.00372
912.57101	0.00275
912.81203	-0.00111
913.05305	-8.85E-05
913.29408	-0.00763
913.53512	-6.03E-04
913.77616	-0.00107
914.01721	7.77E-04
914.25827	-0.00411
914.49933	0.00142
914.74039	-0.00314
914.98147	0.00358
915.22255	-0.00153
915.46363	0.00317
915.70472	-0.00333
915.94582	0.00175
916.18693	-0.0018
916.42804	7.93E-04
916.66915	-0.00207
916.91027	4.56E-04
917.1514	-0.00542
917.39254	0.00269
917.63368	-0.00269
917.87482	7.16E-04
918.11597	-0.00296
918.35713	0.00136
918.5983	-0.00582
918.83947	-0.00331
919.08064	-0.0032
919.32183	0.00339
919.56301	-0.00264
919.80421	0.0016
920.04541	-0.00296
920.28662	0.00152
920.52783	-0.00257
920.76905	0.00123
921.01027	-0.00194
921.2515	-0.00101
921.49274	-0.00611
921.73398	0.00327
921.97523	-0.00213
922.21648	8.52E-04
922.45774	-6.19E-06
922.69901	9.99E-04
922.94028	-0.00296
923.18156	-5.83E-04
923.42285	1.91E-04
923.66414	2.98E-05
923.90543	-0.00292
924.14673	3.56E-04
924.38804	-0.00509
924.62936	1.15E-05
924.87068	-0.00419
925.112	4.51E-04
925.35333	-0.00336
925.59467	0.00163
925.83602	-0.00117
926.07737	0.00583
926.31872	-0.00344
926.56008	0.0045
926.80145	-0.00345
927.04282	0.00483
927.2842	-0.00429
927.52559	0.00272
927.76698	-0.00518
928.00837	-0.00266
928.24978	-0.001
928.49119	0.0026
928.7326	-0.00351
928.97402	-4.43E-04
929.21545	-4.06E-04
929.45688	0.0036
929.69832	-0.00159
929.93976	6.45E-04
930.18121	-0.003
930.42267	-1.41E-04
930.66413	-0.00147
930.90559	0.00158
931.14707	-0.00398
931.38855	5.57E-04
931.63003	-0.00151
931.87152	7.14E-05
932.11302	-0.00279
932.35452	-5.18E-04
932.59603	-0.00109
932.83754	-4.64E-05
933.07906	-0.00301
933.32059	-0.00132
933.56212	-0.00846
933.80365	0.00307
934.0452	-9.99E-04
934.28674	0.00533
934.5283	-9.87E-04
934.76986	0.00161
935.01142	-0.00723
935.253	0.00219
935.49457	-0.0058
935.73616	0.00118
935.97774	-0.00568
936.21934	0.0013
936.46094	-0.00235
936.70254	0.00679
936.94416	-0.00532
937.18577	0.00188
937.4274	-0.0058
937.66903	-6.68E-04
937.91066	-7.47E-05
938.1523	0.00326
938.39395	-0.00536
938.6356	0.0052
938.87726	-0.00211
939.11892	0.00339
939.36059	-0.00243
939.60226	0.00533
939.84394	-0.00449
940.08563	-8.71E-04
940.32732	-0.00146
940.56902	0.00255
940.81072	-0.00539
941.05243	0.001
941.29414	-0.00768
941.53586	-0.00153
941.77759	-0.00373
942.01932	-0.00102
942.26106	0.00233
942.5028	-0.00467
942.74455	0.00279
942.9863	-0.00153
943.22806	6.63E-04
943.46983	-0.00504
943.7116	-0.00419
943.95337	-0.00363
944.19516	-0.00213
944.43694	0.00135
944.67874	0.00545
944.92054	-0.0095
945.16234	0.00521
945.40415	-2.47E-04
945.64596	0.00242
945.88779	-0.00526
946.12961	4.33E-05
946.37145	-0.0078
946.61328	0.00467
946.85513	-0.00699
947.09698	0.00331
947.33883	-0.00708
947.58069	-0.00105
947.82256	-0.00827
948.06443	0.00144
948.3063	-9.20E-04
948.54819	0.0016
948.79007	-5.99E-04
949.03197	0.0053
949.27387	-0.00314
949.51577	0.00176
949.75768	-0.00946
949.9996	9.49E-04
950.24152	-0.0063
950.48344	0.00331
950.72538	-0.00348
950.96731	0.00465
951.20926	-0.00603
951.45121	0.00245
951.69316	-0.00586
951.93512	0.00368
952.17708	-9.71E-06
952.41906	-9.86E-04
952.66103	-0.00533
952.90301	0.00191
953.145	-0.00214
953.38699	0.00514
953.62899	-0.00857
953.87099	7.84E-04
954.113	-0.00768
954.35502	0.00154
954.59704	-0.01024
954.83906	-0.00143
955.08109	-0.00949
955.32313	-0.00175
955.56517	-0.00203
955.80722	0.00183
956.04927	-0.00549
956.29133	0.00371
956.53339	-0.00452
956.77546	0.00186
957.01753	-0.00844
957.25961	-0.00201
957.5017	-0.00229
957.74379	0.00107
957.98588	-0.0057
958.22798	0.00761
958.47009	-0.00357
958.7122	0.00935
958.95432	-3.79E-04
959.19644	0.00624
959.43857	-0.00138
959.6807	0.00104
959.92284	2.53E-04
960.16498	0.00437
960.40713	-0.00649
960.64929	0.00157
960.89145	-0.00469
961.13361	0.00151
961.37578	-0.00324
961.61796	0.0051
961.86014	-0.00705
962.10233	0.00756
962.34452	-0.00433
962.58671	0.00516
962.82892	-0.00555
963.07112	0.00499
963.31334	-0.00727
963.55556	0.00662
963.79778	-0.00484
964.04001	0.00122
964.28224	-0.00604
964.52448	0.00107
964.76673	-0.00278
965.00898	0.00149
965.25123	-0.00449
965.49349	0.00198
965.73576	-0.00896
965.97803	-0.00383
966.22031	-0.008
966.46259	-4.48E-04
966.70488	-0.00914
966.94717	-8.90E-04
967.18946	-0.00423
967.43177	0.0046
967.67408	-0.00446
967.91639	2.66E-04
968.15871	-0.00245
968.40103	-0.00165
968.64336	-0.00365
968.88569	-8.17E-04
969.12803	-0.00241
969.37038	0.00184
969.61273	-0.00392
969.85508	-1.23E-04
970.09744	-0.00461
970.3398	-9.40E-05
970.58218	-3.50E-04
970.82455	0.00352
971.06693	-0.00415
971.30932	0.00194
971.55171	-0.00436
971.7941	0.00412
972.03651	2.21E-04
972.27891	0.00493
972.52132	-0.0084
972.76374	0.00514
973.00616	-0.00553
973.24859	0.00321
973.49102	-0.00784
973.73346	0.00303
973.9759	-0.00139
974.21835	0.00695
974.4608	-0.00541
974.70326	8.68E-04
974.94572	-0.00271
975.18819	0.00719
975.43066	-0.00382
975.67314	0.001
975.91562	-0.00386
976.15811	0.00277
976.40061	-0.00381
976.6431	-6.97E-04
976.88561	-0.00511
977.12812	0.00325
977.37063	-0.00542
977.61315	0.00173
977.85567	-0.00699
978.0982	0.00672
978.34074	-0.00614
978.58327	0.00101
978.82582	-0.00433
979.06837	2.47E-04
979.31092	-0.0027
979.55348	0.00347
979.79604	2.18E-04
980.03861	0.00278
980.28119	-0.00344
980.52377	0.00363
980.76635	-0.00546
981.00894	0.00296
981.25154	-0.0036
981.49413	-1.18E-05
981.73674	-0.00565
981.97935	-0.00345
982.22196	7.76E-04
982.46458	0.00308
982.70721	-1.85E-04
982.94983	0.0045
983.19247	-0.01167
983.43511	0.00268
983.67775	-0.00772
983.9204	0.00618
984.16306	-0.00798
984.40571	-0.0038
984.64838	-0.00599
984.89105	0.00946
985.13372	0.00118
985.3764	0.00325
985.61908	-0.00256
985.86177	0.00881
986.10447	-0.0049
986.34716	0.00854
986.58987	-0.0141
986.83258	1.36E-04
987.07529	-0.00706
987.31801	0.00685
987.56073	-0.01347
987.80346	0.00247
988.04619	-0.00896
988.28893	-0.00976
988.53167	1.41E-04
988.77442	0.00531
989.01717	-0.0036
989.25993	-0.00532
989.50269	-0.00727
989.74546	0.00808
989.98823	-4.17E-04
990.23101	-9.85E-04
990.47379	-0.00626
990.71657	0.00247
990.95937	-0.00554
991.20216	0.00998
991.44496	-0.00857
991.68777	0.00457
991.93058	-0.00315
992.17339	0.00377
992.41621	-0.00365
992.65904	-0.00248
992.90187	0.00165
993.1447	0.0084
993.38754	-0.00467
993.63039	0.00514
993.87324	-0.0106
994.11609	6.40E-04
994.35895	-0.00916
994.60181	0.00356
994.84468	-0.00149
995.08755	0.00227
995.33043	-0.00168
995.57331	0.00134
995.8162	-0.00744
996.05909	0.00297
996.30199	-0.00652
996.54489	0.00454
996.7878	7.71E-05
997.03071	6.42E-04
997.27363	-0.00999
997.51655	0.0061
997.75947	-0.00368
998.0024	0.00791
998.24534	-0.00232
998.48828	0.01012
998.73122	-0.00897
998.97417	-0.00251
999.21712	-0.01265
999.46008	0.00877
999.70304	-0.00638
999.94601	0.00498
1000.18898	-0.00936
1000.43196	-0.00358
1000.67494	-0.00698
1000.91793	0.01053
1001.16092	-0.00603
1001.40392	0.01279
1001.64692	0.00413
1001.88992	0.00651
1002.13293	-0.00503
1002.37595	0.00236
1002.61897	-0.0034
1002.86199	0.00589
1003.10502	-0.01484
1003.34805	0.01313
1003.59109	-0.01486
1003.83413	-0.00507
1004.07718	-0.0011
1004.32023	-0.00634
1004.56329	0.00262
1004.80635	-0.00436
1005.04941	0.00544
1005.29248	-0.00208
1005.53556	0.00861
1005.77864	-0.01467
1006.02172	0.00346
1006.26481	-0.00905
1006.5079	-0.00448
1006.751	-0.0083
1006.9941	0.01306
1007.23721	-0.00177
1007.48032	0.00772
1007.72344	-0.00518
1007.96656	-0.00342
1008.20968	-0.00332
1008.45281	-0.00333
1008.69595	-0.00669
1008.93909	0.00273
1009.18223	-0.01536
1009.42538	-0.00472
1009.66853	-0.00583
1009.91169	0.01095
1010.15485	-0.01759
1010.39801	0.00916
1010.64118	-0.01651
1010.88436	0.0091
1011.12754	-0.01084
1011.37072	0.01757
1011.61391	-0.01152
1011.8571	0.00867
1012.1003	-0.0168
1012.3435	0.00547
1012.58671	-0.00925
1012.82992	0.00367
1013.07314	-0.00768
1013.31636	0.00883
1013.55958	-0.01087
1013.80281	0.0147
1014.04604	-0.0197
1014.28928	-0.00554
1014.53252	-0.01636
1014.77577	0.0156
1015.01902	0.00592
1015.26228	0.00444
1015.50554	-0.01182
1015.7488	0.00765
1015.99207	-0.00483
1016.23535	0.00891
1016.47862	-0.01081
1016.72191	0.01325
1016.96519	-0.00575
1017.20848	-0.00692
1017.45178	-0.01211
1017.69508	-1.97E-04
1017.93838	-0.01267
1018.18169	0.02686
1018.425	1.46E-04
1018.66832	0.00986
1018.91164	-0.01265
1019.15497	0.02508
1019.3983	-0.00996
1019.64164	0.0126
1019.88498	-0.01555
1020.12832	0.00194
1020.37167	0.00241
1020.61502	0.01256
1020.85838	-0.00261
1021.10174	0.0099
1021.3451	-0.02532
1021.58847	0.02084
1021.83185	0
1022.07523	0
1022.31861	0
1022.562	0
1022.80539	0
1023.04878	0
1023.29218	0
1023.53559	0
1023.779	0
1024.02241	0
1024.26583	0
1024.50925	0
1024.75268	0
